xof 0302txt 0064
template Header {
 <3D82AB43-62DA-11cf-AB39-0020AF71E433>
 WORD major;
 WORD minor;
 DWORD flags;
}

template Vector {
 <3D82AB5E-62DA-11cf-AB39-0020AF71E433>
 FLOAT x;
 FLOAT y;
 FLOAT z;
}

template Coords2d {
 <F6F23F44-7686-11cf-8F52-0040333594A3>
 FLOAT u;
 FLOAT v;
}

template Matrix4x4 {
 <F6F23F45-7686-11cf-8F52-0040333594A3>
 array FLOAT matrix[16];
}

template ColorRGBA {
 <35FF44E0-6C7C-11cf-8F52-0040333594A3>
 FLOAT red;
 FLOAT green;
 FLOAT blue;
 FLOAT alpha;
}

template ColorRGB {
 <D3E16E81-7835-11cf-8F52-0040333594A3>
 FLOAT red;
 FLOAT green;
 FLOAT blue;
}

template IndexedColor {
 <1630B820-7842-11cf-8F52-0040333594A3>
 DWORD index;
 ColorRGBA indexColor;
}

template Boolean {
 <4885AE61-78E8-11cf-8F52-0040333594A3>
 WORD truefalse;
}

template Boolean2d {
 <4885AE63-78E8-11cf-8F52-0040333594A3>
 Boolean u;
 Boolean v;
}

template MaterialWrap {
 <4885AE60-78E8-11cf-8F52-0040333594A3>
 Boolean u;
 Boolean v;
}

template TextureFilename {
 <A42790E1-7810-11cf-8F52-0040333594A3>
 STRING filename;
}

template Material {
 <3D82AB4D-62DA-11cf-AB39-0020AF71E433>
 ColorRGBA faceColor;
 FLOAT power;
 ColorRGB specularColor;
 ColorRGB emissiveColor;
 [...]
}

template MeshFace {
 <3D82AB5F-62DA-11cf-AB39-0020AF71E433>
 DWORD nFaceVertexIndices;
 array DWORD faceVertexIndices[nFaceVertexIndices];
}

template MeshFaceWraps {
 <4885AE62-78E8-11cf-8F52-0040333594A3>
 DWORD nFaceWrapValues;
 Boolean2d faceWrapValues;
}

template MeshTextureCoords {
 <F6F23F40-7686-11cf-8F52-0040333594A3>
 DWORD nTextureCoords;
 array Coords2d textureCoords[nTextureCoords];
}

template MeshMaterialList {
 <F6F23F42-7686-11cf-8F52-0040333594A3>
 DWORD nMaterials;
 DWORD nFaceIndexes;
 array DWORD faceIndexes[nFaceIndexes];
 [Material]
}

template MeshNormals {
 <F6F23F43-7686-11cf-8F52-0040333594A3>
 DWORD nNormals;
 array Vector normals[nNormals];
 DWORD nFaceNormals;
 array MeshFace faceNormals[nFaceNormals];
}

template MeshVertexColors {
 <1630B821-7842-11cf-8F52-0040333594A3>
 DWORD nVertexColors;
 array IndexedColor vertexColors[nVertexColors];
}

template Mesh {
 <3D82AB44-62DA-11cf-AB39-0020AF71E433>
 DWORD nVertices;
 array Vector vertices[nVertices];
 DWORD nFaces;
 array MeshFace faces[nFaces];
 [...]
}

Header{
1;
0;
1;
}

Mesh {
 124;
 0.00000;270.25690;0.00000;,
 78.68905;248.12131;-78.68905;,
 0.00000;248.12131;-111.28305;,
 111.28305;248.12131;0.00000;,
 78.68905;248.12131;78.68905;,
 0.00000;248.12131;111.28305;,
 -78.68905;248.12131;78.68905;,
 -111.28305;248.12131;0.00000;,
 -78.68905;248.12131;-78.68905;,
 145.39845;185.08459;-145.39845;,
 0.00000;185.08459;-205.62456;,
 205.62456;185.08459;0.00000;,
 145.39845;185.08459;145.39845;,
 0.00000;185.08459;205.62456;,
 -145.39845;185.08459;145.39845;,
 -205.62456;185.08459;0.00000;,
 -145.39845;185.08459;-145.39845;,
 189.97211;90.74305;-189.97211;,
 0.00000;90.74305;-268.66116;,
 268.66116;90.74305;0.00000;,
 189.97211;90.74305;189.97211;,
 0.00000;90.74305;268.66116;,
 -189.97235;90.74305;189.97211;,
 -268.66116;90.74305;0.00000;,
 -189.97235;90.74305;-189.97211;,
 205.62456;-20.53995;-205.62456;,
 0.00000;-20.53995;-290.79694;,
 290.79694;-20.53995;-0.00000;,
 205.62456;-20.53995;205.62456;,
 0.00000;-20.53995;290.79694;,
 -205.62456;-20.53995;205.62456;,
 -290.79694;-20.53995;0.00000;,
 -205.62456;-20.53995;-205.62456;,
 189.97211;-131.82335;-189.97211;,
 0.00000;-131.82335;-268.66116;,
 268.66116;-131.82335;-0.00000;,
 189.97211;-131.82335;189.97211;,
 0.00000;-131.82335;268.66116;,
 -189.97235;-131.82335;189.97211;,
 -268.66116;-131.82335;0.00000;,
 -189.97235;-131.82335;-189.97211;,
 145.39845;-226.16455;-145.39845;,
 0.00000;-226.16455;-205.62456;,
 205.62456;-226.16455;-0.00000;,
 145.39845;-226.16455;145.39845;,
 0.00000;-226.16455;205.62456;,
 -145.39845;-226.16455;145.39845;,
 -205.62456;-226.16455;0.00000;,
 -145.39845;-226.16455;-145.39845;,
 78.68905;-289.20099;-78.68905;,
 0.00000;-289.20099;-111.28305;,
 111.28305;-289.20099;-0.00000;,
 78.68905;-289.20099;78.68905;,
 0.00000;-289.20099;111.28305;,
 -78.68905;-289.20099;78.68905;,
 -111.28305;-289.20099;0.00000;,
 -78.68905;-289.20099;-78.68905;,
 0.00000;-311.33701;-0.00000;,
 0.00000;270.25690;0.00000;,
 78.68905;248.12131;-78.68905;,
 0.00000;248.12131;-111.28305;,
 111.28305;248.12131;0.00000;,
 78.68905;248.12131;78.68905;,
 0.00000;248.12131;111.28305;,
 -78.68905;248.12131;78.68905;,
 -111.28305;248.12131;0.00000;,
 -78.68905;248.12131;-78.68905;,
 145.39845;185.08459;-145.39845;,
 0.00000;185.08459;-205.62456;,
 205.62456;185.08459;0.00000;,
 145.39845;185.08459;145.39845;,
 0.00000;185.08459;205.62456;,
 -145.39845;185.08459;145.39845;,
 -205.62456;185.08459;0.00000;,
 -145.39845;185.08459;-145.39845;,
 189.97211;90.74305;-189.97211;,
 0.00000;90.74305;-268.66116;,
 268.66116;90.74305;0.00000;,
 189.97211;90.74305;189.97211;,
 0.00000;90.74305;268.66116;,
 -189.97235;90.74305;189.97211;,
 -268.66116;90.74305;0.00000;,
 -189.97235;90.74305;-189.97211;,
 205.62456;-20.53995;-205.62456;,
 0.00000;-20.53995;-290.79694;,
 290.79694;-20.53995;-0.00000;,
 205.62456;-20.53995;205.62456;,
 0.00000;-20.53995;290.79694;,
 -205.62456;-20.53995;205.62456;,
 -290.79694;-20.53995;0.00000;,
 -205.62456;-20.53995;-205.62456;,
 189.97211;-131.82335;-189.97211;,
 0.00000;-131.82335;-268.66116;,
 268.66116;-131.82335;-0.00000;,
 189.97211;-131.82335;189.97211;,
 0.00000;-131.82335;268.66116;,
 -189.97235;-131.82335;189.97211;,
 -268.66116;-131.82335;0.00000;,
 -189.97235;-131.82335;-189.97211;,
 145.39845;-226.16455;-145.39845;,
 0.00000;-226.16455;-205.62456;,
 205.62456;-226.16455;-0.00000;,
 145.39845;-226.16455;145.39845;,
 0.00000;-226.16455;205.62456;,
 -145.39845;-226.16455;145.39845;,
 -205.62456;-226.16455;0.00000;,
 -145.39845;-226.16455;-145.39845;,
 78.68905;-289.20099;-78.68905;,
 0.00000;-289.20099;-111.28305;,
 111.28305;-289.20099;-0.00000;,
 78.68905;-289.20099;78.68905;,
 0.00000;-289.20099;111.28305;,
 -78.68905;-289.20099;78.68905;,
 -111.28305;-289.20099;0.00000;,
 -78.68905;-289.20099;-78.68905;,
 0.00000;-311.33701;-0.00000;,
 -36.34960;319.86700;-36.34960;,
 36.34960;319.86700;-36.34960;,
 36.34960;247.16760;-36.34960;,
 -36.34960;247.16760;-36.34960;,
 36.34960;319.86700;36.34960;,
 36.34960;247.16760;36.34960;,
 -36.34960;319.86700;36.34960;,
 -36.34960;247.16760;36.34960;;
 
 134;
 3;0,1,2;,
 3;0,3,1;,
 3;0,4,3;,
 3;0,5,4;,
 3;0,6,5;,
 3;0,7,6;,
 3;0,8,7;,
 3;0,2,8;,
 4;2,1,9,10;,
 4;1,3,11,9;,
 4;3,4,12,11;,
 4;4,5,13,12;,
 4;5,6,14,13;,
 4;6,7,15,14;,
 4;7,8,16,15;,
 4;8,2,10,16;,
 4;10,9,17,18;,
 4;9,11,19,17;,
 4;11,12,20,19;,
 4;12,13,21,20;,
 4;13,14,22,21;,
 4;14,15,23,22;,
 4;15,16,24,23;,
 4;16,10,18,24;,
 4;18,17,25,26;,
 4;17,19,27,25;,
 4;19,20,28,27;,
 4;20,21,29,28;,
 4;21,22,30,29;,
 4;22,23,31,30;,
 4;23,24,32,31;,
 4;24,18,26,32;,
 4;26,25,33,34;,
 4;25,27,35,33;,
 4;27,28,36,35;,
 4;28,29,37,36;,
 4;29,30,38,37;,
 4;30,31,39,38;,
 4;31,32,40,39;,
 4;32,26,34,40;,
 4;34,33,41,42;,
 4;33,35,43,41;,
 4;35,36,44,43;,
 4;36,37,45,44;,
 4;37,38,46,45;,
 4;38,39,47,46;,
 4;39,40,48,47;,
 4;40,34,42,48;,
 4;42,41,49,50;,
 4;41,43,51,49;,
 4;43,44,52,51;,
 4;44,45,53,52;,
 4;45,46,54,53;,
 4;46,47,55,54;,
 4;47,48,56,55;,
 4;48,42,50,56;,
 3;50,49,57;,
 3;49,51,57;,
 3;51,52,57;,
 3;52,53,57;,
 3;53,54,57;,
 3;54,55,57;,
 3;55,56,57;,
 3;56,50,57;,
 3;58,59,60;,
 3;58,61,59;,
 3;58,62,61;,
 3;58,63,62;,
 3;58,64,63;,
 3;58,65,64;,
 3;58,66,65;,
 3;58,60,66;,
 4;60,59,67,68;,
 4;59,61,69,67;,
 4;61,62,70,69;,
 4;62,63,71,70;,
 4;63,64,72,71;,
 4;64,65,73,72;,
 4;65,66,74,73;,
 4;66,60,68,74;,
 4;68,67,75,76;,
 4;67,69,77,75;,
 4;69,70,78,77;,
 4;70,71,79,78;,
 4;71,72,80,79;,
 4;72,73,81,80;,
 4;73,74,82,81;,
 4;74,68,76,82;,
 4;76,75,83,84;,
 4;75,77,85,83;,
 4;77,78,86,85;,
 4;78,79,87,86;,
 4;79,80,88,87;,
 4;80,81,89,88;,
 4;81,82,90,89;,
 4;82,76,84,90;,
 4;84,83,91,92;,
 4;83,85,93,91;,
 4;85,86,94,93;,
 4;86,87,95,94;,
 4;87,88,96,95;,
 4;88,89,97,96;,
 4;89,90,98,97;,
 4;90,84,92,98;,
 4;92,91,99,100;,
 4;91,93,101,99;,
 4;93,94,102,101;,
 4;94,95,103,102;,
 4;95,96,104,103;,
 4;96,97,105,104;,
 4;97,98,106,105;,
 4;98,92,100,106;,
 4;100,99,107,108;,
 4;99,101,109,107;,
 4;101,102,110,109;,
 4;102,103,111,110;,
 4;103,104,112,111;,
 4;104,105,113,112;,
 4;105,106,114,113;,
 4;106,100,108,114;,
 3;108,107,115;,
 3;107,109,115;,
 3;109,110,115;,
 3;110,111,115;,
 3;111,112,115;,
 3;112,113,115;,
 3;113,114,115;,
 3;114,108,115;,
 4;116,117,118,119;,
 4;117,120,121,118;,
 4;120,122,123,121;,
 4;122,116,119,123;,
 4;122,120,117,116;,
 4;119,118,121,123;;
 
 MeshMaterialList {
  3;
  134;
  0,
  0,
  0,
  0,
  0,
  0,
  0,
  0,
  0,
  0,
  0,
  0,
  0,
  0,
  0,
  0,
  0,
  0,
  0,
  0,
  0,
  0,
  0,
  0,
  0,
  0,
  0,
  0,
  0,
  0,
  0,
  0,
  0,
  0,
  0,
  0,
  0,
  0,
  0,
  0,
  0,
  0,
  0,
  0,
  0,
  0,
  0,
  0,
  0,
  0,
  0,
  0,
  0,
  0,
  0,
  0,
  0,
  0,
  0,
  0,
  0,
  0,
  0,
  0,
  0,
  0,
  0,
  0,
  0,
  0,
  0,
  0,
  0,
  0,
  0,
  0,
  0,
  0,
  0,
  0,
  0,
  0,
  0,
  0,
  0,
  0,
  0,
  0,
  0,
  0,
  0,
  0,
  0,
  0,
  0,
  0,
  0,
  0,
  0,
  0,
  0,
  0,
  0,
  0,
  0,
  0,
  0,
  0,
  0,
  0,
  0,
  0,
  0,
  0,
  0,
  0,
  0,
  0,
  0,
  0,
  0,
  0,
  0,
  0,
  0,
  0,
  0,
  0,
  0,
  0,
  0,
  0,
  0,
  0;;
  Material {
   0.800000;0.800000;0.800000;1.000000;;
   5.000000;
   0.000000;0.000000;0.000000;;
   0.000000;0.000000;0.000000;;
   TextureFilename {
    "C:\\Users\\student\\Documents\\Visual Studio 2015\\Projects\\team1\\data\\TEXTURE\\木の皮.png";
   }
  }
  Material {
   0.800000;0.800000;0.800000;1.000000;;
   5.000000;
   0.000000;0.000000;0.000000;;
   0.000000;0.000000;0.000000;;
   TextureFilename {
    "C:\\Users\\student\\Documents\\Visual Studio 2015\\Projects\\team1\\data\\TEXTURE\\木のよこがわ.jpg";
   }
  }
  Material {
   0.800000;0.800000;0.800000;1.000000;;
   5.000000;
   0.000000;0.000000;0.000000;;
   0.000000;0.000000;0.000000;;
   TextureFilename {
    "C:\\Users\\student\\Documents\\Visual Studio 2015\\Projects\\team1\\data\\TEXTURE\\木のよこがわ.jpg";
   }
  }
 }
 MeshNormals {
  64;
  -0.000000;1.000000;0.000000;,
  0.000000;0.924736;-0.380610;,
  0.269132;0.924736;-0.269132;,
  0.380610;0.924736;0.000000;,
  0.269132;0.924736;0.269132;,
  0.000000;0.924736;0.380610;,
  -0.269132;0.924736;0.269132;,
  -0.380610;0.924736;0.000000;,
  -0.269132;0.924736;-0.269132;,
  0.000000;0.709230;-0.704977;,
  0.498494;0.709230;-0.498494;,
  0.704977;0.709230;0.000000;,
  0.498494;0.709230;0.498494;,
  0.000000;0.709230;0.704977;,
  -0.498494;0.709230;0.498494;,
  -0.704977;0.709230;0.000000;,
  -0.498494;0.709230;-0.498494;,
  0.000000;0.384551;-0.923104;,
  0.652733;0.384551;-0.652733;,
  0.923104;0.384551;0.000000;,
  0.652733;0.384551;0.652733;,
  0.000000;0.384551;0.923104;,
  -0.652733;0.384551;0.652733;,
  -0.923104;0.384551;0.000000;,
  -0.652733;0.384551;-0.652733;,
  0.000000;0.000000;-1.000000;,
  0.707107;0.000000;-0.707107;,
  1.000000;0.000000;0.000000;,
  0.707107;0.000000;0.707107;,
  0.000000;0.000000;1.000000;,
  -0.707107;0.000000;0.707107;,
  -1.000000;0.000000;0.000000;,
  -0.707107;0.000000;-0.707107;,
  0.000000;-0.384551;-0.923104;,
  0.652733;-0.384551;-0.652733;,
  0.923104;-0.384551;-0.000000;,
  0.652733;-0.384551;0.652733;,
  0.000000;-0.384551;0.923104;,
  -0.652733;-0.384551;0.652733;,
  -0.923104;-0.384551;0.000000;,
  -0.652733;-0.384551;-0.652733;,
  0.000000;-0.709231;-0.704976;,
  0.498493;-0.709231;-0.498493;,
  0.704976;-0.709231;-0.000000;,
  0.498493;-0.709231;0.498493;,
  0.000000;-0.709231;0.704976;,
  -0.498493;-0.709232;0.498493;,
  -0.704975;-0.709232;0.000000;,
  -0.498493;-0.709232;-0.498493;,
  0.000000;-0.924735;-0.380611;,
  0.269133;-0.924735;-0.269133;,
  0.380611;-0.924735;-0.000000;,
  0.269133;-0.924735;0.269133;,
  0.000000;-0.924735;0.380611;,
  -0.269133;-0.924735;0.269133;,
  -0.380611;-0.924735;0.000000;,
  -0.269133;-0.924735;-0.269133;,
  -0.000000;-1.000000;0.000000;,
  0.000000;0.000000;-1.000000;,
  1.000000;0.000000;0.000000;,
  0.000000;0.000000;1.000000;,
  -1.000000;0.000000;0.000000;,
  0.000000;1.000000;0.000000;,
  0.000000;-1.000000;-0.000000;;
  134;
  3;0,2,1;,
  3;0,3,2;,
  3;0,4,3;,
  3;0,5,4;,
  3;0,6,5;,
  3;0,7,6;,
  3;0,8,7;,
  3;0,1,8;,
  4;1,2,10,9;,
  4;2,3,11,10;,
  4;3,4,12,11;,
  4;4,5,13,12;,
  4;5,6,14,13;,
  4;6,7,15,14;,
  4;7,8,16,15;,
  4;8,1,9,16;,
  4;9,10,18,17;,
  4;10,11,19,18;,
  4;11,12,20,19;,
  4;12,13,21,20;,
  4;13,14,22,21;,
  4;14,15,23,22;,
  4;15,16,24,23;,
  4;16,9,17,24;,
  4;17,18,26,25;,
  4;18,19,27,26;,
  4;19,20,28,27;,
  4;20,21,29,28;,
  4;21,22,30,29;,
  4;22,23,31,30;,
  4;23,24,32,31;,
  4;24,17,25,32;,
  4;25,26,34,33;,
  4;26,27,35,34;,
  4;27,28,36,35;,
  4;28,29,37,36;,
  4;29,30,38,37;,
  4;30,31,39,38;,
  4;31,32,40,39;,
  4;32,25,33,40;,
  4;33,34,42,41;,
  4;34,35,43,42;,
  4;35,36,44,43;,
  4;36,37,45,44;,
  4;37,38,46,45;,
  4;38,39,47,46;,
  4;39,40,48,47;,
  4;40,33,41,48;,
  4;41,42,50,49;,
  4;42,43,51,50;,
  4;43,44,52,51;,
  4;44,45,53,52;,
  4;45,46,54,53;,
  4;46,47,55,54;,
  4;47,48,56,55;,
  4;48,41,49,56;,
  3;49,50,57;,
  3;50,51,57;,
  3;51,52,57;,
  3;52,53,57;,
  3;53,54,57;,
  3;54,55,57;,
  3;55,56,57;,
  3;56,49,57;,
  3;0,2,1;,
  3;0,3,2;,
  3;0,4,3;,
  3;0,5,4;,
  3;0,6,5;,
  3;0,7,6;,
  3;0,8,7;,
  3;0,1,8;,
  4;1,2,10,9;,
  4;2,3,11,10;,
  4;3,4,12,11;,
  4;4,5,13,12;,
  4;5,6,14,13;,
  4;6,7,15,14;,
  4;7,8,16,15;,
  4;8,1,9,16;,
  4;9,10,18,17;,
  4;10,11,19,18;,
  4;11,12,20,19;,
  4;12,13,21,20;,
  4;13,14,22,21;,
  4;14,15,23,22;,
  4;15,16,24,23;,
  4;16,9,17,24;,
  4;17,18,26,25;,
  4;18,19,27,26;,
  4;19,20,28,27;,
  4;20,21,29,28;,
  4;21,22,30,29;,
  4;22,23,31,30;,
  4;23,24,32,31;,
  4;24,17,25,32;,
  4;25,26,34,33;,
  4;26,27,35,34;,
  4;27,28,36,35;,
  4;28,29,37,36;,
  4;29,30,38,37;,
  4;30,31,39,38;,
  4;31,32,40,39;,
  4;32,25,33,40;,
  4;33,34,42,41;,
  4;34,35,43,42;,
  4;35,36,44,43;,
  4;36,37,45,44;,
  4;37,38,46,45;,
  4;38,39,47,46;,
  4;39,40,48,47;,
  4;40,33,41,48;,
  4;41,42,50,49;,
  4;42,43,51,50;,
  4;43,44,52,51;,
  4;44,45,53,52;,
  4;45,46,54,53;,
  4;46,47,55,54;,
  4;47,48,56,55;,
  4;48,41,49,56;,
  3;49,50,57;,
  3;50,51,57;,
  3;51,52,57;,
  3;52,53,57;,
  3;53,54,57;,
  3;54,55,57;,
  3;55,56,57;,
  3;56,49,57;,
  4;58,58,58,58;,
  4;59,59,59,59;,
  4;60,60,60,60;,
  4;61,61,61,61;,
  4;62,62,62,62;,
  4;63,63,63,63;;
 }
}
