xof 0302txt 0064
template Header {
 <3D82AB43-62DA-11cf-AB39-0020AF71E433>
 WORD major;
 WORD minor;
 DWORD flags;
}

template Vector {
 <3D82AB5E-62DA-11cf-AB39-0020AF71E433>
 FLOAT x;
 FLOAT y;
 FLOAT z;
}

template Coords2d {
 <F6F23F44-7686-11cf-8F52-0040333594A3>
 FLOAT u;
 FLOAT v;
}

template Matrix4x4 {
 <F6F23F45-7686-11cf-8F52-0040333594A3>
 array FLOAT matrix[16];
}

template ColorRGBA {
 <35FF44E0-6C7C-11cf-8F52-0040333594A3>
 FLOAT red;
 FLOAT green;
 FLOAT blue;
 FLOAT alpha;
}

template ColorRGB {
 <D3E16E81-7835-11cf-8F52-0040333594A3>
 FLOAT red;
 FLOAT green;
 FLOAT blue;
}

template IndexedColor {
 <1630B820-7842-11cf-8F52-0040333594A3>
 DWORD index;
 ColorRGBA indexColor;
}

template Boolean {
 <4885AE61-78E8-11cf-8F52-0040333594A3>
 WORD truefalse;
}

template Boolean2d {
 <4885AE63-78E8-11cf-8F52-0040333594A3>
 Boolean u;
 Boolean v;
}

template MaterialWrap {
 <4885AE60-78E8-11cf-8F52-0040333594A3>
 Boolean u;
 Boolean v;
}

template TextureFilename {
 <A42790E1-7810-11cf-8F52-0040333594A3>
 STRING filename;
}

template Material {
 <3D82AB4D-62DA-11cf-AB39-0020AF71E433>
 ColorRGBA faceColor;
 FLOAT power;
 ColorRGB specularColor;
 ColorRGB emissiveColor;
 [...]
}

template MeshFace {
 <3D82AB5F-62DA-11cf-AB39-0020AF71E433>
 DWORD nFaceVertexIndices;
 array DWORD faceVertexIndices[nFaceVertexIndices];
}

template MeshFaceWraps {
 <4885AE62-78E8-11cf-8F52-0040333594A3>
 DWORD nFaceWrapValues;
 Boolean2d faceWrapValues;
}

template MeshTextureCoords {
 <F6F23F40-7686-11cf-8F52-0040333594A3>
 DWORD nTextureCoords;
 array Coords2d textureCoords[nTextureCoords];
}

template MeshMaterialList {
 <F6F23F42-7686-11cf-8F52-0040333594A3>
 DWORD nMaterials;
 DWORD nFaceIndexes;
 array DWORD faceIndexes[nFaceIndexes];
 [Material]
}

template MeshNormals {
 <F6F23F43-7686-11cf-8F52-0040333594A3>
 DWORD nNormals;
 array Vector normals[nNormals];
 DWORD nFaceNormals;
 array MeshFace faceNormals[nFaceNormals];
}

template MeshVertexColors {
 <1630B821-7842-11cf-8F52-0040333594A3>
 DWORD nVertexColors;
 array IndexedColor vertexColors[nVertexColors];
}

template Mesh {
 <3D82AB44-62DA-11cf-AB39-0020AF71E433>
 DWORD nVertices;
 array Vector vertices[nVertices];
 DWORD nFaces;
 array MeshFace faces[nFaces];
 [...]
}

Header{
1;
0;
1;
}

Mesh {
 432;
 0.65350;8.00830;-366.82458;,
 0.65350;8.00830;-409.44339;,
 30.78970;8.00830;-396.96060;,
 0.65350;8.00830;-366.82458;,
 43.27260;8.00830;-366.82458;,
 0.65350;8.00830;-366.82458;,
 30.78970;8.00830;-336.68860;,
 0.65350;8.00830;-366.82458;,
 0.65350;8.00830;-324.20541;,
 0.65350;8.00830;-366.82458;,
 -29.48280;8.00830;-336.68860;,
 0.65350;8.00830;-366.82458;,
 -41.96540;8.00830;-366.82458;,
 0.65350;8.00830;-366.82458;,
 -29.48280;8.00830;-396.96060;,
 0.65350;8.00830;-366.82458;,
 0.65350;8.00830;-409.44339;,
 -41.96540;35.19600;-409.44339;,
 43.27260;35.19600;-409.44339;,
 43.27260;2.96680;-409.44339;,
 -41.96540;2.96680;-409.44339;,
 43.27260;35.19600;-409.44339;,
 43.27260;35.19600;-324.20541;,
 43.27260;2.96680;-324.20541;,
 43.27260;2.96680;-409.44339;,
 43.27260;35.19600;-324.20541;,
 -41.96540;35.19600;-324.20541;,
 -41.96540;2.96680;-324.20541;,
 43.27260;2.96680;-324.20541;,
 -41.96540;35.19600;-324.20541;,
 -41.96540;35.19600;-409.44339;,
 -41.96540;2.96680;-409.44339;,
 -41.96540;2.96680;-324.20541;,
 43.27260;35.19600;-409.44339;,
 -41.96540;35.19600;-409.44339;,
 -41.96540;2.96680;-409.44339;,
 43.27260;2.96680;-409.44339;,
 0.65350;381.07559;-366.82458;,
 30.78970;381.07559;-396.96060;,
 0.65350;381.07559;-409.44339;,
 0.65350;381.07559;-366.82458;,
 43.27260;381.07559;-366.82458;,
 0.65350;381.07559;-366.82458;,
 30.78970;381.07559;-336.68860;,
 0.65350;381.07559;-366.82458;,
 0.65350;381.07559;-324.20541;,
 0.65350;381.07559;-366.82458;,
 -29.48280;381.07559;-336.68860;,
 0.65350;381.07559;-366.82458;,
 -41.96540;381.07559;-366.82458;,
 0.65350;381.07559;-366.82458;,
 -29.48280;381.07559;-396.96060;,
 0.65350;381.07559;-366.82458;,
 0.65350;381.07559;-409.44339;,
 -41.96540;392.20810;-409.44339;,
 43.27260;392.20810;-409.44339;,
 43.27260;359.97879;-409.44339;,
 -41.96540;359.97879;-409.44339;,
 43.27260;392.20810;-409.44339;,
 43.27260;392.20810;-324.20541;,
 43.27260;359.97879;-324.20541;,
 43.27260;359.97879;-409.44339;,
 43.27260;392.20810;-324.20541;,
 -41.96540;392.20810;-324.20541;,
 -41.96540;359.97879;-324.20541;,
 43.27260;359.97879;-324.20541;,
 -41.96540;392.20810;-324.20541;,
 -41.96540;392.20810;-409.44339;,
 -41.96540;359.97879;-409.44339;,
 -41.96540;359.97879;-324.20541;,
 43.27260;392.20810;-409.44339;,
 -41.96540;392.20810;-409.44339;,
 -41.96540;359.97879;-409.44339;,
 43.27260;359.97879;-409.44339;,
 0.65350;377.37479;-399.54391;,
 23.78950;377.37479;-389.96078;,
 23.78950;6.16360;-389.96078;,
 0.65350;6.16360;-399.54391;,
 33.37260;377.37479;-366.82458;,
 33.37260;6.16360;-366.82458;,
 23.78950;377.37479;-343.68851;,
 23.78950;6.16360;-343.68851;,
 0.65350;377.37479;-334.10541;,
 0.65350;6.16360;-334.10541;,
 -22.48230;377.37479;-343.68851;,
 -22.48230;6.16360;-343.68851;,
 -32.06560;377.37479;-366.82458;,
 -32.06560;6.16360;-366.82458;,
 -22.48230;377.37479;-389.96078;,
 -22.48230;6.16360;-389.96078;,
 0.65350;377.37479;-399.54391;,
 0.65350;6.16360;-399.54391;,
 0.65350;377.37479;-366.82458;,
 0.65350;377.37479;-366.82458;,
 0.65350;377.37479;-366.82458;,
 0.65350;377.37479;-366.82458;,
 0.65350;377.37479;-366.82458;,
 0.65350;377.37479;-366.82458;,
 0.65350;377.37479;-366.82458;,
 0.65350;377.37479;-366.82458;,
 0.65350;6.16360;-366.82458;,
 0.65350;6.16360;-366.82458;,
 0.65350;6.16360;-366.82458;,
 0.65350;6.16360;-366.82458;,
 0.65350;6.16360;-366.82458;,
 0.65350;6.16360;-366.82458;,
 0.65350;6.16360;-366.82458;,
 0.65350;6.16360;-366.82458;,
 0.65350;8.00830;-97.33890;,
 0.65350;8.00830;-139.95790;,
 30.78970;8.00830;-127.47510;,
 0.65350;8.00830;-97.33890;,
 43.27260;8.00830;-97.33890;,
 0.65350;8.00830;-97.33890;,
 30.78970;8.00830;-67.20270;,
 0.65350;8.00830;-97.33890;,
 0.65350;8.00830;-54.71990;,
 0.65350;8.00830;-97.33890;,
 -29.48280;8.00830;-67.20270;,
 0.65350;8.00830;-97.33890;,
 -41.96540;8.00830;-97.33890;,
 0.65350;8.00830;-97.33890;,
 -29.48280;8.00830;-127.47510;,
 0.65350;8.00830;-97.33890;,
 0.65350;8.00830;-139.95790;,
 -41.96540;35.19600;-139.95790;,
 43.27260;35.19600;-139.95790;,
 43.27260;2.96680;-139.95790;,
 -41.96540;2.96680;-139.95790;,
 43.27260;35.19600;-139.95790;,
 43.27260;35.19600;-54.71990;,
 43.27260;2.96680;-54.71990;,
 43.27260;2.96680;-139.95790;,
 43.27260;35.19600;-54.71990;,
 -41.96540;35.19600;-54.71990;,
 -41.96540;2.96680;-54.71990;,
 43.27260;2.96680;-54.71990;,
 -41.96540;35.19600;-54.71990;,
 -41.96540;35.19600;-139.95790;,
 -41.96540;2.96680;-139.95790;,
 -41.96540;2.96680;-54.71990;,
 43.27260;35.19600;-139.95790;,
 -41.96540;35.19600;-139.95790;,
 -41.96540;2.96680;-139.95790;,
 43.27260;2.96680;-139.95790;,
 0.65350;381.07559;-97.33890;,
 30.78970;381.07559;-127.47510;,
 0.65350;381.07559;-139.95790;,
 0.65350;381.07559;-97.33890;,
 43.27260;381.07559;-97.33890;,
 0.65350;381.07559;-97.33890;,
 30.78970;381.07559;-67.20270;,
 0.65350;381.07559;-97.33890;,
 0.65350;381.07559;-54.71990;,
 0.65350;381.07559;-97.33890;,
 -29.48280;381.07559;-67.20270;,
 0.65350;381.07559;-97.33890;,
 -41.96540;381.07559;-97.33890;,
 0.65350;381.07559;-97.33890;,
 -29.48280;381.07559;-127.47510;,
 0.65350;381.07559;-97.33890;,
 0.65350;381.07559;-139.95790;,
 -41.96540;392.20810;-139.95790;,
 43.27260;392.20810;-139.95790;,
 43.27260;359.97879;-139.95790;,
 -41.96540;359.97879;-139.95790;,
 43.27260;392.20810;-139.95790;,
 43.27260;392.20810;-54.71990;,
 43.27260;359.97879;-54.71990;,
 43.27260;359.97879;-139.95790;,
 43.27260;392.20810;-54.71990;,
 -41.96540;392.20810;-54.71990;,
 -41.96540;359.97879;-54.71990;,
 43.27260;359.97879;-54.71990;,
 -41.96540;392.20810;-54.71990;,
 -41.96540;392.20810;-139.95790;,
 -41.96540;359.97879;-139.95790;,
 -41.96540;359.97879;-54.71990;,
 43.27260;392.20810;-139.95790;,
 -41.96540;392.20810;-139.95790;,
 -41.96540;359.97879;-139.95790;,
 43.27260;359.97879;-139.95790;,
 0.65350;377.37479;-130.05800;,
 23.78950;377.37479;-120.47470;,
 23.78950;6.16360;-120.47470;,
 0.65350;6.16360;-130.05800;,
 33.37260;377.37479;-97.33890;,
 33.37260;6.16360;-97.33890;,
 23.78950;377.37479;-74.20290;,
 23.78950;6.16360;-74.20290;,
 0.65350;377.37479;-64.61980;,
 0.65350;6.16360;-64.61980;,
 -22.48230;377.37479;-74.20290;,
 -22.48230;6.16360;-74.20290;,
 -32.06560;377.37479;-97.33890;,
 -32.06560;6.16360;-97.33890;,
 -22.48230;377.37479;-120.47470;,
 -22.48230;6.16360;-120.47470;,
 0.65350;377.37479;-130.05800;,
 0.65350;6.16360;-130.05800;,
 0.65350;377.37479;-97.33890;,
 0.65350;377.37479;-97.33890;,
 0.65350;377.37479;-97.33890;,
 0.65350;377.37479;-97.33890;,
 0.65350;377.37479;-97.33890;,
 0.65350;377.37479;-97.33890;,
 0.65350;377.37479;-97.33890;,
 0.65350;377.37479;-97.33890;,
 0.65350;6.16360;-97.33890;,
 0.65350;6.16360;-97.33890;,
 0.65350;6.16360;-97.33890;,
 0.65350;6.16360;-97.33890;,
 0.65350;6.16360;-97.33890;,
 0.65350;6.16360;-97.33890;,
 0.65350;6.16360;-97.33890;,
 0.65350;6.16360;-97.33890;,
 0.65350;8.00830;205.61940;,
 0.65350;8.00830;163.00031;,
 30.78970;8.00830;175.48320;,
 0.65350;8.00830;205.61940;,
 43.27260;8.00830;205.61940;,
 0.65350;8.00830;205.61940;,
 30.78970;8.00830;235.75540;,
 0.65350;8.00830;205.61940;,
 0.65350;8.00830;248.23830;,
 0.65350;8.00830;205.61940;,
 -29.48280;8.00830;235.75540;,
 0.65350;8.00830;205.61940;,
 -41.96540;8.00830;205.61940;,
 0.65350;8.00830;205.61940;,
 -29.48280;8.00830;175.48320;,
 0.65350;8.00830;205.61940;,
 0.65350;8.00830;163.00031;,
 -41.96540;35.19600;163.00031;,
 43.27260;35.19600;163.00031;,
 43.27260;2.96680;163.00031;,
 -41.96540;2.96680;163.00031;,
 43.27260;35.19600;163.00031;,
 43.27260;35.19600;248.23830;,
 43.27260;2.96680;248.23830;,
 43.27260;2.96680;163.00031;,
 43.27260;35.19600;248.23830;,
 -41.96540;35.19600;248.23830;,
 -41.96540;2.96680;248.23830;,
 43.27260;2.96680;248.23830;,
 -41.96540;35.19600;248.23830;,
 -41.96540;35.19600;163.00031;,
 -41.96540;2.96680;163.00031;,
 -41.96540;2.96680;248.23830;,
 43.27260;35.19600;163.00031;,
 -41.96540;35.19600;163.00031;,
 -41.96540;2.96680;163.00031;,
 43.27260;2.96680;163.00031;,
 0.65350;381.07559;205.61940;,
 30.78970;381.07559;175.48320;,
 0.65350;381.07559;163.00031;,
 0.65350;381.07559;205.61940;,
 43.27260;381.07559;205.61940;,
 0.65350;381.07559;205.61940;,
 30.78970;381.07559;235.75540;,
 0.65350;381.07559;205.61940;,
 0.65350;381.07559;248.23830;,
 0.65350;381.07559;205.61940;,
 -29.48280;381.07559;235.75540;,
 0.65350;381.07559;205.61940;,
 -41.96540;381.07559;205.61940;,
 0.65350;381.07559;205.61940;,
 -29.48280;381.07559;175.48320;,
 0.65350;381.07559;205.61940;,
 0.65350;381.07559;163.00031;,
 -41.96540;392.20810;163.00031;,
 43.27260;392.20810;163.00031;,
 43.27260;359.97879;163.00031;,
 -41.96540;359.97879;163.00031;,
 43.27260;392.20810;163.00031;,
 43.27260;392.20810;248.23830;,
 43.27260;359.97879;248.23830;,
 43.27260;359.97879;163.00031;,
 43.27260;392.20810;248.23830;,
 -41.96540;392.20810;248.23830;,
 -41.96540;359.97879;248.23830;,
 43.27260;359.97879;248.23830;,
 -41.96540;392.20810;248.23830;,
 -41.96540;392.20810;163.00031;,
 -41.96540;359.97879;163.00031;,
 -41.96540;359.97879;248.23830;,
 43.27260;392.20810;163.00031;,
 -41.96540;392.20810;163.00031;,
 -41.96540;359.97879;163.00031;,
 43.27260;359.97879;163.00031;,
 0.65350;377.37479;172.90030;,
 23.78950;377.37479;182.48351;,
 23.78950;6.16360;182.48351;,
 0.65350;6.16360;172.90030;,
 33.37260;377.37479;205.61940;,
 33.37260;6.16360;205.61940;,
 23.78950;377.37479;228.75520;,
 23.78950;6.16360;228.75520;,
 0.65350;377.37479;238.33859;,
 0.65350;6.16360;238.33859;,
 -22.48230;377.37479;228.75520;,
 -22.48230;6.16360;228.75520;,
 -32.06560;377.37479;205.61940;,
 -32.06560;6.16360;205.61940;,
 -22.48230;377.37479;182.48351;,
 -22.48230;6.16360;182.48351;,
 0.65350;377.37479;172.90030;,
 0.65350;6.16360;172.90030;,
 0.65350;377.37479;205.61940;,
 0.65350;377.37479;205.61940;,
 0.65350;377.37479;205.61940;,
 0.65350;377.37479;205.61940;,
 0.65350;377.37479;205.61940;,
 0.65350;377.37479;205.61940;,
 0.65350;377.37479;205.61940;,
 0.65350;377.37479;205.61940;,
 0.65350;6.16360;205.61940;,
 0.65350;6.16360;205.61940;,
 0.65350;6.16360;205.61940;,
 0.65350;6.16360;205.61940;,
 0.65350;6.16360;205.61940;,
 0.65350;6.16360;205.61940;,
 0.65350;6.16360;205.61940;,
 0.65350;6.16360;205.61940;,
 0.65350;8.00830;509.99850;,
 0.65350;8.00830;467.37991;,
 30.78970;8.00830;479.86240;,
 0.65350;8.00830;509.99850;,
 43.27260;8.00830;509.99850;,
 0.65350;8.00830;509.99850;,
 30.78970;8.00830;540.13483;,
 0.65350;8.00830;509.99850;,
 0.65350;8.00830;552.61792;,
 0.65350;8.00830;509.99850;,
 -29.48280;8.00830;540.13483;,
 0.65350;8.00830;509.99850;,
 -41.96540;8.00830;509.99850;,
 0.65350;8.00830;509.99850;,
 -29.48280;8.00830;479.86240;,
 0.65350;8.00830;509.99850;,
 0.65350;8.00830;467.37991;,
 -41.96540;35.19600;467.37991;,
 43.27260;35.19600;467.37991;,
 43.27260;2.96680;467.37991;,
 -41.96540;2.96680;467.37991;,
 43.27260;35.19600;467.37991;,
 43.27260;35.19600;552.61792;,
 43.27260;2.96680;552.61792;,
 43.27260;2.96680;467.37991;,
 43.27260;35.19600;552.61792;,
 -41.96540;35.19600;552.61792;,
 -41.96540;2.96680;552.61792;,
 43.27260;2.96680;552.61792;,
 -41.96540;35.19600;552.61792;,
 -41.96540;35.19600;467.37991;,
 -41.96540;2.96680;467.37991;,
 -41.96540;2.96680;552.61792;,
 43.27260;35.19600;467.37991;,
 -41.96540;35.19600;467.37991;,
 -41.96540;2.96680;467.37991;,
 43.27260;2.96680;467.37991;,
 0.65350;381.07559;509.99850;,
 30.78970;381.07559;479.86240;,
 0.65350;381.07559;467.37991;,
 0.65350;381.07559;509.99850;,
 43.27260;381.07559;509.99850;,
 0.65350;381.07559;509.99850;,
 30.78970;381.07559;540.13483;,
 0.65350;381.07559;509.99850;,
 0.65350;381.07559;552.61792;,
 0.65350;381.07559;509.99850;,
 -29.48280;381.07559;540.13483;,
 0.65350;381.07559;509.99850;,
 -41.96540;381.07559;509.99850;,
 0.65350;381.07559;509.99850;,
 -29.48280;381.07559;479.86240;,
 0.65350;381.07559;509.99850;,
 0.65350;381.07559;467.37991;,
 -41.96540;392.20810;467.37991;,
 43.27260;392.20810;467.37991;,
 43.27260;359.97879;467.37991;,
 -41.96540;359.97879;467.37991;,
 43.27260;392.20810;467.37991;,
 43.27260;392.20810;552.61792;,
 43.27260;359.97879;552.61792;,
 43.27260;359.97879;467.37991;,
 43.27260;392.20810;552.61792;,
 -41.96540;392.20810;552.61792;,
 -41.96540;359.97879;552.61792;,
 43.27260;359.97879;552.61792;,
 -41.96540;392.20810;552.61792;,
 -41.96540;392.20810;467.37991;,
 -41.96540;359.97879;467.37991;,
 -41.96540;359.97879;552.61792;,
 43.27260;392.20810;467.37991;,
 -41.96540;392.20810;467.37991;,
 -41.96540;359.97879;467.37991;,
 43.27260;359.97879;467.37991;,
 0.65350;377.37479;477.27951;,
 23.78950;377.37479;486.86310;,
 23.78950;6.16360;486.86310;,
 0.65350;6.16360;477.27951;,
 33.37260;377.37479;509.99850;,
 33.37260;6.16360;509.99850;,
 23.78950;377.37479;533.13458;,
 23.78950;6.16360;533.13458;,
 0.65350;377.37479;542.71753;,
 0.65350;6.16360;542.71753;,
 -22.48230;377.37479;533.13458;,
 -22.48230;6.16360;533.13458;,
 -32.06560;377.37479;509.99850;,
 -32.06560;6.16360;509.99850;,
 -22.48230;377.37479;486.86310;,
 -22.48230;6.16360;486.86310;,
 0.65350;377.37479;477.27951;,
 0.65350;6.16360;477.27951;,
 0.65350;377.37479;509.99850;,
 0.65350;377.37479;509.99850;,
 0.65350;377.37479;509.99850;,
 0.65350;377.37479;509.99850;,
 0.65350;377.37479;509.99850;,
 0.65350;377.37479;509.99850;,
 0.65350;377.37479;509.99850;,
 0.65350;377.37479;509.99850;,
 0.65350;6.16360;509.99850;,
 0.65350;6.16360;509.99850;,
 0.65350;6.16360;509.99850;,
 0.65350;6.16360;509.99850;,
 0.65350;6.16360;509.99850;,
 0.65350;6.16360;509.99850;,
 0.65350;6.16360;509.99850;,
 0.65350;6.16360;509.99850;;
 
 208;
 3;0,1,2;,
 3;3,2,4;,
 3;5,4,6;,
 3;7,6,8;,
 3;9,8,10;,
 3;11,10,12;,
 3;13,12,14;,
 3;15,14,16;,
 4;17,18,19,20;,
 4;21,22,23,24;,
 4;25,26,27,28;,
 4;29,30,31,32;,
 4;29,22,33,34;,
 4;35,36,23,32;,
 3;37,38,39;,
 3;40,41,38;,
 3;42,43,41;,
 3;44,45,43;,
 3;46,47,45;,
 3;48,49,47;,
 3;50,51,49;,
 3;52,53,51;,
 4;54,55,56,57;,
 4;58,59,60,61;,
 4;62,63,64,65;,
 4;66,67,68,69;,
 4;66,59,70,71;,
 4;72,73,60,69;,
 4;74,75,76,77;,
 4;75,78,79,76;,
 4;78,80,81,79;,
 4;80,82,83,81;,
 4;82,84,85,83;,
 4;84,86,87,85;,
 4;86,88,89,87;,
 4;88,90,91,89;,
 3;92,75,74;,
 3;93,78,75;,
 3;94,80,78;,
 3;95,82,80;,
 3;96,84,82;,
 3;97,86,84;,
 3;98,88,86;,
 3;99,90,88;,
 3;100,77,76;,
 3;101,76,79;,
 3;102,79,81;,
 3;103,81,83;,
 3;104,83,85;,
 3;105,85,87;,
 3;106,87,89;,
 3;107,89,91;,
 3;108,109,110;,
 3;111,110,112;,
 3;113,112,114;,
 3;115,114,116;,
 3;117,116,118;,
 3;119,118,120;,
 3;121,120,122;,
 3;123,122,124;,
 4;125,126,127,128;,
 4;129,130,131,132;,
 4;133,134,135,136;,
 4;137,138,139,140;,
 4;137,130,141,142;,
 4;143,144,131,140;,
 3;145,146,147;,
 3;148,149,146;,
 3;150,151,149;,
 3;152,153,151;,
 3;154,155,153;,
 3;156,157,155;,
 3;158,159,157;,
 3;160,161,159;,
 4;162,163,164,165;,
 4;166,167,168,169;,
 4;170,171,172,173;,
 4;174,175,176,177;,
 4;174,167,178,179;,
 4;180,181,168,177;,
 4;182,183,184,185;,
 4;183,186,187,184;,
 4;186,188,189,187;,
 4;188,190,191,189;,
 4;190,192,193,191;,
 4;192,194,195,193;,
 4;194,196,197,195;,
 4;196,198,199,197;,
 3;200,183,182;,
 3;201,186,183;,
 3;202,188,186;,
 3;203,190,188;,
 3;204,192,190;,
 3;205,194,192;,
 3;206,196,194;,
 3;207,198,196;,
 3;208,185,184;,
 3;209,184,187;,
 3;210,187,189;,
 3;211,189,191;,
 3;212,191,193;,
 3;213,193,195;,
 3;214,195,197;,
 3;215,197,199;,
 3;216,217,218;,
 3;219,218,220;,
 3;221,220,222;,
 3;223,222,224;,
 3;225,224,226;,
 3;227,226,228;,
 3;229,228,230;,
 3;231,230,232;,
 4;233,234,235,236;,
 4;237,238,239,240;,
 4;241,242,243,244;,
 4;245,246,247,248;,
 4;245,238,249,250;,
 4;251,252,239,248;,
 3;253,254,255;,
 3;256,257,254;,
 3;258,259,257;,
 3;260,261,259;,
 3;262,263,261;,
 3;264,265,263;,
 3;266,267,265;,
 3;268,269,267;,
 4;270,271,272,273;,
 4;274,275,276,277;,
 4;278,279,280,281;,
 4;282,283,284,285;,
 4;282,275,286,287;,
 4;288,289,276,285;,
 4;290,291,292,293;,
 4;291,294,295,292;,
 4;294,296,297,295;,
 4;296,298,299,297;,
 4;298,300,301,299;,
 4;300,302,303,301;,
 4;302,304,305,303;,
 4;304,306,307,305;,
 3;308,291,290;,
 3;309,294,291;,
 3;310,296,294;,
 3;311,298,296;,
 3;312,300,298;,
 3;313,302,300;,
 3;314,304,302;,
 3;315,306,304;,
 3;316,293,292;,
 3;317,292,295;,
 3;318,295,297;,
 3;319,297,299;,
 3;320,299,301;,
 3;321,301,303;,
 3;322,303,305;,
 3;323,305,307;,
 3;324,325,326;,
 3;327,326,328;,
 3;329,328,330;,
 3;331,330,332;,
 3;333,332,334;,
 3;335,334,336;,
 3;337,336,338;,
 3;339,338,340;,
 4;341,342,343,344;,
 4;345,346,347,348;,
 4;349,350,351,352;,
 4;353,354,355,356;,
 4;353,346,357,358;,
 4;359,360,347,356;,
 3;361,362,363;,
 3;364,365,362;,
 3;366,367,365;,
 3;368,369,367;,
 3;370,371,369;,
 3;372,373,371;,
 3;374,375,373;,
 3;376,377,375;,
 4;378,379,380,381;,
 4;382,383,384,385;,
 4;386,387,388,389;,
 4;390,391,392,393;,
 4;390,383,394,395;,
 4;396,397,384,393;,
 4;398,399,400,401;,
 4;399,402,403,400;,
 4;402,404,405,403;,
 4;404,406,407,405;,
 4;406,408,409,407;,
 4;408,410,411,409;,
 4;410,412,413,411;,
 4;412,414,415,413;,
 3;416,399,398;,
 3;417,402,399;,
 3;418,404,402;,
 3;419,406,404;,
 3;420,408,406;,
 3;421,410,408;,
 3;422,412,410;,
 3;423,414,412;,
 3;424,401,400;,
 3;425,400,403;,
 3;426,403,405;,
 3;427,405,407;,
 3;428,407,409;,
 3;429,409,411;,
 3;430,411,413;,
 3;431,413,415;;
 
 MeshMaterialList {
  4;
  208;
  0,
  0,
  0,
  0,
  0,
  0,
  0,
  0,
  0,
  0,
  0,
  0,
  0,
  0,
  0,
  0,
  0,
  0,
  0,
  0,
  0,
  0,
  0,
  0,
  0,
  0,
  0,
  0,
  0,
  0,
  0,
  0,
  0,
  0,
  0,
  0,
  0,
  0,
  0,
  0,
  0,
  0,
  0,
  0,
  0,
  0,
  0,
  0,
  0,
  0,
  0,
  0,
  0,
  0,
  0,
  0,
  0,
  0,
  0,
  0,
  0,
  0,
  0,
  0,
  0,
  0,
  0,
  0,
  0,
  0,
  0,
  0,
  0,
  0,
  0,
  0,
  0,
  0,
  0,
  0,
  0,
  0,
  0,
  0,
  0,
  0,
  0,
  0,
  0,
  0,
  0,
  0,
  0,
  0,
  0,
  0,
  0,
  0,
  0,
  0,
  0,
  0,
  0,
  0,
  0,
  0,
  0,
  0,
  0,
  0,
  0,
  0,
  0,
  0,
  0,
  0,
  0,
  0,
  0,
  0,
  0,
  0,
  0,
  0,
  0,
  0,
  0,
  0,
  0,
  0,
  0,
  0,
  0,
  0,
  0,
  0,
  0,
  0,
  0,
  0,
  0,
  0,
  0,
  0,
  0,
  0,
  0,
  0,
  0,
  0,
  0,
  0,
  0,
  0,
  0,
  0,
  0,
  0,
  0,
  0,
  0,
  0,
  0,
  0,
  0,
  0,
  0,
  0,
  0,
  0,
  0,
  0,
  0,
  0,
  0,
  0,
  0,
  0,
  0,
  0,
  0,
  0,
  0,
  0,
  0,
  0,
  0,
  0,
  0,
  0,
  0,
  0,
  0,
  0,
  0,
  0,
  0,
  0,
  0,
  0,
  0,
  0,
  0,
  0,
  0,
  0,
  0,
  0;;
  Material {
   0.290000;0.290000;0.290000;1.000000;;
   5.000000;
   0.000000;0.000000;0.000000;;
   0.570000;0.570000;0.570000;;
   TextureFilename {
    "C:\\Users\\student\\Desktop\\GIT\\エディター受け取り用\\data\\TEXTURE\\mesh.jpg";
   }
  }
  Material {
   0.144314;0.552157;0.141176;1.000000;;
   5.000000;
   0.000000;0.000000;0.000000;;
   0.000000;0.000000;0.000000;;
   TextureFilename {
    "af18.jpg";
   }
  }
  Material {
   0.780800;0.762400;0.800000;1.000000;;
   5.000000;
   0.000000;0.000000;0.000000;;
   0.448960;0.438380;0.460000;;
  }
  Material {
   0.000000;0.800000;0.800000;1.000000;;
   5.000000;
   0.000000;0.000000;0.000000;;
   0.000000;0.000000;0.000000;;
   TextureFilename {
    "C:\\Users\\student\\Desktop\\GIT\\エディター受け取り用\\data\\TEXTURE\\icefloor.jpg";
   }
  }
 }
 MeshNormals {
  38;
  0.000000;-1.000000;0.000000;,
  0.000000;0.000000;-1.000000;,
  1.000000;0.000000;0.000000;,
  0.000000;0.000000;1.000000;,
  0.000000;1.000000;0.000000;,
  -0.000002;0.000000;-1.000000;,
  0.707108;0.000000;-0.707105;,
  1.000000;0.000000;0.000001;,
  0.707107;0.000000;0.707106;,
  -0.000002;0.000000;1.000000;,
  -0.707106;0.000000;0.707108;,
  -1.000000;0.000000;0.000001;,
  -0.707107;0.000000;-0.707107;,
  -0.000002;0.000000;-1.000000;,
  0.707108;0.000000;-0.707105;,
  1.000000;0.000000;-0.000001;,
  0.707107;0.000000;0.707107;,
  -0.000002;0.000000;1.000000;,
  -0.707105;0.000000;0.707108;,
  -1.000000;0.000000;-0.000001;,
  -0.707107;0.000000;-0.707107;,
  -0.000002;0.000000;-1.000000;,
  0.707108;0.000000;-0.707106;,
  1.000000;0.000000;0.000001;,
  0.707109;0.000000;0.707104;,
  -0.000002;0.000000;1.000000;,
  -0.707108;0.000000;0.707106;,
  -1.000000;0.000000;0.000001;,
  -0.707106;0.000000;-0.707108;,
  -0.000002;0.000000;-1.000000;,
  0.707110;0.000000;-0.707104;,
  1.000000;0.000000;-0.000005;,
  0.707105;0.000000;0.707108;,
  -0.000002;0.000000;1.000000;,
  -0.707104;0.000000;0.707110;,
  -1.000000;0.000000;-0.000005;,
  -0.707108;0.000000;-0.707105;,
  -1.000000;0.000000;0.000000;;
  208;
  3;0,0,0;,
  3;0,0,0;,
  3;0,0,0;,
  3;0,0,0;,
  3;0,0,0;,
  3;0,0,0;,
  3;0,0,0;,
  3;0,0,0;,
  4;1,1,1,1;,
  4;2,2,2,2;,
  4;3,3,3,3;,
  4;37,37,37,37;,
  4;4,4,4,4;,
  4;0,0,0,0;,
  3;4,4,4;,
  3;4,4,4;,
  3;4,4,4;,
  3;4,4,4;,
  3;4,4,4;,
  3;4,4,4;,
  3;4,4,4;,
  3;4,4,4;,
  4;1,1,1,1;,
  4;2,2,2,2;,
  4;3,3,3,3;,
  4;37,37,37,37;,
  4;4,4,4,4;,
  4;0,0,0,0;,
  4;5,6,6,5;,
  4;6,7,7,6;,
  4;7,8,8,7;,
  4;8,9,9,8;,
  4;9,10,10,9;,
  4;10,11,11,10;,
  4;11,12,12,11;,
  4;12,5,5,12;,
  3;4,4,4;,
  3;4,4,4;,
  3;4,4,4;,
  3;4,4,4;,
  3;4,4,4;,
  3;4,4,4;,
  3;4,4,4;,
  3;4,4,4;,
  3;0,0,0;,
  3;0,0,0;,
  3;0,0,0;,
  3;0,0,0;,
  3;0,0,0;,
  3;0,0,0;,
  3;0,0,0;,
  3;0,0,0;,
  3;0,0,0;,
  3;0,0,0;,
  3;0,0,0;,
  3;0,0,0;,
  3;0,0,0;,
  3;0,0,0;,
  3;0,0,0;,
  3;0,0,0;,
  4;1,1,1,1;,
  4;2,2,2,2;,
  4;3,3,3,3;,
  4;37,37,37,37;,
  4;4,4,4,4;,
  4;0,0,0,0;,
  3;4,4,4;,
  3;4,4,4;,
  3;4,4,4;,
  3;4,4,4;,
  3;4,4,4;,
  3;4,4,4;,
  3;4,4,4;,
  3;4,4,4;,
  4;1,1,1,1;,
  4;2,2,2,2;,
  4;3,3,3,3;,
  4;37,37,37,37;,
  4;4,4,4,4;,
  4;0,0,0,0;,
  4;13,14,14,13;,
  4;14,15,15,14;,
  4;15,16,16,15;,
  4;16,17,17,16;,
  4;17,18,18,17;,
  4;18,19,19,18;,
  4;19,20,20,19;,
  4;20,13,13,20;,
  3;4,4,4;,
  3;4,4,4;,
  3;4,4,4;,
  3;4,4,4;,
  3;4,4,4;,
  3;4,4,4;,
  3;4,4,4;,
  3;4,4,4;,
  3;0,0,0;,
  3;0,0,0;,
  3;0,0,0;,
  3;0,0,0;,
  3;0,0,0;,
  3;0,0,0;,
  3;0,0,0;,
  3;0,0,0;,
  3;0,0,0;,
  3;0,0,0;,
  3;0,0,0;,
  3;0,0,0;,
  3;0,0,0;,
  3;0,0,0;,
  3;0,0,0;,
  3;0,0,0;,
  4;1,1,1,1;,
  4;2,2,2,2;,
  4;3,3,3,3;,
  4;37,37,37,37;,
  4;4,4,4,4;,
  4;0,0,0,0;,
  3;4,4,4;,
  3;4,4,4;,
  3;4,4,4;,
  3;4,4,4;,
  3;4,4,4;,
  3;4,4,4;,
  3;4,4,4;,
  3;4,4,4;,
  4;1,1,1,1;,
  4;2,2,2,2;,
  4;3,3,3,3;,
  4;37,37,37,37;,
  4;4,4,4,4;,
  4;0,0,0,0;,
  4;21,22,22,21;,
  4;22,23,23,22;,
  4;23,24,24,23;,
  4;24,25,25,24;,
  4;25,26,26,25;,
  4;26,27,27,26;,
  4;27,28,28,27;,
  4;28,21,21,28;,
  3;4,4,4;,
  3;4,4,4;,
  3;4,4,4;,
  3;4,4,4;,
  3;4,4,4;,
  3;4,4,4;,
  3;4,4,4;,
  3;4,4,4;,
  3;0,0,0;,
  3;0,0,0;,
  3;0,0,0;,
  3;0,0,0;,
  3;0,0,0;,
  3;0,0,0;,
  3;0,0,0;,
  3;0,0,0;,
  3;0,0,0;,
  3;0,0,0;,
  3;0,0,0;,
  3;0,0,0;,
  3;0,0,0;,
  3;0,0,0;,
  3;0,0,0;,
  3;0,0,0;,
  4;1,1,1,1;,
  4;2,2,2,2;,
  4;3,3,3,3;,
  4;37,37,37,37;,
  4;4,4,4,4;,
  4;0,0,0,0;,
  3;4,4,4;,
  3;4,4,4;,
  3;4,4,4;,
  3;4,4,4;,
  3;4,4,4;,
  3;4,4,4;,
  3;4,4,4;,
  3;4,4,4;,
  4;1,1,1,1;,
  4;2,2,2,2;,
  4;3,3,3,3;,
  4;37,37,37,37;,
  4;4,4,4,4;,
  4;0,0,0,0;,
  4;29,30,30,29;,
  4;30,31,31,30;,
  4;31,32,32,31;,
  4;32,33,33,32;,
  4;33,34,34,33;,
  4;34,35,35,34;,
  4;35,36,36,35;,
  4;36,29,29,36;,
  3;4,4,4;,
  3;4,4,4;,
  3;4,4,4;,
  3;4,4,4;,
  3;4,4,4;,
  3;4,4,4;,
  3;4,4,4;,
  3;4,4,4;,
  3;0,0,0;,
  3;0,0,0;,
  3;0,0,0;,
  3;0,0,0;,
  3;0,0,0;,
  3;0,0,0;,
  3;0,0,0;,
  3;0,0,0;;
 }
 MeshTextureCoords {
  432;
  0.062500;1.000000;,
  0.000000;1.000000;,
  0.125000;1.000000;,
  0.187500;1.000000;,
  0.250000;1.000000;,
  0.312500;1.000000;,
  0.375000;1.000000;,
  0.437500;1.000000;,
  0.500000;1.000000;,
  0.562500;1.000000;,
  0.625000;1.000000;,
  0.687500;1.000000;,
  0.750000;1.000000;,
  0.812500;1.000000;,
  0.875000;1.000000;,
  0.937500;1.000000;,
  1.000000;1.000000;,
  0.000000;0.000000;,
  1.000000;0.000000;,
  1.000000;1.000000;,
  0.000000;1.000000;,
  0.000000;0.000000;,
  1.000000;0.000000;,
  1.000000;1.000000;,
  0.000000;1.000000;,
  0.000000;0.000000;,
  1.000000;0.000000;,
  1.000000;1.000000;,
  0.000000;1.000000;,
  0.000000;0.000000;,
  1.000000;0.000000;,
  1.000000;1.000000;,
  0.000000;1.000000;,
  1.000000;1.000000;,
  0.000000;1.000000;,
  0.000000;0.000000;,
  1.000000;0.000000;,
  0.062500;0.000000;,
  0.125000;0.000000;,
  0.000000;0.000000;,
  0.187500;0.000000;,
  0.250000;0.000000;,
  0.312500;0.000000;,
  0.375000;0.000000;,
  0.437500;0.000000;,
  0.500000;0.000000;,
  0.562500;0.000000;,
  0.625000;0.000000;,
  0.687500;0.000000;,
  0.750000;0.000000;,
  0.812500;0.000000;,
  0.875000;0.000000;,
  0.937500;0.000000;,
  1.000000;0.000000;,
  0.000000;0.000000;,
  1.000000;0.000000;,
  1.000000;1.000000;,
  0.000000;1.000000;,
  0.000000;0.000000;,
  1.000000;0.000000;,
  1.000000;1.000000;,
  0.000000;1.000000;,
  0.000000;0.000000;,
  1.000000;0.000000;,
  1.000000;1.000000;,
  0.000000;1.000000;,
  0.000000;0.000000;,
  1.000000;0.000000;,
  1.000000;1.000000;,
  0.000000;1.000000;,
  1.000000;1.000000;,
  0.000000;1.000000;,
  0.000000;0.000000;,
  1.000000;0.000000;,
  0.000000;0.000000;,
  0.125000;0.000000;,
  0.125000;1.000000;,
  0.000000;1.000000;,
  0.250000;0.000000;,
  0.250000;1.000000;,
  0.375000;0.000000;,
  0.375000;1.000000;,
  0.500000;0.000000;,
  0.500000;1.000000;,
  0.625000;0.000000;,
  0.625000;1.000000;,
  0.750000;0.000000;,
  0.750000;1.000000;,
  0.875000;0.000000;,
  0.875000;1.000000;,
  1.000000;0.000000;,
  1.000000;1.000000;,
  0.062500;0.000000;,
  0.187500;0.000000;,
  0.312500;0.000000;,
  0.437500;0.000000;,
  0.562500;0.000000;,
  0.687500;0.000000;,
  0.812500;0.000000;,
  0.937500;0.000000;,
  0.062500;1.000000;,
  0.187500;1.000000;,
  0.312500;1.000000;,
  0.437500;1.000000;,
  0.562500;1.000000;,
  0.687500;1.000000;,
  0.812500;1.000000;,
  0.937500;1.000000;,
  0.062500;1.000000;,
  0.000000;1.000000;,
  0.125000;1.000000;,
  0.187500;1.000000;,
  0.250000;1.000000;,
  0.312500;1.000000;,
  0.375000;1.000000;,
  0.437500;1.000000;,
  0.500000;1.000000;,
  0.562500;1.000000;,
  0.625000;1.000000;,
  0.687500;1.000000;,
  0.750000;1.000000;,
  0.812500;1.000000;,
  0.875000;1.000000;,
  0.937500;1.000000;,
  1.000000;1.000000;,
  0.000000;0.000000;,
  1.000000;0.000000;,
  1.000000;1.000000;,
  0.000000;1.000000;,
  0.000000;0.000000;,
  1.000000;0.000000;,
  1.000000;1.000000;,
  0.000000;1.000000;,
  0.000000;0.000000;,
  1.000000;0.000000;,
  1.000000;1.000000;,
  0.000000;1.000000;,
  0.000000;0.000000;,
  1.000000;0.000000;,
  1.000000;1.000000;,
  0.000000;1.000000;,
  1.000000;1.000000;,
  0.000000;1.000000;,
  0.000000;0.000000;,
  1.000000;0.000000;,
  0.062500;0.000000;,
  0.125000;0.000000;,
  0.000000;0.000000;,
  0.187500;0.000000;,
  0.250000;0.000000;,
  0.312500;0.000000;,
  0.375000;0.000000;,
  0.437500;0.000000;,
  0.500000;0.000000;,
  0.562500;0.000000;,
  0.625000;0.000000;,
  0.687500;0.000000;,
  0.750000;0.000000;,
  0.812500;0.000000;,
  0.875000;0.000000;,
  0.937500;0.000000;,
  1.000000;0.000000;,
  0.000000;0.000000;,
  1.000000;0.000000;,
  1.000000;1.000000;,
  0.000000;1.000000;,
  0.000000;0.000000;,
  1.000000;0.000000;,
  1.000000;1.000000;,
  0.000000;1.000000;,
  0.000000;0.000000;,
  1.000000;0.000000;,
  1.000000;1.000000;,
  0.000000;1.000000;,
  0.000000;0.000000;,
  1.000000;0.000000;,
  1.000000;1.000000;,
  0.000000;1.000000;,
  1.000000;1.000000;,
  0.000000;1.000000;,
  0.000000;0.000000;,
  1.000000;0.000000;,
  0.000000;0.000000;,
  0.125000;0.000000;,
  0.125000;1.000000;,
  0.000000;1.000000;,
  0.250000;0.000000;,
  0.250000;1.000000;,
  0.375000;0.000000;,
  0.375000;1.000000;,
  0.500000;0.000000;,
  0.500000;1.000000;,
  0.625000;0.000000;,
  0.625000;1.000000;,
  0.750000;0.000000;,
  0.750000;1.000000;,
  0.875000;0.000000;,
  0.875000;1.000000;,
  1.000000;0.000000;,
  1.000000;1.000000;,
  0.062500;0.000000;,
  0.187500;0.000000;,
  0.312500;0.000000;,
  0.437500;0.000000;,
  0.562500;0.000000;,
  0.687500;0.000000;,
  0.812500;0.000000;,
  0.937500;0.000000;,
  0.062500;1.000000;,
  0.187500;1.000000;,
  0.312500;1.000000;,
  0.437500;1.000000;,
  0.562500;1.000000;,
  0.687500;1.000000;,
  0.812500;1.000000;,
  0.937500;1.000000;,
  0.062500;1.000000;,
  0.000000;1.000000;,
  0.125000;1.000000;,
  0.187500;1.000000;,
  0.250000;1.000000;,
  0.312500;1.000000;,
  0.375000;1.000000;,
  0.437500;1.000000;,
  0.500000;1.000000;,
  0.562500;1.000000;,
  0.625000;1.000000;,
  0.687500;1.000000;,
  0.750000;1.000000;,
  0.812500;1.000000;,
  0.875000;1.000000;,
  0.937500;1.000000;,
  1.000000;1.000000;,
  0.000000;0.000000;,
  1.000000;0.000000;,
  1.000000;1.000000;,
  0.000000;1.000000;,
  0.000000;0.000000;,
  1.000000;0.000000;,
  1.000000;1.000000;,
  0.000000;1.000000;,
  0.000000;0.000000;,
  1.000000;0.000000;,
  1.000000;1.000000;,
  0.000000;1.000000;,
  0.000000;0.000000;,
  1.000000;0.000000;,
  1.000000;1.000000;,
  0.000000;1.000000;,
  1.000000;1.000000;,
  0.000000;1.000000;,
  0.000000;0.000000;,
  1.000000;0.000000;,
  0.062500;0.000000;,
  0.125000;0.000000;,
  0.000000;0.000000;,
  0.187500;0.000000;,
  0.250000;0.000000;,
  0.312500;0.000000;,
  0.375000;0.000000;,
  0.437500;0.000000;,
  0.500000;0.000000;,
  0.562500;0.000000;,
  0.625000;0.000000;,
  0.687500;0.000000;,
  0.750000;0.000000;,
  0.812500;0.000000;,
  0.875000;0.000000;,
  0.937500;0.000000;,
  1.000000;0.000000;,
  0.000000;0.000000;,
  1.000000;0.000000;,
  1.000000;1.000000;,
  0.000000;1.000000;,
  0.000000;0.000000;,
  1.000000;0.000000;,
  1.000000;1.000000;,
  0.000000;1.000000;,
  0.000000;0.000000;,
  1.000000;0.000000;,
  1.000000;1.000000;,
  0.000000;1.000000;,
  0.000000;0.000000;,
  1.000000;0.000000;,
  1.000000;1.000000;,
  0.000000;1.000000;,
  1.000000;1.000000;,
  0.000000;1.000000;,
  0.000000;0.000000;,
  1.000000;0.000000;,
  0.000000;0.000000;,
  0.125000;0.000000;,
  0.125000;1.000000;,
  0.000000;1.000000;,
  0.250000;0.000000;,
  0.250000;1.000000;,
  0.375000;0.000000;,
  0.375000;1.000000;,
  0.500000;0.000000;,
  0.500000;1.000000;,
  0.625000;0.000000;,
  0.625000;1.000000;,
  0.750000;0.000000;,
  0.750000;1.000000;,
  0.875000;0.000000;,
  0.875000;1.000000;,
  1.000000;0.000000;,
  1.000000;1.000000;,
  0.062500;0.000000;,
  0.187500;0.000000;,
  0.312500;0.000000;,
  0.437500;0.000000;,
  0.562500;0.000000;,
  0.687500;0.000000;,
  0.812500;0.000000;,
  0.937500;0.000000;,
  0.062500;1.000000;,
  0.187500;1.000000;,
  0.312500;1.000000;,
  0.437500;1.000000;,
  0.562500;1.000000;,
  0.687500;1.000000;,
  0.812500;1.000000;,
  0.937500;1.000000;,
  0.062500;1.000000;,
  0.000000;1.000000;,
  0.125000;1.000000;,
  0.187500;1.000000;,
  0.250000;1.000000;,
  0.312500;1.000000;,
  0.375000;1.000000;,
  0.437500;1.000000;,
  0.500000;1.000000;,
  0.562500;1.000000;,
  0.625000;1.000000;,
  0.687500;1.000000;,
  0.750000;1.000000;,
  0.812500;1.000000;,
  0.875000;1.000000;,
  0.937500;1.000000;,
  1.000000;1.000000;,
  0.000000;0.000000;,
  1.000000;0.000000;,
  1.000000;1.000000;,
  0.000000;1.000000;,
  0.000000;0.000000;,
  1.000000;0.000000;,
  1.000000;1.000000;,
  0.000000;1.000000;,
  0.000000;0.000000;,
  1.000000;0.000000;,
  1.000000;1.000000;,
  0.000000;1.000000;,
  0.000000;0.000000;,
  1.000000;0.000000;,
  1.000000;1.000000;,
  0.000000;1.000000;,
  1.000000;1.000000;,
  0.000000;1.000000;,
  0.000000;0.000000;,
  1.000000;0.000000;,
  0.062500;0.000000;,
  0.125000;0.000000;,
  0.000000;0.000000;,
  0.187500;0.000000;,
  0.250000;0.000000;,
  0.312500;0.000000;,
  0.375000;0.000000;,
  0.437500;0.000000;,
  0.500000;0.000000;,
  0.562500;0.000000;,
  0.625000;0.000000;,
  0.687500;0.000000;,
  0.750000;0.000000;,
  0.812500;0.000000;,
  0.875000;0.000000;,
  0.937500;0.000000;,
  1.000000;0.000000;,
  0.000000;0.000000;,
  1.000000;0.000000;,
  1.000000;1.000000;,
  0.000000;1.000000;,
  0.000000;0.000000;,
  1.000000;0.000000;,
  1.000000;1.000000;,
  0.000000;1.000000;,
  0.000000;0.000000;,
  1.000000;0.000000;,
  1.000000;1.000000;,
  0.000000;1.000000;,
  0.000000;0.000000;,
  1.000000;0.000000;,
  1.000000;1.000000;,
  0.000000;1.000000;,
  1.000000;1.000000;,
  0.000000;1.000000;,
  0.000000;0.000000;,
  1.000000;0.000000;,
  0.000000;0.000000;,
  0.125000;0.000000;,
  0.125000;1.000000;,
  0.000000;1.000000;,
  0.250000;0.000000;,
  0.250000;1.000000;,
  0.375000;0.000000;,
  0.375000;1.000000;,
  0.500000;0.000000;,
  0.500000;1.000000;,
  0.625000;0.000000;,
  0.625000;1.000000;,
  0.750000;0.000000;,
  0.750000;1.000000;,
  0.875000;0.000000;,
  0.875000;1.000000;,
  1.000000;0.000000;,
  1.000000;1.000000;,
  0.062500;0.000000;,
  0.187500;0.000000;,
  0.312500;0.000000;,
  0.437500;0.000000;,
  0.562500;0.000000;,
  0.687500;0.000000;,
  0.812500;0.000000;,
  0.937500;0.000000;,
  0.062500;1.000000;,
  0.187500;1.000000;,
  0.312500;1.000000;,
  0.437500;1.000000;,
  0.562500;1.000000;,
  0.687500;1.000000;,
  0.812500;1.000000;,
  0.937500;1.000000;;
 }
}
