xof 0302txt 0064
template Header {
 <3D82AB43-62DA-11cf-AB39-0020AF71E433>
 WORD major;
 WORD minor;
 DWORD flags;
}

template Vector {
 <3D82AB5E-62DA-11cf-AB39-0020AF71E433>
 FLOAT x;
 FLOAT y;
 FLOAT z;
}

template Coords2d {
 <F6F23F44-7686-11cf-8F52-0040333594A3>
 FLOAT u;
 FLOAT v;
}

template Matrix4x4 {
 <F6F23F45-7686-11cf-8F52-0040333594A3>
 array FLOAT matrix[16];
}

template ColorRGBA {
 <35FF44E0-6C7C-11cf-8F52-0040333594A3>
 FLOAT red;
 FLOAT green;
 FLOAT blue;
 FLOAT alpha;
}

template ColorRGB {
 <D3E16E81-7835-11cf-8F52-0040333594A3>
 FLOAT red;
 FLOAT green;
 FLOAT blue;
}

template IndexedColor {
 <1630B820-7842-11cf-8F52-0040333594A3>
 DWORD index;
 ColorRGBA indexColor;
}

template Boolean {
 <4885AE61-78E8-11cf-8F52-0040333594A3>
 WORD truefalse;
}

template Boolean2d {
 <4885AE63-78E8-11cf-8F52-0040333594A3>
 Boolean u;
 Boolean v;
}

template MaterialWrap {
 <4885AE60-78E8-11cf-8F52-0040333594A3>
 Boolean u;
 Boolean v;
}

template TextureFilename {
 <A42790E1-7810-11cf-8F52-0040333594A3>
 STRING filename;
}

template Material {
 <3D82AB4D-62DA-11cf-AB39-0020AF71E433>
 ColorRGBA faceColor;
 FLOAT power;
 ColorRGB specularColor;
 ColorRGB emissiveColor;
 [...]
}

template MeshFace {
 <3D82AB5F-62DA-11cf-AB39-0020AF71E433>
 DWORD nFaceVertexIndices;
 array DWORD faceVertexIndices[nFaceVertexIndices];
}

template MeshFaceWraps {
 <4885AE62-78E8-11cf-8F52-0040333594A3>
 DWORD nFaceWrapValues;
 Boolean2d faceWrapValues;
}

template MeshTextureCoords {
 <F6F23F40-7686-11cf-8F52-0040333594A3>
 DWORD nTextureCoords;
 array Coords2d textureCoords[nTextureCoords];
}

template MeshMaterialList {
 <F6F23F42-7686-11cf-8F52-0040333594A3>
 DWORD nMaterials;
 DWORD nFaceIndexes;
 array DWORD faceIndexes[nFaceIndexes];
 [Material]
}

template MeshNormals {
 <F6F23F43-7686-11cf-8F52-0040333594A3>
 DWORD nNormals;
 array Vector normals[nNormals];
 DWORD nFaceNormals;
 array MeshFace faceNormals[nFaceNormals];
}

template MeshVertexColors {
 <1630B821-7842-11cf-8F52-0040333594A3>
 DWORD nVertexColors;
 array IndexedColor vertexColors[nVertexColors];
}

template Mesh {
 <3D82AB44-62DA-11cf-AB39-0020AF71E433>
 DWORD nVertices;
 array Vector vertices[nVertices];
 DWORD nFaces;
 array MeshFace faces[nFaces];
 [...]
}

Header{
1;
0;
1;
}

Mesh {
 261;
 -0.38349;0.94199;-89.30767;,
 -0.38349;50.14589;-0.70728;,
 76.34663;0.94199;43.59287;,
 -77.11363;0.94199;43.59287;,
 -0.38349;0.94199;-0.70728;,
 -0.38349;346.90118;-7.28158;,
 1.79208;346.90118;-6.96880;,
 1.79208;18.23652;-6.96880;,
 -0.38349;18.23652;-7.28158;,
 3.79140;346.90118;-6.05573;,
 3.79140;18.23652;-6.05573;,
 5.45250;346.90118;-4.61639;,
 5.45250;18.23652;-4.61639;,
 6.64082;346.90118;-2.76734;,
 6.64082;18.23652;-2.76734;,
 7.26005;346.90118;-0.65843;,
 7.26005;18.23652;-0.65843;,
 7.26005;346.90118;1.53953;,
 7.26005;18.23652;1.53953;,
 6.64082;346.90118;3.64843;,
 6.64082;18.23652;3.64843;,
 5.45250;346.90118;5.49748;,
 5.45250;18.23652;5.49748;,
 3.79140;346.90118;6.93683;,
 3.79140;18.23652;6.93683;,
 1.79208;346.90118;7.84989;,
 1.79208;18.23652;7.84989;,
 -0.38349;346.90118;8.16267;,
 -0.38349;18.23652;8.16267;,
 -2.55906;346.90118;7.84989;,
 -2.55906;18.23652;7.84989;,
 -4.55839;346.90118;6.93683;,
 -4.55839;18.23652;6.93683;,
 -6.21949;346.90118;5.49748;,
 -6.21949;18.23652;5.49748;,
 -7.40777;346.90118;3.64843;,
 -7.40777;18.23652;3.64843;,
 -8.02704;346.90118;1.53953;,
 -8.02704;18.23652;1.53953;,
 -8.02704;346.90118;-0.65843;,
 -8.02704;18.23652;-0.65843;,
 -7.40781;346.90118;-2.76734;,
 -7.40781;18.23652;-2.76734;,
 -6.21949;346.90118;-4.61635;,
 -6.21949;18.23652;-4.61635;,
 -4.55839;346.90118;-6.05573;,
 -4.55839;18.23652;-6.05573;,
 -2.55906;346.90118;-6.96877;,
 -2.55906;18.23652;-6.96877;,
 -0.38349;346.90118;0.44055;,
 -0.38349;18.23652;0.44055;,
 -1.75622;453.48653;-3.30577;,
 8.76866;450.52579;-13.83064;,
 -1.75622;450.52579;-18.19020;,
 13.12821;450.52579;-3.30577;,
 8.76866;450.52579;7.21912;,
 -1.75628;450.52579;11.57866;,
 -12.28116;450.52579;7.21912;,
 -16.64071;450.52579;-3.30577;,
 -12.28116;450.52579;-13.83064;,
 17.69119;442.09415;-22.75323;,
 -1.75622;442.09415;-30.80865;,
 25.74659;442.09415;-3.30577;,
 17.69119;442.09415;16.14170;,
 -1.75628;442.09415;24.19708;,
 -21.20368;442.09415;16.14170;,
 -29.25910;442.09415;-3.30577;,
 -21.20368;442.09415;-22.75323;,
 23.65309;429.47637;-28.71509;,
 -1.75622;429.47637;-39.24004;,
 34.17799;429.47637;-3.30577;,
 23.65309;429.47637;22.10355;,
 -1.75628;429.47637;32.62842;,
 -27.16559;429.47637;22.10355;,
 -37.69048;429.47637;-3.30577;,
 -27.16559;429.47637;-28.71509;,
 25.74659;414.59180;-30.80865;,
 -1.75622;414.59180;-42.20068;,
 37.13864;414.59180;-3.30577;,
 25.74659;414.59180;24.19708;,
 -1.75628;414.59180;35.58909;,
 -29.25910;414.59180;24.19708;,
 -40.65116;414.59180;-3.30577;,
 -29.25910;414.59180;-30.80865;,
 23.65309;399.70704;-28.71509;,
 -1.75622;399.70704;-39.24004;,
 34.17799;399.70704;-3.30577;,
 23.65309;399.70704;22.10355;,
 -1.75628;399.70704;32.62842;,
 -27.16559;399.70704;22.10355;,
 -37.69048;399.70704;-3.30577;,
 -27.16559;399.70704;-28.71509;,
 17.69119;387.08841;-22.75323;,
 -1.75622;387.08841;-30.80865;,
 25.74659;387.08841;-3.30577;,
 17.69119;387.08841;16.14170;,
 -1.75628;387.08841;24.19708;,
 -21.20368;387.08841;16.14170;,
 -29.25910;387.08841;-3.30577;,
 -21.20368;387.08841;-22.75323;,
 8.76866;378.65772;-13.83064;,
 -1.75622;378.65772;-18.19020;,
 13.12821;378.65772;-3.30577;,
 8.76866;378.65772;7.21912;,
 -1.75628;378.65772;11.57866;,
 -12.28116;378.65772;7.21912;,
 -16.64071;378.65772;-3.30577;,
 -12.28116;378.65772;-13.83064;,
 -1.75622;375.69639;-3.30577;,
 55.06350;449.51456;-0.17521;,
 53.73820;455.74991;-0.17521;,
 37.06632;444.29161;-49.01427;,
 38.98045;438.46114;-47.28930;,
 57.20993;461.09600;-0.17521;,
 39.11660;448.66046;-53.17858;,
 63.44512;462.42110;-0.17521;,
 43.93022;449.00811;-57.34294;,
 68.79121;458.94932;-0.17521;,
 48.68743;445.13253;-59.06787;,
 70.11669;452.71397;-0.17521;,
 50.60160;439.30225;-57.34294;,
 66.64486;447.36798;-0.17521;,
 48.55143;434.93282;-53.17858;,
 60.40964;446.04298;-0.17521;,
 43.73776;434.58389;-49.01427;,
 -3.18318;416.62901;-69.24407;,
 0.15252;411.77559;-66.80462;,
 -4.56489;418.63897;-75.13333;,
 -3.18318;416.62901;-81.02262;,
 0.15252;411.77559;-83.46195;,
 3.48821;406.92234;-81.02262;,
 4.86986;404.91209;-75.13333;,
 3.48821;406.92234;-69.24407;,
 -43.43275;388.96644;-49.01427;,
 -38.67546;385.08951;-47.28930;,
 -48.24640;388.61739;-53.17858;,
 -50.29659;384.24854;-57.34294;,
 -48.38240;378.41812;-59.06787;,
 -43.62518;374.54185;-57.34294;,
 -38.81156;374.89000;-53.17858;,
 -36.76133;379.25889;-49.01427;,
 -60.10459;377.50792;-0.17521;,
 -54.75846;374.03609;-0.17521;,
 -66.33984;376.18272;-0.17521;,
 -69.81165;370.83702;-0.17521;,
 -68.48613;364.60084;-0.17521;,
 -63.14007;361.12945;-0.17521;,
 -56.90488;362.45494;-0.17521;,
 -53.43316;367.80084;-0.17521;,
 -43.43275;388.96644;48.66385;,
 -38.67541;385.08951;46.93891;,
 -48.24640;388.61739;52.82813;,
 -50.29659;384.24854;56.99249;,
 -48.38240;378.41812;58.71741;,
 -43.62518;374.54185;56.99249;,
 -38.81156;374.89000;52.82813;,
 -36.76129;379.25889;48.66385;,
 -3.18318;416.62901;68.89356;,
 0.15252;411.77559;66.45416;,
 -4.56489;418.63897;74.78285;,
 -3.18318;416.62901;80.67218;,
 0.15252;411.77559;83.11153;,
 3.48821;406.92234;80.67218;,
 4.86986;404.91209;74.78285;,
 3.48821;406.92234;68.89356;,
 37.06632;444.29161;48.66385;,
 38.98045;438.46114;46.93891;,
 39.11660;448.66046;52.82813;,
 43.93022;449.00811;56.99249;,
 48.68743;445.13253;58.71741;,
 50.60160;439.30225;56.99249;,
 48.55143;434.93282;52.82813;,
 43.73776;434.58389;48.66385;,
 70.90197;355.33873;-0.17521;,
 77.99479;359.68448;-0.17521;,
 56.51843;375.28853;-64.26353;,
 50.17981;370.39385;-62.01251;,
 86.08371;357.74310;-0.17521;,
 62.78624;374.66924;-69.69792;,
 90.43013;350.64957;-0.17521;,
 65.31148;368.89961;-75.13244;,
 88.48819;342.56128;-0.17521;,
 62.61524;361.35887;-77.38349;,
 81.39534;338.21490;-0.17521;,
 56.27677;356.46451;-75.13244;,
 73.30643;340.15687;-0.17521;,
 50.00896;357.08326;-69.69792;,
 68.95997;347.24991;-0.17521;,
 47.48353;362.85308;-64.26353;,
 4.66991;412.95870;-90.80978;,
 0.15252;406.74109;-87.62626;,
 6.54110;415.53409;-98.49519;,
 4.66991;412.95870;-106.18073;,
 0.15252;406.74109;-109.36413;,
 -4.36493;400.52317;-106.18073;,
 -6.23607;397.94776;-98.49519;,
 -4.36493;400.52317;-90.80978;,
 -47.17854;450.62852;-64.26353;,
 -49.87477;443.08760;-62.01251;,
 -49.70394;456.39796;-69.69792;,
 -55.97177;457.01729;-75.13244;,
 -62.31026;452.12257;-77.38349;,
 -65.00647;444.58165;-75.13244;,
 -62.48121;438.81231;-69.69792;,
 -56.21339;438.19298;-64.26353;,
 -68.65493;466.23184;-0.17521;,
 -70.59695;458.14346;-0.17521;,
 -73.00140;473.32491;-0.17521;,
 -81.09030;475.26661;-0.17521;,
 -88.18319;470.92051;-0.17521;,
 -90.12509;462.83155;-0.17521;,
 -85.77867;455.73848;-0.17521;,
 -77.68977;453.79639;-0.17521;,
 -47.17854;450.62852;63.91306;,
 -49.87477;443.08760;61.66207;,
 -49.70394;456.39796;69.34749;,
 -55.97174;457.01729;74.78203;,
 -62.31019;452.12257;77.03304;,
 -65.00647;444.58165;74.78203;,
 -62.48121;438.81231;69.34749;,
 -56.21339;438.19298;63.91306;,
 4.66991;412.95870;90.45933;,
 0.15252;406.74109;87.27581;,
 6.54110;415.53409;98.14478;,
 4.66991;412.95870;105.83026;,
 0.15252;406.74109;109.01371;,
 -4.36487;400.52317;105.83026;,
 -6.23607;397.94776;98.14478;,
 -4.36487;400.52317;90.45933;,
 56.51843;375.28853;63.91306;,
 50.17981;370.39385;61.66207;,
 62.78624;374.66924;69.34749;,
 65.31148;368.89961;74.78203;,
 62.61524;361.35887;77.03304;,
 56.27677;356.46451;74.78203;,
 50.00896;357.08326;69.34749;,
 47.48353;362.85308;63.91306;,
 -7.54083;378.66920;2.76861;,
 -1.16808;378.66920;-7.61756;,
 -1.16808;38.38575;-7.61756;,
 -7.54083;38.38575;2.76861;,
 4.58723;378.66920;3.41124;,
 4.58723;38.38575;3.41124;,
 -1.37391;378.66920;-0.47923;,
 -1.37391;38.38575;-0.47923;,
 -0.38349;376.75274;-9.15211;,
 5.46899;376.75274;-6.33368;,
 5.46899;38.10807;-6.33368;,
 -0.38349;38.10807;-9.15211;,
 6.91444;376.75274;-0.00079;,
 6.91444;38.10807;-0.00079;,
 2.86438;376.75274;5.07779;,
 2.86438;38.10807;5.07779;,
 -3.63137;376.75274;5.07779;,
 -3.63137;38.10807;5.07779;,
 -7.68144;376.75274;-0.00079;,
 -7.68144;38.10807;-0.00079;,
 -6.23598;376.75274;-6.33372;,
 -6.23598;38.10807;-6.33372;,
 -0.38349;376.75274;-1.66649;,
 -0.38349;38.10807;-1.66649;;
 
 294;
 3;0,1,2;,
 3;2,1,3;,
 3;3,1,0;,
 3;4,0,2;,
 3;4,2,3;,
 3;4,3,0;,
 4;5,6,7,8;,
 4;6,9,10,7;,
 4;9,11,12,10;,
 4;11,13,14,12;,
 4;13,15,16,14;,
 4;15,17,18,16;,
 4;17,19,20,18;,
 4;19,21,22,20;,
 4;21,23,24,22;,
 4;23,25,26,24;,
 4;25,27,28,26;,
 4;27,29,30,28;,
 4;29,31,32,30;,
 4;31,33,34,32;,
 4;33,35,36,34;,
 4;35,37,38,36;,
 4;37,39,40,38;,
 4;39,41,42,40;,
 4;41,43,44,42;,
 4;43,45,46,44;,
 4;45,47,48,46;,
 4;47,5,8,48;,
 3;49,6,5;,
 3;49,9,6;,
 3;49,11,9;,
 3;49,13,11;,
 3;49,15,13;,
 3;49,17,15;,
 3;49,19,17;,
 3;49,21,19;,
 3;49,23,21;,
 3;49,25,23;,
 3;49,27,25;,
 3;49,29,27;,
 3;49,31,29;,
 3;49,33,31;,
 3;49,35,33;,
 3;49,37,35;,
 3;49,39,37;,
 3;49,41,39;,
 3;49,43,41;,
 3;49,45,43;,
 3;49,47,45;,
 3;49,5,47;,
 3;50,8,7;,
 3;50,7,10;,
 3;50,10,12;,
 3;50,12,14;,
 3;50,14,16;,
 3;50,16,18;,
 3;50,18,20;,
 3;50,20,22;,
 3;50,22,24;,
 3;50,24,26;,
 3;50,26,28;,
 3;50,28,30;,
 3;50,30,32;,
 3;50,32,34;,
 3;50,34,36;,
 3;50,36,38;,
 3;50,38,40;,
 3;50,40,42;,
 3;50,42,44;,
 3;50,44,46;,
 3;50,46,48;,
 3;50,48,8;,
 3;51,52,53;,
 3;51,54,52;,
 3;51,55,54;,
 3;51,56,55;,
 3;51,57,56;,
 3;51,58,57;,
 3;51,59,58;,
 3;51,53,59;,
 4;53,52,60,61;,
 4;52,54,62,60;,
 4;54,55,63,62;,
 4;55,56,64,63;,
 4;56,57,65,64;,
 4;57,58,66,65;,
 4;58,59,67,66;,
 4;59,53,61,67;,
 4;61,60,68,69;,
 4;60,62,70,68;,
 4;62,63,71,70;,
 4;63,64,72,71;,
 4;64,65,73,72;,
 4;65,66,74,73;,
 4;66,67,75,74;,
 4;67,61,69,75;,
 4;69,68,76,77;,
 4;68,70,78,76;,
 4;70,71,79,78;,
 4;71,72,80,79;,
 4;72,73,81,80;,
 4;73,74,82,81;,
 4;74,75,83,82;,
 4;75,69,77,83;,
 4;77,76,84,85;,
 4;76,78,86,84;,
 4;78,79,87,86;,
 4;79,80,88,87;,
 4;80,81,89,88;,
 4;81,82,90,89;,
 4;82,83,91,90;,
 4;83,77,85,91;,
 4;85,84,92,93;,
 4;84,86,94,92;,
 4;86,87,95,94;,
 4;87,88,96,95;,
 4;88,89,97,96;,
 4;89,90,98,97;,
 4;90,91,99,98;,
 4;91,85,93,99;,
 4;93,92,100,101;,
 4;92,94,102,100;,
 4;94,95,103,102;,
 4;95,96,104,103;,
 4;96,97,105,104;,
 4;97,98,106,105;,
 4;98,99,107,106;,
 4;99,93,101,107;,
 3;101,100,108;,
 3;100,102,108;,
 3;102,103,108;,
 3;103,104,108;,
 3;104,105,108;,
 3;105,106,108;,
 3;106,107,108;,
 3;107,101,108;,
 4;109,110,111,112;,
 4;110,113,114,111;,
 4;113,115,116,114;,
 4;115,117,118,116;,
 4;117,119,120,118;,
 4;119,121,122,120;,
 4;121,123,124,122;,
 4;123,109,112,124;,
 4;112,111,125,126;,
 4;111,114,127,125;,
 4;114,116,128,127;,
 4;116,118,129,128;,
 4;118,120,130,129;,
 4;120,122,131,130;,
 4;122,124,132,131;,
 4;124,112,126,132;,
 4;126,125,133,134;,
 4;125,127,135,133;,
 4;127,128,136,135;,
 4;128,129,137,136;,
 4;129,130,138,137;,
 4;130,131,139,138;,
 4;131,132,140,139;,
 4;132,126,134,140;,
 4;134,133,141,142;,
 4;133,135,143,141;,
 4;135,136,144,143;,
 4;136,137,145,144;,
 4;137,138,146,145;,
 4;138,139,147,146;,
 4;139,140,148,147;,
 4;140,134,142,148;,
 4;142,141,149,150;,
 4;141,143,151,149;,
 4;143,144,152,151;,
 4;144,145,153,152;,
 4;145,146,154,153;,
 4;146,147,155,154;,
 4;147,148,156,155;,
 4;148,142,150,156;,
 4;150,149,157,158;,
 4;149,151,159,157;,
 4;151,152,160,159;,
 4;152,153,161,160;,
 4;153,154,162,161;,
 4;154,155,163,162;,
 4;155,156,164,163;,
 4;156,150,158,164;,
 4;158,157,165,166;,
 4;157,159,167,165;,
 4;159,160,168,167;,
 4;160,161,169,168;,
 4;161,162,170,169;,
 4;162,163,171,170;,
 4;163,164,172,171;,
 4;164,158,166,172;,
 4;166,165,110,109;,
 4;165,167,113,110;,
 4;167,168,115,113;,
 4;168,169,117,115;,
 4;169,170,119,117;,
 4;170,171,121,119;,
 4;171,172,123,121;,
 4;172,166,109,123;,
 4;173,174,175,176;,
 4;174,177,178,175;,
 4;177,179,180,178;,
 4;179,181,182,180;,
 4;181,183,184,182;,
 4;183,185,186,184;,
 4;185,187,188,186;,
 4;187,173,176,188;,
 4;176,175,189,190;,
 4;175,178,191,189;,
 4;178,180,192,191;,
 4;180,182,193,192;,
 4;182,184,194,193;,
 4;184,186,195,194;,
 4;186,188,196,195;,
 4;188,176,190,196;,
 4;190,189,197,198;,
 4;189,191,199,197;,
 4;191,192,200,199;,
 4;192,193,201,200;,
 4;193,194,202,201;,
 4;194,195,203,202;,
 4;195,196,204,203;,
 4;196,190,198,204;,
 4;198,197,205,206;,
 4;197,199,207,205;,
 4;199,200,208,207;,
 4;200,201,209,208;,
 4;201,202,210,209;,
 4;202,203,211,210;,
 4;203,204,212,211;,
 4;204,198,206,212;,
 4;206,205,213,214;,
 4;205,207,215,213;,
 4;207,208,216,215;,
 4;208,209,217,216;,
 4;209,210,218,217;,
 4;210,211,219,218;,
 4;211,212,220,219;,
 4;212,206,214,220;,
 4;214,213,221,222;,
 4;213,215,223,221;,
 4;215,216,224,223;,
 4;216,217,225,224;,
 4;217,218,226,225;,
 4;218,219,227,226;,
 4;219,220,228,227;,
 4;220,214,222,228;,
 4;222,221,229,230;,
 4;221,223,231,229;,
 4;223,224,232,231;,
 4;224,225,233,232;,
 4;225,226,234,233;,
 4;226,227,235,234;,
 4;227,228,236,235;,
 4;228,222,230,236;,
 4;230,229,174,173;,
 4;229,231,177,174;,
 4;231,232,179,177;,
 4;232,233,181,179;,
 4;233,234,183,181;,
 4;234,235,185,183;,
 4;235,236,187,185;,
 4;236,230,173,187;,
 4;237,238,239,240;,
 4;238,241,242,239;,
 4;241,237,240,242;,
 3;243,238,237;,
 3;243,241,238;,
 3;243,237,241;,
 3;244,240,239;,
 3;244,239,242;,
 3;244,242,240;,
 4;245,246,247,248;,
 4;246,249,250,247;,
 4;249,251,252,250;,
 4;251,253,254,252;,
 4;253,255,256,254;,
 4;255,257,258,256;,
 4;257,245,248,258;,
 3;259,246,245;,
 3;259,249,246;,
 3;259,251,249;,
 3;259,253,251;,
 3;259,255,253;,
 3;259,257,255;,
 3;259,245,257;,
 3;260,248,247;,
 3;260,247,250;,
 3;260,250,252;,
 3;260,252,254;,
 3;260,254,256;,
 3;260,256,258;,
 3;260,258,248;;
 
 MeshMaterialList {
  6;
  294;
  0,
  0,
  0,
  0,
  0,
  0,
  5,
  5,
  5,
  5,
  5,
  5,
  5,
  5,
  5,
  5,
  5,
  5,
  5,
  5,
  5,
  5,
  5,
  5,
  5,
  5,
  5,
  5,
  5,
  5,
  5,
  5,
  5,
  5,
  5,
  5,
  5,
  5,
  5,
  5,
  5,
  5,
  5,
  5,
  5,
  5,
  5,
  5,
  5,
  5,
  5,
  5,
  5,
  5,
  5,
  5,
  5,
  5,
  5,
  5,
  5,
  5,
  5,
  5,
  5,
  5,
  5,
  5,
  5,
  5,
  5,
  5,
  2,
  2,
  2,
  2,
  2,
  2,
  2,
  2,
  2,
  2,
  2,
  2,
  2,
  2,
  2,
  2,
  2,
  2,
  2,
  2,
  2,
  2,
  2,
  2,
  2,
  2,
  2,
  2,
  2,
  2,
  2,
  2,
  2,
  2,
  2,
  2,
  2,
  2,
  2,
  2,
  2,
  2,
  2,
  2,
  2,
  2,
  2,
  2,
  2,
  2,
  2,
  2,
  2,
  2,
  2,
  2,
  2,
  2,
  2,
  2,
  2,
  2,
  2,
  2,
  3,
  3,
  3,
  3,
  3,
  3,
  3,
  3,
  3,
  3,
  3,
  3,
  3,
  3,
  3,
  3,
  3,
  3,
  3,
  3,
  3,
  3,
  3,
  3,
  3,
  3,
  3,
  3,
  3,
  3,
  3,
  3,
  3,
  3,
  3,
  3,
  3,
  3,
  3,
  3,
  3,
  3,
  3,
  3,
  3,
  3,
  3,
  3,
  3,
  3,
  3,
  3,
  3,
  3,
  3,
  3,
  3,
  3,
  3,
  3,
  3,
  3,
  3,
  3,
  3,
  3,
  3,
  3,
  3,
  3,
  3,
  3,
  3,
  3,
  3,
  3,
  3,
  3,
  3,
  3,
  3,
  3,
  3,
  3,
  3,
  3,
  3,
  3,
  3,
  3,
  3,
  3,
  3,
  3,
  3,
  3,
  3,
  3,
  3,
  3,
  3,
  3,
  3,
  3,
  3,
  3,
  3,
  3,
  3,
  3,
  3,
  3,
  3,
  3,
  3,
  3,
  3,
  3,
  3,
  3,
  3,
  3,
  3,
  3,
  3,
  3,
  3,
  3,
  1,
  1,
  1,
  1,
  1,
  1,
  1,
  1,
  1,
  3,
  3,
  3,
  3,
  3,
  3,
  3,
  3,
  3,
  3,
  3,
  3,
  3,
  3,
  3,
  3,
  3,
  3,
  3,
  3,
  3;;
  Material {
   0.097600;0.429600;0.800000;1.000000;;
   5.000000;
   0.000000;0.000000;0.000000;;
   0.000000;0.000000;0.000000;;
  }
  Material {
   0.501600;0.602400;0.800000;1.000000;;
   5.000000;
   0.000000;0.000000;0.000000;;
   0.000000;0.000000;0.000000;;
  }
  Material {
   0.290000;1.000000;0.541000;1.000000;;
   100.000000;
   1.000000;1.000000;1.000000;;
   0.290000;1.000000;0.541000;;
  }
  Material {
   0.800000;0.000000;0.072000;0.670000;;
   100.000000;
   1.000000;1.000000;1.000000;;
   1.000000;0.000000;0.090000;;
  }
  Material {
   1.000000;0.545000;0.000000;0.650000;;
   100.000000;
   1.000000;1.000000;1.000000;;
   1.000000;0.545000;0.000000;;
  }
  Material {
   1.000000;1.000000;1.000000;1.000000;;
   0.000000;
   0.000000;0.000000;0.000000;;
   0.000000;0.000000;0.000000;;
  }
 }
 MeshNormals {
  226;
  0.643603;0.669104;-0.371584;,
  0.000000;0.669104;0.743169;,
  0.000000;-1.000000;-0.000000;,
  -0.643603;0.669104;-0.371584;,
  0.000000;1.000000;0.000000;,
  -0.000008;0.000000;-1.000000;,
  0.281729;0.000000;-0.959494;,
  0.540640;0.000000;-0.841254;,
  0.755748;0.000000;-0.654863;,
  0.909632;0.000000;-0.415415;,
  0.989821;0.000000;-0.142315;,
  0.989821;0.000000;0.142315;,
  0.909632;0.000000;0.415416;,
  0.755748;0.000000;0.654862;,
  0.540640;0.000000;0.841254;,
  0.281729;0.000000;0.959494;,
  -0.000000;0.000000;1.000000;,
  -0.281729;0.000000;0.959494;,
  -0.540640;0.000000;0.841254;,
  -0.755753;0.000000;0.654857;,
  -0.909631;0.000000;0.415416;,
  -0.989820;0.000000;0.142323;,
  -0.989821;0.000000;-0.142315;,
  -0.909630;0.000000;-0.415420;,
  -0.755749;0.000000;-0.654861;,
  -0.540640;0.000000;-0.841254;,
  -0.281730;0.000000;-0.959494;,
  0.000000;-1.000000;-0.000000;,
  0.000000;1.000000;-0.000000;,
  0.000000;0.924732;-0.380619;,
  0.269139;0.924732;-0.269138;,
  0.380620;0.924732;-0.000000;,
  0.269138;0.924732;0.269139;,
  -0.000000;0.924732;0.380619;,
  -0.269138;0.924732;0.269138;,
  -0.380619;0.924732;-0.000000;,
  -0.269138;0.924732;-0.269138;,
  0.000000;0.709234;-0.704974;,
  0.498492;0.709233;-0.498492;,
  0.704974;0.709233;-0.000000;,
  0.498492;0.709233;0.498492;,
  -0.000000;0.709233;0.704975;,
  -0.498492;0.709233;0.498492;,
  -0.704974;0.709233;-0.000000;,
  -0.498492;0.709233;-0.498492;,
  0.000000;0.384561;-0.923099;,
  0.652730;0.384561;-0.652730;,
  0.923100;0.384561;0.000000;,
  0.652730;0.384561;0.652731;,
  -0.000000;0.384560;0.923100;,
  -0.652730;0.384561;0.652730;,
  -0.923099;0.384562;0.000000;,
  -0.652730;0.384561;-0.652730;,
  0.000000;0.000001;-1.000000;,
  0.707107;0.000001;-0.707106;,
  1.000000;0.000001;0.000000;,
  0.707106;0.000001;0.707107;,
  -0.000000;0.000001;1.000000;,
  -0.707107;0.000001;0.707107;,
  -1.000000;0.000001;0.000000;,
  -0.707107;0.000001;-0.707107;,
  0.000000;-0.384545;-0.923106;,
  0.652735;-0.384545;-0.652734;,
  0.923106;-0.384545;0.000000;,
  0.652734;-0.384545;0.652735;,
  -0.000000;-0.384544;0.923106;,
  -0.652734;-0.384545;0.652735;,
  -0.923106;-0.384546;0.000000;,
  -0.652735;-0.384545;-0.652734;,
  0.000000;-0.709242;-0.704965;,
  0.498486;-0.709241;-0.498486;,
  0.704966;-0.709241;-0.000000;,
  0.498486;-0.709241;0.498487;,
  -0.000000;-0.709241;0.704966;,
  -0.498486;-0.709241;0.498486;,
  -0.704966;-0.709241;-0.000000;,
  -0.498486;-0.709241;-0.498486;,
  0.000000;-0.924734;-0.380613;,
  0.269135;-0.924734;-0.269134;,
  0.380614;-0.924734;-0.000000;,
  0.269134;-0.924734;0.269135;,
  -0.000000;-0.924734;0.380614;,
  -0.269134;-0.924734;0.269134;,
  -0.380614;-0.924734;-0.000000;,
  -0.269134;-0.924734;-0.269135;,
  0.000000;-1.000000;-0.000000;,
  -0.824137;-0.566390;-0.000000;,
  -0.981078;0.193615;-0.000000;,
  -0.566377;0.824146;-0.000000;,
  0.170846;0.985298;0.000000;,
  0.824106;0.566436;0.000000;,
  0.981081;-0.193595;0.000000;,
  0.566419;-0.824118;-0.000000;,
  -0.170842;-0.985298;-0.000000;,
  -0.582755;-0.400497;0.707106;,
  -0.812386;0.309561;0.494167;,
  -0.566386;0.824140;-0.000021;,
  0.002148;0.869361;-0.494174;,
  0.582730;0.400533;-0.707106;,
  0.812384;-0.309541;-0.494183;,
  0.566413;-0.824121;-0.000019;,
  -0.002145;-0.869362;0.494170;,
  -0.000002;0.000000;1.000000;,
  -0.405135;0.589469;0.698851;,
  -0.566405;0.824127;-0.000021;,
  -0.405121;0.589465;-0.698862;,
  -0.000002;0.000004;-1.000000;,
  0.405122;-0.589451;-0.698873;,
  0.566409;-0.824125;-0.000023;,
  0.405127;-0.589465;0.698859;,
  0.582754;0.400499;0.707106;,
  0.002129;0.869367;0.494162;,
  -0.566413;0.824122;-0.000014;,
  -0.812384;0.309560;-0.494170;,
  -0.582736;-0.400521;-0.707108;,
  -0.002132;-0.869361;-0.494173;,
  0.566406;-0.824127;-0.000007;,
  0.812386;-0.309557;0.494169;,
  0.824136;0.566391;-0.000000;,
  0.170829;0.985301;0.000001;,
  -0.566412;0.824122;0.000000;,
  -0.981076;0.193621;0.000000;,
  -0.824115;-0.566423;0.000000;,
  -0.170821;-0.985302;0.000000;,
  0.566401;-0.824130;0.000000;,
  0.981077;-0.193618;-0.000000;,
  0.582753;0.400499;-0.707107;,
  0.002127;0.869367;-0.494163;,
  -0.566414;0.824121;0.000015;,
  -0.812384;0.309560;0.494170;,
  -0.582736;-0.400521;0.707108;,
  -0.002132;-0.869361;0.494173;,
  0.566404;-0.824127;0.000008;,
  0.812386;-0.309557;-0.494169;,
  -0.000003;0.000000;-1.000000;,
  -0.405134;0.589467;-0.698853;,
  -0.566404;0.824128;0.000022;,
  -0.405121;0.589465;0.698862;,
  -0.000002;0.000004;1.000000;,
  0.405122;-0.589452;0.698872;,
  0.566408;-0.824125;0.000023;,
  0.405126;-0.589463;-0.698860;,
  -0.582754;-0.400496;-0.707107;,
  -0.812386;0.309560;-0.494168;,
  -0.566386;0.824140;0.000022;,
  0.002149;0.869360;0.494175;,
  0.582730;0.400532;0.707106;,
  0.812384;-0.309541;0.494182;,
  0.566413;-0.824121;0.000019;,
  -0.002146;-0.869362;-0.494171;,
  -0.809006;0.587801;-0.000000;,
  -0.144975;0.989435;-0.000000;,
  0.587794;0.809011;-0.000000;,
  0.985814;0.167843;-0.000000;,
  0.809011;-0.587793;0.000000;,
  0.144985;-0.989434;-0.000000;,
  -0.587786;-0.809017;-0.000000;,
  -0.985812;-0.167855;-0.000000;,
  -0.572055;0.415634;0.707108;,
  0.020624;0.869120;0.494171;,
  0.587792;0.809012;-0.000006;,
  0.820212;0.288168;-0.494178;,
  0.572059;-0.415630;-0.707107;,
  -0.020615;-0.869117;-0.494176;,
  -0.587786;-0.809017;0.000002;,
  -0.820209;-0.288174;0.494178;,
  0.000003;0.000002;1.000000;,
  0.420416;0.578652;0.698865;,
  0.587788;0.809015;0.000001;,
  0.420417;0.578650;-0.698866;,
  -0.000000;0.000001;-1.000000;,
  -0.420411;-0.578650;-0.698870;,
  -0.587785;-0.809017;-0.000001;,
  -0.420415;-0.578649;0.698868;,
  0.572067;-0.415620;0.707106;,
  0.820209;0.288180;0.494175;,
  0.587787;0.809016;0.000006;,
  0.020622;0.869121;-0.494169;,
  -0.572061;0.415626;-0.707107;,
  -0.820210;-0.288182;-0.494173;,
  -0.587792;-0.809012;-0.000006;,
  -0.020619;-0.869119;0.494173;,
  0.809025;-0.587775;-0.000000;,
  0.985811;0.167859;-0.000000;,
  0.587789;0.809015;-0.000000;,
  -0.144976;0.989435;0.000000;,
  -0.809016;0.587787;0.000001;,
  -0.985810;-0.167863;0.000000;,
  -0.587799;-0.809007;-0.000000;,
  0.144984;-0.989434;-0.000000;,
  0.572068;-0.415619;-0.707106;,
  0.820209;0.288180;-0.494175;,
  0.587787;0.809016;-0.000005;,
  0.020622;0.869121;0.494169;,
  -0.572061;0.415627;0.707107;,
  -0.820210;-0.288180;0.494175;,
  -0.587792;-0.809012;0.000007;,
  -0.020618;-0.869119;-0.494174;,
  0.000003;0.000002;-1.000000;,
  0.420416;0.578652;-0.698865;,
  0.587788;0.809015;-0.000000;,
  0.420417;0.578650;0.698866;,
  -0.000000;0.000001;1.000000;,
  -0.420411;-0.578649;0.698871;,
  -0.587786;-0.809017;0.000003;,
  -0.420415;-0.578649;-0.698869;,
  -0.572055;0.415634;-0.707108;,
  0.020624;0.869120;-0.494171;,
  0.587792;0.809012;0.000006;,
  0.820211;0.288168;0.494178;,
  0.572059;-0.415630;0.707107;,
  -0.020614;-0.869117;0.494177;,
  -0.587786;-0.809017;-0.000001;,
  -0.820210;-0.288174;-0.494178;,
  0.000000;1.000000;0.000000;,
  -0.852344;0.000000;-0.522982;,
  0.886547;0.000000;-0.462639;,
  0.000000;-1.000000;-0.000000;,
  0.000003;0.000000;-1.000000;,
  0.781832;0.000000;-0.623490;,
  0.974928;0.000000;0.222521;,
  0.433882;0.000000;0.900970;,
  -0.433882;0.000000;0.900970;,
  -0.974928;0.000000;0.222522;,
  -0.781830;0.000000;-0.623492;,
  -0.052914;0.000000;0.998599;;
  294;
  3;0,0,0;,
  3;1,1,1;,
  3;3,3,3;,
  3;2,2,2;,
  3;2,2,2;,
  3;2,2,2;,
  4;5,6,6,5;,
  4;6,7,7,6;,
  4;7,8,8,7;,
  4;8,9,9,8;,
  4;9,10,10,9;,
  4;10,11,11,10;,
  4;11,12,12,11;,
  4;12,13,13,12;,
  4;13,14,14,13;,
  4;14,15,15,14;,
  4;15,16,16,15;,
  4;16,17,17,16;,
  4;17,18,18,17;,
  4;18,19,19,18;,
  4;19,20,20,19;,
  4;20,21,21,20;,
  4;21,22,22,21;,
  4;22,23,23,22;,
  4;23,24,24,23;,
  4;24,25,25,24;,
  4;25,26,26,25;,
  4;26,5,5,26;,
  3;4,4,4;,
  3;4,4,4;,
  3;4,4,4;,
  3;4,4,4;,
  3;4,4,4;,
  3;4,4,4;,
  3;4,4,4;,
  3;4,4,4;,
  3;4,4,4;,
  3;4,4,4;,
  3;4,4,4;,
  3;4,4,4;,
  3;4,4,4;,
  3;4,4,4;,
  3;4,4,4;,
  3;4,4,4;,
  3;4,4,4;,
  3;4,4,4;,
  3;4,4,4;,
  3;4,4,4;,
  3;4,4,4;,
  3;4,4,4;,
  3;27,27,27;,
  3;27,27,27;,
  3;27,27,27;,
  3;27,27,27;,
  3;27,27,27;,
  3;27,27,27;,
  3;27,27,27;,
  3;27,27,27;,
  3;27,27,27;,
  3;27,27,27;,
  3;27,27,27;,
  3;27,27,27;,
  3;27,27,27;,
  3;27,27,27;,
  3;27,27,27;,
  3;27,27,27;,
  3;27,27,27;,
  3;27,27,27;,
  3;27,27,27;,
  3;27,27,27;,
  3;27,27,27;,
  3;27,27,27;,
  3;28,30,29;,
  3;28,31,30;,
  3;28,32,31;,
  3;28,33,32;,
  3;28,34,33;,
  3;28,35,34;,
  3;28,36,35;,
  3;28,29,36;,
  4;29,30,38,37;,
  4;30,31,39,38;,
  4;31,32,40,39;,
  4;32,33,41,40;,
  4;33,34,42,41;,
  4;34,35,43,42;,
  4;35,36,44,43;,
  4;36,29,37,44;,
  4;37,38,46,45;,
  4;38,39,47,46;,
  4;39,40,48,47;,
  4;40,41,49,48;,
  4;41,42,50,49;,
  4;42,43,51,50;,
  4;43,44,52,51;,
  4;44,37,45,52;,
  4;45,46,54,53;,
  4;46,47,55,54;,
  4;47,48,56,55;,
  4;48,49,57,56;,
  4;49,50,58,57;,
  4;50,51,59,58;,
  4;51,52,60,59;,
  4;52,45,53,60;,
  4;53,54,62,61;,
  4;54,55,63,62;,
  4;55,56,64,63;,
  4;56,57,65,64;,
  4;57,58,66,65;,
  4;58,59,67,66;,
  4;59,60,68,67;,
  4;60,53,61,68;,
  4;61,62,70,69;,
  4;62,63,71,70;,
  4;63,64,72,71;,
  4;64,65,73,72;,
  4;65,66,74,73;,
  4;66,67,75,74;,
  4;67,68,76,75;,
  4;68,61,69,76;,
  4;69,70,78,77;,
  4;70,71,79,78;,
  4;71,72,80,79;,
  4;72,73,81,80;,
  4;73,74,82,81;,
  4;74,75,83,82;,
  4;75,76,84,83;,
  4;76,69,77,84;,
  3;77,78,85;,
  3;78,79,85;,
  3;79,80,85;,
  3;80,81,85;,
  3;81,82,85;,
  3;82,83,85;,
  3;83,84,85;,
  3;84,77,85;,
  4;86,87,95,94;,
  4;87,88,96,95;,
  4;88,89,97,96;,
  4;89,90,98,97;,
  4;90,91,99,98;,
  4;91,92,100,99;,
  4;92,93,101,100;,
  4;93,86,94,101;,
  4;94,95,103,102;,
  4;95,96,104,103;,
  4;96,97,105,104;,
  4;97,98,106,105;,
  4;98,99,107,106;,
  4;99,100,108,107;,
  4;100,101,109,108;,
  4;101,94,102,109;,
  4;102,103,111,110;,
  4;103,104,112,111;,
  4;104,105,113,112;,
  4;105,106,114,113;,
  4;106,107,115,114;,
  4;107,108,116,115;,
  4;108,109,117,116;,
  4;109,102,110,117;,
  4;110,111,119,118;,
  4;111,112,120,119;,
  4;112,113,121,120;,
  4;113,114,122,121;,
  4;114,115,123,122;,
  4;115,116,124,123;,
  4;116,117,125,124;,
  4;117,110,118,125;,
  4;118,119,127,126;,
  4;119,120,128,127;,
  4;120,121,129,128;,
  4;121,122,130,129;,
  4;122,123,131,130;,
  4;123,124,132,131;,
  4;124,125,133,132;,
  4;125,118,126,133;,
  4;126,127,135,134;,
  4;127,128,136,135;,
  4;128,129,137,136;,
  4;129,130,138,137;,
  4;130,131,139,138;,
  4;131,132,140,139;,
  4;132,133,141,140;,
  4;133,126,134,141;,
  4;134,135,143,142;,
  4;135,136,144,143;,
  4;136,137,145,144;,
  4;137,138,146,145;,
  4;138,139,147,146;,
  4;139,140,148,147;,
  4;140,141,149,148;,
  4;141,134,142,149;,
  4;142,143,87,86;,
  4;143,144,88,87;,
  4;144,145,89,88;,
  4;145,146,90,89;,
  4;146,147,91,90;,
  4;147,148,92,91;,
  4;148,149,93,92;,
  4;149,142,86,93;,
  4;150,151,159,158;,
  4;151,152,160,159;,
  4;152,153,161,160;,
  4;153,154,162,161;,
  4;154,155,163,162;,
  4;155,156,164,163;,
  4;156,157,165,164;,
  4;157,150,158,165;,
  4;158,159,167,166;,
  4;159,160,168,167;,
  4;160,161,169,168;,
  4;161,162,170,169;,
  4;162,163,171,170;,
  4;163,164,172,171;,
  4;164,165,173,172;,
  4;165,158,166,173;,
  4;166,167,175,174;,
  4;167,168,176,175;,
  4;168,169,177,176;,
  4;169,170,178,177;,
  4;170,171,179,178;,
  4;171,172,180,179;,
  4;172,173,181,180;,
  4;173,166,174,181;,
  4;174,175,183,182;,
  4;175,176,184,183;,
  4;176,177,185,184;,
  4;177,178,186,185;,
  4;178,179,187,186;,
  4;179,180,188,187;,
  4;180,181,189,188;,
  4;181,174,182,189;,
  4;182,183,191,190;,
  4;183,184,192,191;,
  4;184,185,193,192;,
  4;185,186,194,193;,
  4;186,187,195,194;,
  4;187,188,196,195;,
  4;188,189,197,196;,
  4;189,182,190,197;,
  4;190,191,199,198;,
  4;191,192,200,199;,
  4;192,193,201,200;,
  4;193,194,202,201;,
  4;194,195,203,202;,
  4;195,196,204,203;,
  4;196,197,205,204;,
  4;197,190,198,205;,
  4;198,199,207,206;,
  4;199,200,208,207;,
  4;200,201,209,208;,
  4;201,202,210,209;,
  4;202,203,211,210;,
  4;203,204,212,211;,
  4;204,205,213,212;,
  4;205,198,206,213;,
  4;206,207,151,150;,
  4;207,208,152,151;,
  4;208,209,153,152;,
  4;209,210,154,153;,
  4;210,211,155,154;,
  4;211,212,156,155;,
  4;212,213,157,156;,
  4;213,206,150,157;,
  4;215,215,215,215;,
  4;216,216,216,216;,
  4;225,225,225,225;,
  3;214,214,214;,
  3;214,214,214;,
  3;214,214,214;,
  3;217,217,217;,
  3;217,217,217;,
  3;217,217,217;,
  4;218,219,219,218;,
  4;219,220,220,219;,
  4;220,221,221,220;,
  4;221,222,222,221;,
  4;222,223,223,222;,
  4;223,224,224,223;,
  4;224,218,218,224;,
  3;214,214,214;,
  3;214,214,214;,
  3;214,214,214;,
  3;214,214,214;,
  3;214,214,214;,
  3;214,214,214;,
  3;214,214,214;,
  3;217,217,217;,
  3;217,217,217;,
  3;217,217,217;,
  3;217,217,217;,
  3;217,217,217;,
  3;217,217,217;,
  3;217,217,217;;
 }
}
