xof 0302txt 0064
template Header {
 <3D82AB43-62DA-11cf-AB39-0020AF71E433>
 WORD major;
 WORD minor;
 DWORD flags;
}

template Vector {
 <3D82AB5E-62DA-11cf-AB39-0020AF71E433>
 FLOAT x;
 FLOAT y;
 FLOAT z;
}

template Coords2d {
 <F6F23F44-7686-11cf-8F52-0040333594A3>
 FLOAT u;
 FLOAT v;
}

template Matrix4x4 {
 <F6F23F45-7686-11cf-8F52-0040333594A3>
 array FLOAT matrix[16];
}

template ColorRGBA {
 <35FF44E0-6C7C-11cf-8F52-0040333594A3>
 FLOAT red;
 FLOAT green;
 FLOAT blue;
 FLOAT alpha;
}

template ColorRGB {
 <D3E16E81-7835-11cf-8F52-0040333594A3>
 FLOAT red;
 FLOAT green;
 FLOAT blue;
}

template IndexedColor {
 <1630B820-7842-11cf-8F52-0040333594A3>
 DWORD index;
 ColorRGBA indexColor;
}

template Boolean {
 <4885AE61-78E8-11cf-8F52-0040333594A3>
 WORD truefalse;
}

template Boolean2d {
 <4885AE63-78E8-11cf-8F52-0040333594A3>
 Boolean u;
 Boolean v;
}

template MaterialWrap {
 <4885AE60-78E8-11cf-8F52-0040333594A3>
 Boolean u;
 Boolean v;
}

template TextureFilename {
 <A42790E1-7810-11cf-8F52-0040333594A3>
 STRING filename;
}

template Material {
 <3D82AB4D-62DA-11cf-AB39-0020AF71E433>
 ColorRGBA faceColor;
 FLOAT power;
 ColorRGB specularColor;
 ColorRGB emissiveColor;
 [...]
}

template MeshFace {
 <3D82AB5F-62DA-11cf-AB39-0020AF71E433>
 DWORD nFaceVertexIndices;
 array DWORD faceVertexIndices[nFaceVertexIndices];
}

template MeshFaceWraps {
 <4885AE62-78E8-11cf-8F52-0040333594A3>
 DWORD nFaceWrapValues;
 Boolean2d faceWrapValues;
}

template MeshTextureCoords {
 <F6F23F40-7686-11cf-8F52-0040333594A3>
 DWORD nTextureCoords;
 array Coords2d textureCoords[nTextureCoords];
}

template MeshMaterialList {
 <F6F23F42-7686-11cf-8F52-0040333594A3>
 DWORD nMaterials;
 DWORD nFaceIndexes;
 array DWORD faceIndexes[nFaceIndexes];
 [Material]
}

template MeshNormals {
 <F6F23F43-7686-11cf-8F52-0040333594A3>
 DWORD nNormals;
 array Vector normals[nNormals];
 DWORD nFaceNormals;
 array MeshFace faceNormals[nFaceNormals];
}

template MeshVertexColors {
 <1630B821-7842-11cf-8F52-0040333594A3>
 DWORD nVertexColors;
 array IndexedColor vertexColors[nVertexColors];
}

template Mesh {
 <3D82AB44-62DA-11cf-AB39-0020AF71E433>
 DWORD nVertices;
 array Vector vertices[nVertices];
 DWORD nFaces;
 array MeshFace faces[nFaces];
 [...]
}

Header{
1;
0;
1;
}

Mesh {
 180;
 -14.88048;12.87659;-158.24513;,
 14.88048;12.87659;-158.24513;,
 14.88048;-12.87659;-158.24513;,
 -14.88048;-12.87659;-158.24513;,
 14.88048;12.87659;-158.24513;,
 14.88048;12.87659;158.24513;,
 14.88048;-12.87659;158.24513;,
 14.88048;-12.87659;-158.24513;,
 14.88048;12.87659;158.24513;,
 -14.88048;12.87659;158.24513;,
 -14.88048;-12.87659;158.24513;,
 14.88048;-12.87659;158.24513;,
 -14.88048;12.87659;158.24513;,
 -14.88048;12.87659;-158.24513;,
 -14.88048;-12.87659;-158.24513;,
 -14.88048;-12.87659;158.24513;,
 14.88048;12.87659;-158.24513;,
 -14.88048;12.87659;-158.24513;,
 -14.88048;-12.87659;-158.24513;,
 14.88048;-12.87659;-158.24513;,
 14.88048;12.87659;-158.24513;,
 14.88048;12.87659;158.24513;,
 14.88048;-12.87659;158.24513;,
 14.88048;-12.87659;-158.24513;,
 14.88048;12.87659;158.24513;,
 -14.88048;12.87659;158.24513;,
 -14.88048;-12.87659;158.24513;,
 14.88048;-12.87659;158.24513;,
 -14.88048;12.87659;158.24513;,
 -14.88048;12.87659;-158.24513;,
 -14.88048;-12.87659;-158.24513;,
 -14.88048;-12.87659;158.24513;,
 14.88048;12.87659;-158.24513;,
 -14.88048;12.87659;-158.24513;,
 -14.88048;-12.87659;-158.24513;,
 14.88048;-12.87659;-158.24513;,
 -21.39864;20.37235;-158.24513;,
 -13.84809;20.37235;-158.24513;,
 -13.84809;12.78403;-158.24513;,
 -21.39864;12.78403;-158.24513;,
 -13.84809;20.37235;-158.24513;,
 -13.84809;20.37235;158.24513;,
 -13.84809;12.78403;158.24513;,
 -13.84809;12.78403;-158.24513;,
 -13.84809;20.37235;158.24513;,
 -21.39864;20.37235;158.24513;,
 -21.39864;12.78403;158.24513;,
 -13.84809;12.78403;158.24513;,
 -21.39864;20.37235;158.24513;,
 -21.39864;20.37235;-158.24513;,
 -21.39864;12.78403;-158.24513;,
 -21.39864;12.78403;158.24513;,
 -13.84809;20.37235;-158.24513;,
 -21.39864;20.37235;-158.24513;,
 -21.39864;12.78403;-158.24513;,
 -13.84809;12.78403;-158.24513;,
 -13.84809;20.37235;-158.24513;,
 -13.84809;20.37235;158.24513;,
 -13.84809;12.78403;158.24513;,
 -13.84809;12.78403;-158.24513;,
 -13.84809;20.37235;158.24513;,
 -21.39864;20.37235;158.24513;,
 -21.39864;12.78403;158.24513;,
 -13.84809;12.78403;158.24513;,
 -21.39864;20.37235;158.24513;,
 -21.39864;20.37235;-158.24513;,
 -21.39864;12.78403;-158.24513;,
 -21.39864;12.78403;158.24513;,
 -13.84809;20.37235;-158.24513;,
 -21.39864;20.37235;-158.24513;,
 -21.39864;12.78403;-158.24513;,
 -13.84809;12.78403;-158.24513;,
 14.80900;20.37235;-158.24513;,
 22.35956;20.37235;-158.24513;,
 22.35956;12.78403;-158.24513;,
 14.80900;12.78403;-158.24513;,
 22.35956;20.37235;-158.24513;,
 22.35956;20.37235;158.24513;,
 22.35956;12.78403;158.24513;,
 22.35956;12.78403;-158.24513;,
 22.35956;20.37235;158.24513;,
 14.80900;20.37235;158.24513;,
 14.80900;12.78403;158.24513;,
 22.35956;12.78403;158.24513;,
 14.80900;20.37235;158.24513;,
 14.80900;20.37235;-158.24513;,
 14.80900;12.78403;-158.24513;,
 14.80900;12.78403;158.24513;,
 22.35956;20.37235;-158.24513;,
 14.80900;20.37235;-158.24513;,
 14.80900;12.78403;-158.24513;,
 22.35956;12.78403;-158.24513;,
 22.35956;20.37235;-158.24513;,
 22.35956;20.37235;158.24513;,
 22.35956;12.78403;158.24513;,
 22.35956;12.78403;-158.24513;,
 22.35956;20.37235;158.24513;,
 14.80900;20.37235;158.24513;,
 14.80900;12.78403;158.24513;,
 22.35956;12.78403;158.24513;,
 14.80900;20.37235;158.24513;,
 14.80900;20.37235;-158.24513;,
 14.80900;12.78403;-158.24513;,
 14.80900;12.78403;158.24513;,
 22.35956;20.37235;-158.24513;,
 14.80900;20.37235;-158.24513;,
 14.80900;12.78403;-158.24513;,
 22.35956;12.78403;-158.24513;,
 -21.39864;-12.68479;-158.24513;,
 -13.84809;-12.68479;-158.24513;,
 -13.84809;-20.27311;-158.24513;,
 -21.39864;-20.27311;-158.24513;,
 -13.84809;-12.68479;-158.24513;,
 -13.84809;-12.68479;158.24513;,
 -13.84809;-20.27311;158.24513;,
 -13.84809;-20.27311;-158.24513;,
 -13.84809;-12.68479;158.24513;,
 -21.39864;-12.68479;158.24513;,
 -21.39864;-20.27311;158.24513;,
 -13.84809;-20.27311;158.24513;,
 -21.39864;-12.68479;158.24513;,
 -21.39864;-12.68479;-158.24513;,
 -21.39864;-20.27311;-158.24513;,
 -21.39864;-20.27311;158.24513;,
 -13.84809;-12.68479;-158.24513;,
 -21.39864;-12.68479;-158.24513;,
 -21.39864;-20.27311;-158.24513;,
 -13.84809;-20.27311;-158.24513;,
 -13.84809;-12.68479;-158.24513;,
 -13.84809;-12.68479;158.24513;,
 -13.84809;-20.27311;158.24513;,
 -13.84809;-20.27311;-158.24513;,
 -13.84809;-12.68479;158.24513;,
 -21.39864;-12.68479;158.24513;,
 -21.39864;-20.27311;158.24513;,
 -13.84809;-20.27311;158.24513;,
 -21.39864;-12.68479;158.24513;,
 -21.39864;-12.68479;-158.24513;,
 -21.39864;-20.27311;-158.24513;,
 -21.39864;-20.27311;158.24513;,
 -13.84809;-12.68479;-158.24513;,
 -21.39864;-12.68479;-158.24513;,
 -21.39864;-20.27311;-158.24513;,
 -13.84809;-20.27311;-158.24513;,
 14.75635;-12.67269;-158.24513;,
 22.30691;-12.67269;-158.24513;,
 22.30691;-20.26100;-158.24513;,
 14.75635;-20.26100;-158.24513;,
 22.30691;-12.67269;-158.24513;,
 22.30691;-12.67269;158.24513;,
 22.30691;-20.26100;158.24513;,
 22.30691;-20.26100;-158.24513;,
 22.30691;-12.67269;158.24513;,
 14.75635;-12.67269;158.24513;,
 14.75635;-20.26100;158.24513;,
 22.30691;-20.26100;158.24513;,
 14.75635;-12.67269;158.24513;,
 14.75635;-12.67269;-158.24513;,
 14.75635;-20.26100;-158.24513;,
 14.75635;-20.26100;158.24513;,
 22.30691;-12.67269;-158.24513;,
 14.75635;-12.67269;-158.24513;,
 14.75635;-20.26100;-158.24513;,
 22.30691;-20.26100;-158.24513;,
 22.30691;-12.67269;-158.24513;,
 22.30691;-12.67269;158.24513;,
 22.30691;-20.26100;158.24513;,
 22.30691;-20.26100;-158.24513;,
 22.30691;-12.67269;158.24513;,
 14.75635;-12.67269;158.24513;,
 14.75635;-20.26100;158.24513;,
 22.30691;-20.26100;158.24513;,
 14.75635;-12.67269;158.24513;,
 14.75635;-12.67269;-158.24513;,
 14.75635;-20.26100;-158.24513;,
 14.75635;-20.26100;158.24513;,
 22.30691;-12.67269;-158.24513;,
 14.75635;-12.67269;-158.24513;,
 14.75635;-20.26100;-158.24513;,
 22.30691;-20.26100;-158.24513;;
 
 55;
 4;0,1,2,3;,
 4;4,5,6,7;,
 4;8,9,10,11;,
 4;12,13,14,15;,
 4;12,5,16,17;,
 4;18,19,6,15;,
 4;20,21,22,23;,
 4;24,25,26,27;,
 4;28,29,30,31;,
 4;28,21,32,33;,
 4;34,35,22,31;,
 4;36,37,38,39;,
 4;40,41,42,43;,
 4;44,45,46,47;,
 4;48,49,50,51;,
 4;48,41,52,53;,
 4;54,55,42,51;,
 4;56,57,58,59;,
 4;60,61,62,63;,
 4;64,65,66,67;,
 4;64,57,68,69;,
 4;70,71,58,67;,
 4;72,73,74,75;,
 4;76,77,78,79;,
 4;80,81,82,83;,
 4;84,85,86,87;,
 4;84,77,88,89;,
 4;90,91,78,87;,
 4;92,93,94,95;,
 4;96,97,98,99;,
 4;100,101,102,103;,
 4;100,93,104,105;,
 4;106,107,94,103;,
 4;108,109,110,111;,
 4;112,113,114,115;,
 4;116,117,118,119;,
 4;120,121,122,123;,
 4;120,113,124,125;,
 4;126,127,114,123;,
 4;128,129,130,131;,
 4;132,133,134,135;,
 4;136,137,138,139;,
 4;136,129,140,141;,
 4;142,143,130,139;,
 4;144,145,146,147;,
 4;148,149,150,151;,
 4;152,153,154,155;,
 4;156,157,158,159;,
 4;156,149,160,161;,
 4;162,163,150,159;,
 4;164,165,166,167;,
 4;168,169,170,171;,
 4;172,173,174,175;,
 4;172,165,176,177;,
 4;178,179,166,175;;
 
 MeshMaterialList {
  1;
  55;
  0,
  0,
  0,
  0,
  0,
  0,
  0,
  0,
  0,
  0,
  0,
  0,
  0,
  0,
  0,
  0,
  0,
  0,
  0,
  0,
  0,
  0,
  0,
  0,
  0,
  0,
  0,
  0,
  0,
  0,
  0,
  0,
  0,
  0,
  0,
  0,
  0,
  0,
  0,
  0,
  0,
  0,
  0,
  0,
  0,
  0,
  0,
  0,
  0,
  0,
  0,
  0,
  0,
  0,
  0;;
  Material {
   0.640000;0.260392;0.222745;1.000000;;
   5.000000;
   0.000000;0.000000;0.000000;;
   0.000000;0.000000;0.000000;;
  }
 }
 MeshNormals {
  30;
  0.000000;0.000000;-1.000000;,
  1.000000;0.000000;0.000000;,
  0.000000;0.000000;1.000000;,
  -1.000000;0.000000;0.000000;,
  0.000000;1.000000;0.000000;,
  0.000000;-1.000000;-0.000000;,
  0.000000;0.000000;-1.000000;,
  1.000000;0.000000;0.000000;,
  0.000000;0.000000;1.000000;,
  -1.000000;0.000000;0.000000;,
  0.000000;1.000000;0.000000;,
  0.000000;-1.000000;-0.000000;,
  0.000000;0.000000;-1.000000;,
  1.000000;0.000000;0.000000;,
  0.000000;0.000000;1.000000;,
  -1.000000;0.000000;0.000000;,
  0.000000;1.000000;0.000000;,
  0.000000;-1.000000;-0.000000;,
  0.000000;0.000000;-1.000000;,
  1.000000;0.000000;0.000000;,
  0.000000;0.000000;1.000000;,
  -1.000000;0.000000;0.000000;,
  0.000000;1.000000;0.000000;,
  0.000000;-1.000000;-0.000000;,
  0.000000;0.000000;-1.000000;,
  1.000000;0.000000;0.000000;,
  0.000000;0.000000;1.000000;,
  -1.000000;0.000000;0.000000;,
  0.000000;1.000000;0.000000;,
  0.000000;-1.000000;-0.000000;;
  55;
  4;0,0,0,0;,
  4;1,1,1,1;,
  4;2,2,2,2;,
  4;3,3,3,3;,
  4;4,4,4,4;,
  4;5,5,5,5;,
  4;1,1,1,1;,
  4;2,2,2,2;,
  4;3,3,3,3;,
  4;4,4,4,4;,
  4;5,5,5,5;,
  4;6,6,6,6;,
  4;7,7,7,7;,
  4;8,8,8,8;,
  4;9,9,9,9;,
  4;10,10,10,10;,
  4;11,11,11,11;,
  4;7,7,7,7;,
  4;8,8,8,8;,
  4;9,9,9,9;,
  4;10,10,10,10;,
  4;11,11,11,11;,
  4;12,12,12,12;,
  4;13,13,13,13;,
  4;14,14,14,14;,
  4;15,15,15,15;,
  4;16,16,16,16;,
  4;17,17,17,17;,
  4;13,13,13,13;,
  4;14,14,14,14;,
  4;15,15,15,15;,
  4;16,16,16,16;,
  4;17,17,17,17;,
  4;18,18,18,18;,
  4;19,19,19,19;,
  4;20,20,20,20;,
  4;21,21,21,21;,
  4;22,22,22,22;,
  4;23,23,23,23;,
  4;19,19,19,19;,
  4;20,20,20,20;,
  4;21,21,21,21;,
  4;22,22,22,22;,
  4;23,23,23,23;,
  4;24,24,24,24;,
  4;25,25,25,25;,
  4;26,26,26,26;,
  4;27,27,27,27;,
  4;28,28,28,28;,
  4;29,29,29,29;,
  4;25,25,25,25;,
  4;26,26,26,26;,
  4;27,27,27,27;,
  4;28,28,28,28;,
  4;29,29,29,29;;
 }
 MeshTextureCoords {
  180;
  0.000000;0.000000;,
  1.000000;0.000000;,
  1.000000;1.000000;,
  0.000000;1.000000;,
  0.000000;0.000000;,
  1.000000;0.000000;,
  1.000000;1.000000;,
  0.000000;1.000000;,
  0.000000;0.000000;,
  1.000000;0.000000;,
  1.000000;1.000000;,
  0.000000;1.000000;,
  0.000000;0.000000;,
  1.000000;0.000000;,
  1.000000;1.000000;,
  0.000000;1.000000;,
  1.000000;1.000000;,
  0.000000;1.000000;,
  0.000000;0.000000;,
  1.000000;0.000000;,
  0.000000;0.000000;,
  1.000000;0.000000;,
  1.000000;1.000000;,
  0.000000;1.000000;,
  0.000000;0.000000;,
  1.000000;0.000000;,
  1.000000;1.000000;,
  0.000000;1.000000;,
  0.000000;0.000000;,
  1.000000;0.000000;,
  1.000000;1.000000;,
  0.000000;1.000000;,
  1.000000;1.000000;,
  0.000000;1.000000;,
  0.000000;0.000000;,
  1.000000;0.000000;,
  0.000000;0.000000;,
  1.000000;0.000000;,
  1.000000;1.000000;,
  0.000000;1.000000;,
  0.000000;0.000000;,
  1.000000;0.000000;,
  1.000000;1.000000;,
  0.000000;1.000000;,
  0.000000;0.000000;,
  1.000000;0.000000;,
  1.000000;1.000000;,
  0.000000;1.000000;,
  0.000000;0.000000;,
  1.000000;0.000000;,
  1.000000;1.000000;,
  0.000000;1.000000;,
  1.000000;1.000000;,
  0.000000;1.000000;,
  0.000000;0.000000;,
  1.000000;0.000000;,
  0.000000;0.000000;,
  1.000000;0.000000;,
  1.000000;1.000000;,
  0.000000;1.000000;,
  0.000000;0.000000;,
  1.000000;0.000000;,
  1.000000;1.000000;,
  0.000000;1.000000;,
  0.000000;0.000000;,
  1.000000;0.000000;,
  1.000000;1.000000;,
  0.000000;1.000000;,
  1.000000;1.000000;,
  0.000000;1.000000;,
  0.000000;0.000000;,
  1.000000;0.000000;,
  0.000000;0.000000;,
  1.000000;0.000000;,
  1.000000;1.000000;,
  0.000000;1.000000;,
  0.000000;0.000000;,
  1.000000;0.000000;,
  1.000000;1.000000;,
  0.000000;1.000000;,
  0.000000;0.000000;,
  1.000000;0.000000;,
  1.000000;1.000000;,
  0.000000;1.000000;,
  0.000000;0.000000;,
  1.000000;0.000000;,
  1.000000;1.000000;,
  0.000000;1.000000;,
  1.000000;1.000000;,
  0.000000;1.000000;,
  0.000000;0.000000;,
  1.000000;0.000000;,
  0.000000;0.000000;,
  1.000000;0.000000;,
  1.000000;1.000000;,
  0.000000;1.000000;,
  0.000000;0.000000;,
  1.000000;0.000000;,
  1.000000;1.000000;,
  0.000000;1.000000;,
  0.000000;0.000000;,
  1.000000;0.000000;,
  1.000000;1.000000;,
  0.000000;1.000000;,
  1.000000;1.000000;,
  0.000000;1.000000;,
  0.000000;0.000000;,
  1.000000;0.000000;,
  0.000000;0.000000;,
  1.000000;0.000000;,
  1.000000;1.000000;,
  0.000000;1.000000;,
  0.000000;0.000000;,
  1.000000;0.000000;,
  1.000000;1.000000;,
  0.000000;1.000000;,
  0.000000;0.000000;,
  1.000000;0.000000;,
  1.000000;1.000000;,
  0.000000;1.000000;,
  0.000000;0.000000;,
  1.000000;0.000000;,
  1.000000;1.000000;,
  0.000000;1.000000;,
  1.000000;1.000000;,
  0.000000;1.000000;,
  0.000000;0.000000;,
  1.000000;0.000000;,
  0.000000;0.000000;,
  1.000000;0.000000;,
  1.000000;1.000000;,
  0.000000;1.000000;,
  0.000000;0.000000;,
  1.000000;0.000000;,
  1.000000;1.000000;,
  0.000000;1.000000;,
  0.000000;0.000000;,
  1.000000;0.000000;,
  1.000000;1.000000;,
  0.000000;1.000000;,
  1.000000;1.000000;,
  0.000000;1.000000;,
  0.000000;0.000000;,
  1.000000;0.000000;,
  0.000000;0.000000;,
  1.000000;0.000000;,
  1.000000;1.000000;,
  0.000000;1.000000;,
  0.000000;0.000000;,
  1.000000;0.000000;,
  1.000000;1.000000;,
  0.000000;1.000000;,
  0.000000;0.000000;,
  1.000000;0.000000;,
  1.000000;1.000000;,
  0.000000;1.000000;,
  0.000000;0.000000;,
  1.000000;0.000000;,
  1.000000;1.000000;,
  0.000000;1.000000;,
  1.000000;1.000000;,
  0.000000;1.000000;,
  0.000000;0.000000;,
  1.000000;0.000000;,
  0.000000;0.000000;,
  1.000000;0.000000;,
  1.000000;1.000000;,
  0.000000;1.000000;,
  0.000000;0.000000;,
  1.000000;0.000000;,
  1.000000;1.000000;,
  0.000000;1.000000;,
  0.000000;0.000000;,
  1.000000;0.000000;,
  1.000000;1.000000;,
  0.000000;1.000000;,
  1.000000;1.000000;,
  0.000000;1.000000;,
  0.000000;0.000000;,
  1.000000;0.000000;;
 }
}
