xof 0302txt 0064
template Header {
 <3D82AB43-62DA-11cf-AB39-0020AF71E433>
 WORD major;
 WORD minor;
 DWORD flags;
}

template Vector {
 <3D82AB5E-62DA-11cf-AB39-0020AF71E433>
 FLOAT x;
 FLOAT y;
 FLOAT z;
}

template Coords2d {
 <F6F23F44-7686-11cf-8F52-0040333594A3>
 FLOAT u;
 FLOAT v;
}

template Matrix4x4 {
 <F6F23F45-7686-11cf-8F52-0040333594A3>
 array FLOAT matrix[16];
}

template ColorRGBA {
 <35FF44E0-6C7C-11cf-8F52-0040333594A3>
 FLOAT red;
 FLOAT green;
 FLOAT blue;
 FLOAT alpha;
}

template ColorRGB {
 <D3E16E81-7835-11cf-8F52-0040333594A3>
 FLOAT red;
 FLOAT green;
 FLOAT blue;
}

template IndexedColor {
 <1630B820-7842-11cf-8F52-0040333594A3>
 DWORD index;
 ColorRGBA indexColor;
}

template Boolean {
 <4885AE61-78E8-11cf-8F52-0040333594A3>
 WORD truefalse;
}

template Boolean2d {
 <4885AE63-78E8-11cf-8F52-0040333594A3>
 Boolean u;
 Boolean v;
}

template MaterialWrap {
 <4885AE60-78E8-11cf-8F52-0040333594A3>
 Boolean u;
 Boolean v;
}

template TextureFilename {
 <A42790E1-7810-11cf-8F52-0040333594A3>
 STRING filename;
}

template Material {
 <3D82AB4D-62DA-11cf-AB39-0020AF71E433>
 ColorRGBA faceColor;
 FLOAT power;
 ColorRGB specularColor;
 ColorRGB emissiveColor;
 [...]
}

template MeshFace {
 <3D82AB5F-62DA-11cf-AB39-0020AF71E433>
 DWORD nFaceVertexIndices;
 array DWORD faceVertexIndices[nFaceVertexIndices];
}

template MeshFaceWraps {
 <4885AE62-78E8-11cf-8F52-0040333594A3>
 DWORD nFaceWrapValues;
 Boolean2d faceWrapValues;
}

template MeshTextureCoords {
 <F6F23F40-7686-11cf-8F52-0040333594A3>
 DWORD nTextureCoords;
 array Coords2d textureCoords[nTextureCoords];
}

template MeshMaterialList {
 <F6F23F42-7686-11cf-8F52-0040333594A3>
 DWORD nMaterials;
 DWORD nFaceIndexes;
 array DWORD faceIndexes[nFaceIndexes];
 [Material]
}

template MeshNormals {
 <F6F23F43-7686-11cf-8F52-0040333594A3>
 DWORD nNormals;
 array Vector normals[nNormals];
 DWORD nFaceNormals;
 array MeshFace faceNormals[nFaceNormals];
}

template MeshVertexColors {
 <1630B821-7842-11cf-8F52-0040333594A3>
 DWORD nVertexColors;
 array IndexedColor vertexColors[nVertexColors];
}

template Mesh {
 <3D82AB44-62DA-11cf-AB39-0020AF71E433>
 DWORD nVertices;
 array Vector vertices[nVertices];
 DWORD nFaces;
 array MeshFace faces[nFaces];
 [...]
}

Header{
1;
0;
1;
}

Mesh {
 815;
 -0.00300;2.06293;-48.09132;,
 -0.00300;19.08729;0.00000;,
 34.00266;2.06293;-34.00566;,
 48.08829;2.06293;0.00000;,
 34.00266;2.06293;34.00566;,
 -0.00300;2.06293;48.09132;,
 -34.00864;2.06293;34.00566;,
 -48.09431;2.06293;0.00000;,
 -34.00864;2.06293;-34.00566;,
 -0.00300;2.06293;0.00000;,
 -0.00300;149.27537;-2.77527;,
 1.95939;149.27537;-1.96240;,
 1.95939;15.79799;-1.96240;,
 -0.00300;15.79799;-2.77527;,
 2.77227;149.27537;0.00000;,
 2.77227;15.79799;0.00000;,
 1.95939;149.27537;1.96240;,
 1.95939;15.79799;1.96240;,
 -0.00300;149.27537;2.77527;,
 -0.00300;15.79799;2.77527;,
 -1.96540;149.27537;1.96240;,
 -1.96540;15.79799;1.96240;,
 -2.77828;149.27537;0.00000;,
 -2.77828;15.79799;0.00000;,
 -1.96540;149.27537;-1.96240;,
 -1.96540;15.79799;-1.96240;,
 -0.00300;149.27537;0.00000;,
 -0.00300;15.79799;0.00000;,
 -0.00585;318.25242;11.28964;,
 99.67447;218.25806;11.61537;,
 99.67447;218.25806;-10.75694;,
 -0.00585;318.25242;-11.08249;,
 0.00648;118.59015;11.61537;,
 0.00648;118.59015;-10.75694;,
 -99.67379;218.58394;11.28964;,
 -99.67379;218.58394;-11.08249;,
 -83.47996;218.58394;-11.08249;,
 -83.83720;218.58394;-11.08249;,
 -83.65808;218.76148;-11.08249;,
 0.02495;303.87493;11.14763;,
 -0.00585;303.93255;11.28964;,
 -1.04245;302.90415;11.28964;,
 -86.04642;218.58394;11.28964;,
 -0.00585;218.58394;11.28964;,
 -0.22867;301.51978;-11.08249;,
 -0.00585;301.74114;-11.08249;,
 -0.00585;301.30015;-11.08249;,
 -0.00585;218.58394;-11.08249;,
 83.94853;218.58394;11.28964;,
 -0.00585;132.45697;11.28964;,
 -0.00585;135.46597;-11.08249;,
 82.67696;218.58394;-11.08249;,
 -0.86593;133.32318;11.28964;,
 -0.00585;132.46580;11.28964;,
 -0.00548;134.01271;11.28964;,
 -86.38912;218.58394;11.28964;,
 -0.00585;135.46597;-11.08249;,
 -0.00585;135.36624;-11.08249;,
 -0.05565;135.41585;-11.08249;,
 -83.47996;218.58394;-11.08249;,
 83.94853;218.58394;11.28964;,
 84.40458;218.58394;11.28964;,
 84.17442;218.81101;11.28964;,
 -0.08851;303.98799;11.14210;,
 83.24102;219.15093;-11.08249;,
 83.81550;218.58394;-11.08249;,
 82.67696;218.58394;-11.08249;,
 -0.00585;301.30015;-11.08249;,
 -0.00585;315.35726;11.28964;,
 -95.13806;218.58394;11.28964;,
 -95.13806;218.58394;11.28964;,
 95.31148;218.35120;11.52224;,
 -0.02617;314.75169;11.25350;,
 -0.00585;314.83255;-11.08249;,
 95.41733;218.34554;-10.84438;,
 97.52701;216.11075;11.61537;,
 95.31441;218.34829;11.52500;,
 -0.00585;314.73125;11.28964;,
 -0.31462;315.04329;11.28964;,
 -0.06765;314.89524;-11.08249;,
 -0.00585;314.95789;-11.08249;,
 -0.00585;314.83255;-11.08249;,
 96.03650;218.32779;-10.82665;,
 0.00281;123.64610;-10.85452;,
 94.70243;218.36414;11.50934;,
 95.00399;218.66197;11.52134;,
 97.83420;220.10406;-10.76304;,
 96.04180;218.33264;-10.83147;,
 94.69915;218.36094;11.51226;,
 58.24033;182.41465;11.48407;,
 0.00079;124.99474;11.46486;,
 0.00409;121.82687;-10.81985;,
 -97.85150;218.58394;-11.08249;,
 -97.85150;218.58394;-11.08249;,
 -98.76765;219.49009;-11.08249;,
 -94.74514;218.58394;-11.08249;,
 -95.17714;218.54402;11.28986;,
 -95.21749;218.58394;11.28964;,
 0.00132;124.42633;11.47834;,
 -93.77369;218.58394;-11.08249;,
 -94.26114;219.07630;-11.08249;,
 0.09445;123.73650;-10.85452;,
 0.00260;123.83008;-10.85802;,
 0.00574;119.52217;11.59344;,
 0.46779;119.05132;11.61537;,
 -93.77369;218.58394;-11.08249;,
 0.00260;123.83008;-10.85856;,
 -98.02081;218.58394;11.28964;,
 -97.39003;216.29322;11.29724;,
 -96.57478;217.12229;11.29443;,
 0.00574;119.52217;11.59344;,
 7.47089;212.06712;-13.16633;,
 9.08882;212.65367;-13.16633;,
 9.08882;212.65367;-13.16633;,
 7.47089;212.06712;-13.16633;,
 10.94856;215.12981;-13.16633;,
 10.94856;215.12981;-13.16633;,
 12.45966;218.70938;-13.16633;,
 12.45966;218.70938;-13.16633;,
 13.14247;222.25630;-13.16633;,
 13.14247;222.25630;-13.16633;,
 12.78007;224.64346;-13.16633;,
 12.78007;224.64346;-13.16633;,
 11.48748;225.11404;-13.16633;,
 11.48748;225.11404;-13.16633;,
 9.67516;223.51831;-13.16633;,
 9.67516;223.51831;-13.16633;,
 7.91852;220.36233;-13.16633;,
 7.91852;220.36233;-13.16633;,
 6.77518;216.64898;-13.16633;,
 6.77518;216.64898;-13.16633;,
 6.60826;213.55647;-13.16633;,
 6.60826;213.55647;-13.16633;,
 9.85057;218.60540;-13.16633;,
 9.85057;218.60540;-13.16633;,
 -18.39277;221.48081;-13.16633;,
 -16.77480;222.06734;-13.16633;,
 -16.77480;222.06734;-13.16633;,
 -18.39277;221.48081;-13.16633;,
 -14.91511;224.54351;-13.16633;,
 -14.91511;224.54351;-13.16633;,
 -13.40379;228.12315;-13.16633;,
 -13.40379;228.12315;-13.16633;,
 -12.72098;231.66997;-13.16633;,
 -12.72098;231.66997;-13.16633;,
 -13.08339;234.05718;-13.16633;,
 -13.08339;234.05718;-13.16633;,
 -14.37616;234.52774;-13.16633;,
 -14.37616;234.52774;-13.16633;,
 -16.18829;232.93196;-13.16633;,
 -16.18829;232.93196;-13.16633;,
 -17.94509;229.77603;-13.16633;,
 -17.94509;229.77603;-13.16633;,
 -19.08828;226.06233;-13.16633;,
 -19.08828;226.06233;-13.16633;,
 -19.25519;222.97000;-13.16633;,
 -19.25519;222.97000;-13.16633;,
 -16.01308;228.01890;-13.16633;,
 -16.01308;228.01890;-13.16633;,
 -2.66606;224.86560;-13.16633;,
 9.58867;217.29422;-13.16633;,
 9.58867;217.29422;-13.16633;,
 -2.66606;224.86560;-13.16633;,
 20.33061;218.65699;-13.16633;,
 20.33061;218.65699;-13.16633;,
 21.64251;222.30935;-13.16633;,
 21.64251;222.30935;-13.16633;,
 24.33077;229.86966;-13.16633;,
 24.33077;229.86966;-13.16633;,
 8.94514;235.27371;-13.16633;,
 8.94514;235.27371;-13.16633;,
 -4.86942;240.30188;-13.16633;,
 -4.86942;240.30188;-13.16633;,
 -20.06213;246.02769;-13.16633;,
 -20.06213;246.02769;-13.16633;,
 -22.97134;238.54751;-13.16633;,
 -22.97134;238.54751;-13.16633;,
 -24.27278;234.89126;-13.16633;,
 -24.27278;234.89126;-13.16633;,
 -16.81817;227.22234;-13.16633;,
 -16.81817;227.22234;-13.16633;,
 -0.98284;229.49046;-13.16633;,
 -0.98284;229.49046;-13.16633;,
 -17.94049;245.26170;-13.16633;,
 -16.41261;244.71180;-13.16633;,
 -16.41261;244.71180;-13.16633;,
 -17.94049;245.26170;-13.16633;,
 -16.07319;247.33313;-13.16633;,
 -16.07319;247.33313;-13.16633;,
 -13.35325;255.47022;-13.16633;,
 -13.35325;255.47022;-13.16633;,
 -10.33706;262.75940;-13.16633;,
 -10.33706;262.75940;-13.16633;,
 -11.02464;262.99810;-13.16633;,
 -11.02464;262.99810;-13.16633;,
 -11.83765;263.29410;-13.16633;,
 -11.83765;263.29410;-13.16633;,
 -12.51753;263.55315;-13.16633;,
 -12.51753;263.55315;-13.16633;,
 -15.55087;256.27024;-13.16633;,
 -15.55087;256.27024;-13.16633;,
 -19.30482;248.50955;-13.16633;,
 -19.30482;248.50955;-13.16633;,
 -20.02120;246.02510;-13.16633;,
 -20.02120;246.02510;-13.16633;,
 -14.87140;253.69400;-13.16633;,
 -14.87140;253.69400;-13.16633;,
 8.85330;254.25887;-13.16633;,
 27.00905;246.61131;-13.16633;,
 27.00905;246.61131;-13.16633;,
 8.85330;254.25887;-13.16633;,
 27.19110;247.23059;-13.16633;,
 27.19110;247.23059;-13.16633;,
 27.51922;248.00872;-13.16633;,
 27.51922;248.00872;-13.16633;,
 27.76528;248.74402;-13.16633;,
 27.76528;248.74402;-13.16633;,
 15.45871;254.62425;-13.16633;,
 15.45871;254.62425;-13.16633;,
 3.99785;258.70162;-13.16633;,
 3.99785;258.70162;-13.16633;,
 -10.83967;262.79515;-13.16633;,
 -10.83967;262.79515;-13.16633;,
 -11.04954;262.04685;-13.16633;,
 -11.04954;262.04685;-13.16633;,
 -11.42598;261.28606;-13.16633;,
 -11.42598;261.28606;-13.16633;,
 -11.74341;260.71614;-13.16633;,
 -11.74341;260.71614;-13.16633;,
 8.95454;254.53680;-13.16633;,
 8.95454;254.53680;-13.16633;,
 22.15601;230.51978;-13.16633;,
 20.63195;231.08035;-13.16633;,
 20.63195;231.08035;-13.16633;,
 22.15601;230.51978;-13.16633;,
 22.05698;233.30669;-13.16633;,
 22.05698;233.30669;-13.16633;,
 25.20373;241.28860;-13.16633;,
 25.20373;241.28860;-13.16633;,
 27.57898;248.81106;-13.16633;,
 27.57898;248.81106;-13.16633;,
 28.25903;248.55205;-13.16633;,
 28.25903;248.55201;-13.16633;,
 29.07166;248.25640;-13.16633;,
 29.07188;248.25640;-13.16633;,
 29.75910;248.01758;-13.16633;,
 29.11466;248.04742;-13.16633;,
 27.40119;240.48846;-13.16633;,
 27.40135;240.48846;-13.16633;,
 25.28878;232.13040;-13.16633;,
 25.28878;232.13040;-13.16633;,
 24.24059;229.76702;-13.16633;,
 24.24059;229.76702;-13.16633;,
 25.22534;238.95215;-13.16633;,
 25.22534;238.95215;-13.16633;,
 22.28422;221.46226;11.50323;,
 23.14647;222.95166;11.50323;,
 23.14647;222.95166;11.50323;,
 22.28422;221.46226;11.50323;,
 22.97956;226.04390;11.50323;,
 22.97956;226.04390;11.50323;,
 21.83637;229.75767;11.50323;,
 21.83637;229.75767;11.50323;,
 20.07955;232.91328;11.50323;,
 20.07955;232.91328;11.50323;,
 18.26719;234.50931;11.50323;,
 18.26719;234.50931;11.50323;,
 16.97463;234.03890;11.50323;,
 16.97463;234.03890;11.50323;,
 16.61221;231.65149;11.50323;,
 16.61221;231.65149;11.50323;,
 17.29504;228.10476;11.50323;,
 17.29504;228.10476;11.50323;,
 18.80619;224.52498;11.50323;,
 18.80619;224.52498;11.50323;,
 20.66608;222.04895;11.50323;,
 20.66608;222.04895;11.50323;,
 19.90454;228.00064;11.50323;,
 19.90454;228.00064;11.50323;,
 -3.57944;212.04886;11.50323;,
 -2.71718;213.53802;11.50323;,
 -2.71718;213.53802;11.50323;,
 -3.57944;212.04886;11.50323;,
 -2.88410;216.63035;11.50323;,
 -2.88410;216.63035;11.50323;,
 -4.02727;220.34405;11.50323;,
 -4.02727;220.34405;11.50323;,
 -5.78408;223.49983;11.50323;,
 -5.78408;223.49983;11.50323;,
 -7.59625;225.09578;11.50323;,
 -7.59625;225.09578;11.50323;,
 -8.88898;224.62537;11.50323;,
 -8.88898;224.62537;11.50323;,
 -9.25143;222.23787;11.50323;,
 -9.25143;222.23787;11.50323;,
 -8.56862;218.69119;11.50323;,
 -8.56862;218.69119;11.50323;,
 -7.05727;215.11143;11.50323;,
 -7.05727;215.11143;11.50323;,
 -5.19736;212.63528;11.50323;,
 -5.19736;212.63528;11.50323;,
 -5.95912;218.58709;11.50323;,
 -5.95912;218.58709;11.50323;,
 6.29211;224.75071;11.50323;,
 20.54673;226.82798;11.50323;,
 20.54673;226.82798;11.50323;,
 6.29211;224.75071;11.50323;,
 27.89935;234.77654;11.50323;,
 27.89935;234.77654;11.50323;,
 26.55682;238.41751;11.50323;,
 26.55682;238.41751;11.50323;,
 23.75640;245.93731;11.50323;,
 23.75640;245.93731;11.50323;,
 8.49657;240.18721;11.50323;,
 8.49657;240.18721;11.50323;,
 -5.31799;235.15926;11.50323;,
 -5.31799;235.15926;11.50323;,
 -20.63648;229.77981;11.50323;,
 -20.63648;229.77967;11.50323;,
 -18.05707;222.17950;11.50323;,
 -18.05707;222.17950;11.50323;,
 -16.70403;218.54226;11.50323;,
 -16.70403;218.54226;11.50323;,
 -6.06387;217.45940;11.50323;,
 -6.06387;217.45940;11.50323;,
 4.60889;229.37561;11.50323;,
 4.60889;229.37561;11.50323;,
 -18.51911;230.55684;11.50323;,
 -16.99507;231.11741;11.50323;,
 -16.99507;231.11741;11.50323;,
 -18.51911;230.55684;11.50323;,
 -18.42027;233.34392;11.50323;,
 -18.42027;233.34392;11.50323;,
 -21.56685;241.32566;11.50323;,
 -21.56685;241.32566;11.50323;,
 -23.94190;248.84827;11.50323;,
 -23.94190;248.84827;11.50323;,
 -24.62195;248.58936;11.50323;,
 -24.62195;248.58936;11.50323;,
 -25.43495;248.29322;11.50323;,
 -25.43495;248.29322;11.50323;,
 -26.12238;248.05467;11.50323;,
 -26.12238;248.05467;11.50323;,
 -23.76463;240.52574;11.50323;,
 -23.76463;240.52574;11.50323;,
 -21.65186;232.16785;11.50323;,
 -21.65186;232.16785;11.50323;,
 -20.60349;229.80413;11.50323;,
 -20.60349;229.80413;11.50323;,
 -21.58824;238.98914;11.50323;,
 -21.58824;238.98914;11.50323;,
 -3.77699;254.67173;11.50323;,
 15.04687;260.48387;11.50323;,
 15.04687;260.48387;11.50323;,
 -3.77699;254.67173;11.50323;,
 14.78809;261.07522;11.50323;,
 14.78809;261.07522;11.50323;,
 14.53946;261.88177;11.50323;,
 14.53946;261.88177;11.50323;,
 14.25522;262.60340;11.50323;,
 14.25522;262.60340;11.50323;,
 1.04823;259.19759;11.50323;,
 1.04823;259.19759;11.50323;,
 -10.35235;254.95418;11.50323;,
 -10.35235;254.95418;11.50323;,
 -24.34969;248.55225;11.50323;,
 -24.34969;248.55225;11.50323;,
 -24.02930;247.84429;11.50323;,
 -24.02930;247.84429;11.50323;,
 -23.82883;247.01961;11.50323;,
 -23.82883;247.01961;11.50323;,
 -23.70581;246.37906;11.50323;,
 -23.70581;246.37906;11.50323;,
 -3.87824;254.94966;11.50323;,
 -3.87824;254.94966;11.50323;,
 21.67276;245.03716;11.50323;,
 20.14484;244.48719;11.50323;,
 20.14484;244.48719;11.50323;,
 21.67276;245.03738;11.50323;,
 19.80531;247.10877;11.50323;,
 19.80531;247.10877;11.50323;,
 17.08532;255.24585;11.50323;,
 17.08532;255.24585;11.50323;,
 14.06931;262.53528;11.50323;,
 14.06931;262.53528;11.50323;,
 14.75672;262.77366;11.50323;,
 14.75693;262.77366;11.50323;,
 15.56956;263.06971;11.50323;,
 15.56956;263.06971;11.50323;,
 16.24962;263.32879;11.50323;,
 15.73669;262.93728;11.50323;,
 19.28278;256.04558;11.50323;,
 19.28293;256.04558;11.50323;,
 23.03711;248.28484;11.50323;,
 23.03711;248.28484;11.50323;,
 23.75328;245.80057;11.50323;,
 23.75328;245.80057;11.50323;,
 18.60347;253.46980;11.50323;,
 18.60347;253.46980;11.50323;,
 -27.45001;201.04986;-13.24577;,
 -30.21517;201.57600;-13.24577;,
 -28.96613;203.50052;-13.24577;,
 -26.20075;202.97410;-13.24577;,
 -32.67284;202.26668;-13.24577;,
 -32.03877;204.28338;-13.24577;,
 -38.60300;203.55017;-13.24577;,
 -37.96891;205.56670;-13.24577;,
 -46.02630;206.44441;-13.24577;,
 -42.59439;207.14497;-13.24577;,
 -47.01488;209.34429;-13.24577;,
 -43.37661;209.16577;-13.24577;,
 -44.38698;212.12229;-13.24577;,
 -40.95486;211.42178;-13.24577;,
 -40.75418;214.17805;-13.24577;,
 -38.40662;212.60943;-13.24577;,
 -35.67485;215.73711;-13.24577;,
 -35.67485;213.68936;-13.24577;,
 -28.33735;217.15142;-13.24577;,
 -28.33735;215.10369;-13.24577;,
 -20.49132;218.05923;-13.24577;,
 -20.49132;216.01114;-13.24577;,
 -20.49132;218.05923;-13.20979;,
 -28.33735;217.15142;-13.20979;,
 -28.33735;215.10369;-13.20979;,
 -20.49132;216.01114;-13.20979;,
 -35.67485;215.73711;-13.20979;,
 -35.67485;213.68936;-13.20979;,
 -40.75418;214.17805;-13.20979;,
 -38.40662;212.60943;-13.20979;,
 -44.38698;212.12229;-13.20979;,
 -40.95486;211.42178;-13.20979;,
 -47.01488;209.34429;-13.20979;,
 -43.37661;209.16577;-13.20979;,
 -46.02630;206.44441;-13.20979;,
 -42.59439;207.14497;-13.20979;,
 -38.60300;203.55017;-13.20979;,
 -37.96891;205.56670;-13.20979;,
 -32.67284;202.26668;-13.20979;,
 -32.03877;204.28338;-13.20979;,
 -30.21517;201.57600;-13.20979;,
 -28.96613;203.50052;-13.20979;,
 -27.45001;201.04986;-13.20979;,
 -26.20075;202.97410;-13.20979;,
 -13.32336;218.31739;-13.20979;,
 -13.32336;218.31739;-13.24577;,
 -12.85340;216.82283;-13.24577;,
 -12.85340;216.82283;-13.20979;,
 -9.19958;217.95894;-13.41472;,
 -20.49132;217.10359;-13.24577;,
 -13.32336;217.36101;-13.20979;,
 -20.49132;217.10010;-13.20979;,
 -8.73146;196.24280;-13.24577;,
 -10.49495;196.24104;-13.24577;,
 -9.31319;198.51695;-13.24577;,
 -7.54975;198.51875;-13.24577;,
 -12.02246;196.47394;-13.24577;,
 -11.23733;198.72359;-13.24577;,
 -15.77663;196.63352;-13.24577;,
 -14.99128;198.88340;-13.24577;,
 -20.24640;198.18833;-13.24577;,
 -17.81672;199.61475;-13.24577;,
 -20.39397;201.04119;-13.24577;,
 -17.98199;201.58472;-13.24577;,
 -18.13399;204.49243;-13.24577;,
 -15.95368;204.44483;-13.24577;,
 -15.32789;207.38601;-13.24577;,
 -14.03070;206.20652;-13.24577;,
 -11.63902;210.04678;-13.24577;,
 -12.00387;207.89170;-13.24577;,
 -6.45897;213.00906;-13.24577;,
 -6.82398;210.85393;-13.24577;,
 -1.02807;215.54055;-13.24577;,
 -1.39287;213.38543;-13.24577;,
 -1.02807;215.54055;-13.20979;,
 -6.45897;213.00906;-13.20979;,
 -6.82398;210.85393;-13.20979;,
 -1.39287;213.38543;-13.20979;,
 -11.63902;210.04678;-13.20979;,
 -12.00387;207.89170;-13.20979;,
 -15.32789;207.38601;-13.20979;,
 -14.03070;206.20652;-13.20979;,
 -18.13399;204.49243;-13.20979;,
 -15.95368;204.44483;-13.20979;,
 -20.39397;201.04119;-13.20979;,
 -17.98199;201.58472;-13.20979;,
 -20.24640;198.18833;-13.20979;,
 -17.81672;199.61475;-13.20979;,
 -15.77663;196.63352;-13.20979;,
 -14.99128;198.88340;-13.20979;,
 -12.02246;196.47394;-13.20979;,
 -11.23733;198.72359;-13.20979;,
 -10.49495;196.24104;-13.20979;,
 -9.31319;198.51695;-13.20979;,
 -8.73146;196.24280;-13.20979;,
 -7.54975;198.51875;-13.20979;,
 3.83200;217.25225;-13.20979;,
 3.83200;217.25225;-13.24577;,
 3.88143;215.77395;-13.24577;,
 3.88143;215.77395;-13.20979;,
 6.53760;217.70327;-13.41472;,
 -1.19828;214.53477;-13.24577;,
 3.66157;216.24561;-13.20979;,
 -1.19903;214.53094;-13.20979;,
 -7.49830;198.59444;-13.24577;,
 -5.73465;198.59617;-13.24577;,
 -6.91636;196.32017;-13.24577;,
 -8.67985;196.31856;-13.24577;,
 -4.20730;198.36314;-13.24577;,
 -4.99247;196.11338;-13.24577;,
 -0.45314;198.20335;-13.24577;,
 -1.23831;195.95358;-13.24577;,
 4.01664;196.64860;-13.24577;,
 1.58696;195.22246;-13.24577;,
 4.16419;193.79568;-13.24577;,
 1.75224;193.25251;-13.24577;,
 1.90440;190.34463;-13.24577;,
 -0.27587;190.39212;-13.24577;,
 -0.90171;187.45113;-13.24577;,
 -2.19890;188.63057;-13.24577;,
 -4.59057;184.79047;-13.24577;,
 -4.22589;186.94534;-13.24577;,
 -9.77042;181.82819;-13.24577;,
 -9.40562;183.98329;-13.24577;,
 -15.20169;179.29658;-13.24577;,
 -14.83690;181.45168;-13.24577;,
 -15.20169;179.29658;-13.20979;,
 -9.77042;181.82819;-13.20979;,
 -9.40562;183.98329;-13.20979;,
 -14.83690;181.45168;-13.20979;,
 -4.59057;184.79047;-13.20979;,
 -4.22589;186.94534;-13.20979;,
 -0.90171;187.45113;-13.20979;,
 -2.19890;188.63057;-13.20979;,
 1.90440;190.34463;-13.20979;,
 -0.27587;190.39212;-13.20979;,
 4.16419;193.79568;-13.20979;,
 1.75224;193.25251;-13.20979;,
 4.01664;196.64860;-13.20979;,
 1.58696;195.22246;-13.20979;,
 -0.45314;198.20335;-13.20979;,
 -1.23831;195.95358;-13.20979;,
 -4.20730;198.36314;-13.20979;,
 -4.99247;196.11338;-13.20979;,
 -5.73465;198.59617;-13.20979;,
 -6.91636;196.32017;-13.20979;,
 -7.49830;198.59444;-13.20979;,
 -8.67985;196.31856;-13.20979;,
 -20.06176;177.58487;-13.20979;,
 -20.06176;177.58487;-13.24577;,
 -20.11120;179.06311;-13.24577;,
 -20.11120;179.06311;-13.20979;,
 -22.76735;177.13384;-13.41472;,
 -15.03148;180.30222;-13.24577;,
 -19.89116;178.59156;-13.20979;,
 -15.03073;180.30617;-13.20979;,
 -1.79403;203.29285;-13.24577;,
 9.15964;204.07945;-13.24577;,
 9.15964;201.47752;-13.24577;,
 -0.60769;200.70103;-13.24577;,
 19.21063;204.38228;-13.24577;,
 18.68333;201.82029;-13.24577;,
 24.14152;203.68147;-13.24577;,
 23.61422;201.11907;-13.24577;,
 30.31388;200.00423;-13.24577;,
 27.46022;199.11443;-13.24577;,
 31.13597;196.32002;-13.24577;,
 28.11072;196.54661;-13.24577;,
 28.95067;192.79090;-13.24577;,
 26.09700;193.68087;-13.24577;,
 25.93023;190.17884;-13.24577;,
 23.97811;192.17191;-13.24577;,
 23.00037;189.09870;-13.24577;,
 23.00037;191.70055;-13.24577;,
 19.89508;187.97825;-13.24577;,
 19.89508;190.58012;-13.24577;,
 15.33643;186.82486;-13.24577;,
 15.33643;189.42660;-13.24577;,
 15.33643;186.82486;-13.20979;,
 19.89508;187.97825;-13.20979;,
 19.89508;190.58012;-13.20979;,
 15.33643;189.42660;-13.20979;,
 23.00037;189.09870;-13.20979;,
 23.00037;191.70055;-13.20979;,
 25.93023;190.17884;-13.20979;,
 23.97811;192.17191;-13.20979;,
 28.95067;192.79090;-13.20979;,
 26.09700;193.68087;-13.20979;,
 31.13597;196.32002;-13.20979;,
 28.11072;196.54661;-13.20979;,
 30.31388;200.00423;-13.20979;,
 27.46022;199.11443;-13.20979;,
 24.14152;203.68147;-13.20979;,
 23.61422;201.11907;-13.20979;,
 19.21063;204.38228;-13.20979;,
 18.68333;201.82029;-13.20979;,
 9.15964;204.07945;-13.20979;,
 9.15964;201.47752;-13.20979;,
 -1.79403;203.29285;-13.20979;,
 -0.60769;200.70103;-13.20979;,
 12.67882;186.39680;-13.20224;,
 12.67882;186.39680;-13.23840;,
 12.28779;188.29582;-13.23840;,
 12.28779;188.29582;-13.20224;,
 9.24983;186.85252;-13.40717;,
 15.33643;188.03907;-13.24577;,
 12.67882;187.61216;-13.20224;,
 15.33643;188.04363;-13.20979;,
 33.10765;199.02207;11.56577;,
 35.87299;199.54837;11.56577;,
 34.62381;201.47261;11.56577;,
 31.85862;200.94632;11.56577;,
 38.33056;200.23907;11.56577;,
 37.69640;202.25557;11.56577;,
 44.26089;201.52239;11.56577;,
 43.62662;203.53909;11.56577;,
 51.68412;204.41665;11.56577;,
 48.25201;205.11712;11.56577;,
 52.67253;207.31670;11.56577;,
 49.03430;207.13821;11.56577;,
 50.04466;210.09431;11.56577;,
 46.61255;209.39378;11.56577;,
 46.41183;212.15037;11.56577;,
 44.06426;210.58172;11.56577;,
 41.33249;213.70943;11.56577;,
 41.33249;211.66140;11.56577;,
 33.99504;215.12364;11.56577;,
 33.99504;213.07566;11.56577;,
 26.14901;216.03147;11.56577;,
 26.14901;213.98352;11.56577;,
 26.14901;216.03147;11.52962;,
 33.99504;215.12364;11.52962;,
 33.99504;213.07566;11.52962;,
 26.14901;213.98352;11.52962;,
 41.33249;213.70943;11.52962;,
 41.33249;211.66140;11.52962;,
 46.41183;212.15037;11.52962;,
 44.06426;210.58172;11.52962;,
 50.04466;210.09431;11.52962;,
 46.61255;209.39378;11.52962;,
 52.67253;207.31670;11.52962;,
 49.03430;207.13821;11.52962;,
 51.68412;204.41665;11.52962;,
 48.25201;205.11712;11.52962;,
 44.26089;201.52239;11.52962;,
 43.62662;203.53909;11.52962;,
 38.33056;200.23907;11.52962;,
 37.69640;202.25557;11.52962;,
 35.87299;199.54837;11.52962;,
 34.62381;201.47261;11.52962;,
 33.10765;199.02207;11.52962;,
 31.85862;200.94632;11.52962;,
 18.98101;216.28987;11.52962;,
 18.98101;216.28987;11.56577;,
 18.51105;214.79519;11.56577;,
 18.51105;214.79519;11.52962;,
 14.85723;215.93128;11.73455;,
 26.14901;215.07588;11.56577;,
 18.98101;215.33316;11.52962;,
 26.14901;215.07222;11.52962;,
 14.38912;194.21499;11.56577;,
 16.15260;194.21325;11.56577;,
 14.97106;196.48918;11.56577;,
 13.20740;196.49086;11.56577;,
 17.68017;194.44622;11.56577;,
 16.89499;196.69580;11.56577;,
 21.43429;194.60579;11.56577;,
 20.64910;196.85563;11.56577;,
 25.90407;196.16062;11.56577;,
 23.47459;197.58700;11.56577;,
 26.05160;199.01326;11.56577;,
 23.63966;199.55672;11.56577;,
 23.79181;202.46470;11.56577;,
 21.61155;202.41707;11.56577;,
 20.98554;205.35811;11.56577;,
 19.68855;204.17864;11.56577;,
 17.29668;208.01890;11.56577;,
 17.66151;205.86370;11.56577;,
 12.11679;210.98128;11.56577;,
 12.48163;208.82605;11.56577;,
 6.68572;213.51280;11.56577;,
 7.05052;211.35743;11.56577;,
 6.68572;213.51280;11.52962;,
 12.11679;210.98128;11.52962;,
 12.48163;208.82605;11.52962;,
 7.05052;211.35743;11.52962;,
 17.29668;208.01890;11.52962;,
 17.66151;205.86370;11.52962;,
 20.98554;205.35811;11.52962;,
 19.68855;204.17864;11.52962;,
 23.79181;202.46470;11.52962;,
 21.61155;202.41707;11.52962;,
 26.05160;199.01326;11.52962;,
 23.63966;199.55672;11.52962;,
 25.90407;196.16062;11.52962;,
 23.47459;197.58700;11.52962;,
 21.43429;194.60579;11.52962;,
 20.64910;196.85563;11.52962;,
 17.68017;194.44622;11.52962;,
 16.89499;196.69580;11.52962;,
 16.15260;194.21325;11.52962;,
 14.97106;196.48918;11.52962;,
 14.38912;194.21499;11.52962;,
 13.20740;196.49086;11.52962;,
 1.82566;215.22447;11.52962;,
 1.82566;215.22447;11.56577;,
 1.77623;213.74615;11.56577;,
 1.77623;213.74615;11.52962;,
 -0.87994;215.67547;11.73455;,
 6.85594;212.50701;11.56577;,
 1.99608;214.21785;11.52962;,
 6.85668;212.50325;11.52962;,
 13.15595;196.56660;11.56577;,
 11.39230;196.56839;11.56577;,
 12.57402;194.29242;11.56577;,
 14.33750;194.29074;11.56577;,
 9.86495;196.33521;11.56577;,
 10.65013;194.08561;11.56577;,
 6.11101;196.17556;11.56577;,
 6.89597;193.92592;11.56577;,
 1.64101;194.62090;11.56577;,
 4.07069;193.19456;11.56577;,
 1.49347;191.76793;11.56577;,
 3.90542;191.22480;11.56577;,
 3.75326;188.31682;11.56577;,
 5.93357;188.36439;11.56577;,
 6.55937;185.42327;11.56577;,
 7.85655;186.60276;11.56577;,
 10.24822;182.76282;11.56577;,
 9.88359;184.91763;11.56577;,
 15.42812;179.80055;11.56577;,
 15.06327;181.95542;11.56577;,
 20.85939;177.26870;11.56577;,
 20.49455;179.42403;11.56577;,
 20.85939;177.26870;11.52962;,
 15.42812;179.80055;11.52962;,
 15.06327;181.95542;11.52962;,
 20.49455;179.42403;11.52962;,
 10.24822;182.76282;11.52962;,
 9.88359;184.91763;11.52962;,
 6.55937;185.42327;11.52962;,
 7.85655;186.60276;11.52962;,
 3.75326;188.31682;11.52962;,
 5.93357;188.36439;11.52962;,
 1.49347;191.76793;11.52962;,
 3.90542;191.22480;11.52962;,
 1.64101;194.62090;11.52962;,
 4.07069;193.19456;11.52962;,
 6.11101;196.17556;11.52962;,
 6.89597;193.92592;11.52962;,
 9.86495;196.33521;11.52962;,
 10.65013;194.08561;11.52962;,
 11.39230;196.56839;11.52962;,
 12.57402;194.29242;11.52962;,
 13.15595;196.56660;11.52962;,
 14.33750;194.29074;11.52962;,
 25.71947;175.55711;11.52962;,
 25.71947;175.55711;11.56577;,
 25.76887;177.03549;11.56577;,
 25.76887;177.03549;11.52962;,
 28.42502;175.10615;11.73455;,
 20.68914;178.27447;11.56577;,
 25.54882;176.56380;11.52962;,
 20.68840;178.27847;11.52962;,
 7.45169;201.26507;11.56577;,
 -3.50198;202.05154;11.56577;,
 -3.50198;199.44973;11.56577;,
 6.26535;198.67315;11.56577;,
 -13.55298;202.35452;11.56577;,
 -13.02567;199.79243;11.56577;,
 -18.48387;201.65393;11.56577;,
 -17.95656;199.09141;11.56577;,
 -24.65626;197.97652;11.56577;,
 -21.80252;197.08676;11.56577;,
 -25.47813;194.29200;11.56577;,
 -22.45305;194.51873;11.56577;,
 -23.29302;190.76314;11.56577;,
 -20.43935;191.65282;11.56577;,
 -20.27243;188.15104;11.56577;,
 -18.32046;190.14396;11.56577;,
 -17.34273;187.07084;11.56577;,
 -17.34273;189.67277;11.56577;,
 -14.23744;185.95064;11.56577;,
 -14.23744;188.55237;11.56577;,
 -9.67878;184.79710;11.56577;,
 -9.67878;187.39893;11.56577;,
 -9.67878;184.79710;11.52962;,
 -14.23744;185.95064;11.52962;,
 -14.23744;188.55237;11.52962;,
 -9.67878;187.39893;11.52962;,
 -17.34273;187.07084;11.52962;,
 -17.34273;189.67277;11.52962;,
 -20.27243;188.15104;11.52962;,
 -18.32046;190.14396;11.52962;,
 -23.29302;190.76314;11.52962;,
 -20.43935;191.65282;11.52962;,
 -25.47813;194.29200;11.52962;,
 -22.45305;194.51873;11.52962;,
 -24.65626;197.97652;11.52962;,
 -21.80252;197.08676;11.52962;,
 -18.48387;201.65393;11.52962;,
 -17.95656;199.09141;11.52962;,
 -13.55298;202.35452;11.52962;,
 -13.02567;199.79243;11.52962;,
 -3.50198;202.05154;11.52962;,
 -3.50198;199.44973;11.52962;,
 7.45169;201.26507;11.52962;,
 6.26535;198.67315;11.52962;,
 -7.02095;184.36907;11.52224;,
 -7.02095;184.36907;11.55819;,
 -6.63014;186.26778;11.55819;,
 -6.63014;186.26778;11.52224;,
 -3.59218;184.82459;11.72717;,
 -9.67878;186.01127;11.56577;,
 -7.02095;185.58432;11.52224;,
 -9.67878;186.01596;11.52962;;
 
 888;
 3;0,1,2;,
 3;2,1,3;,
 3;3,1,4;,
 3;4,1,5;,
 3;5,1,6;,
 3;6,1,7;,
 3;7,1,8;,
 3;8,1,0;,
 3;9,0,2;,
 3;9,2,3;,
 3;9,3,4;,
 3;9,4,5;,
 3;9,5,6;,
 3;9,6,7;,
 3;9,7,8;,
 3;9,8,0;,
 4;10,11,12,13;,
 4;11,14,15,12;,
 4;14,16,17,15;,
 4;16,18,19,17;,
 4;18,20,21,19;,
 4;20,22,23,21;,
 4;22,24,25,23;,
 4;24,10,13,25;,
 3;26,11,10;,
 3;26,14,11;,
 3;26,16,14;,
 3;26,18,16;,
 3;26,20,18;,
 3;26,22,20;,
 3;26,24,22;,
 3;26,10,24;,
 3;27,13,12;,
 3;27,12,15;,
 3;27,15,17;,
 3;27,17,19;,
 3;27,19,21;,
 3;27,21,23;,
 3;27,23,25;,
 3;27,25,13;,
 4;28,29,30,31;,
 4;29,32,33,30;,
 4;32,34,35,33;,
 4;34,28,31,35;,
 3;36,37,38;,
 3;39,40,41;,
 4;39,41,42,43;,
 3;44,45,46;,
 4;44,46,47,36;,
 3;44,36,38;,
 3;48,43,49;,
 3;50,47,51;,
 3;52,53,54;,
 4;52,54,43,55;,
 3;56,57,58;,
 4;56,58,59,47;,
 3;60,61,62;,
 4;60,62,63,43;,
 3;64,65,66;,
 4;64,66,47,67;,
 4;68,28,34,69;,
 3;70,53,55;,
 4;71,29,28,72;,
 4;73,74,65,67;,
 3;75,29,76;,
 3;77,68,78;,
 4;77,78,69,42;,
 3;77,42,40;,
 3;79,80,81;,
 4;79,81,45,37;,
 4;82,30,33,83;,
 3;84,71,85;,
 4;84,85,72,63;,
 3;84,63,61;,
 3;86,30,87;,
 4;86,87,74,73;,
 3;86,73,31;,
 4;88,48,49,89;,
 4;88,89,75,76;,
 3;89,49,90;,
 4;91,33,35,92;,
 3;93,35,94;,
 4;93,94,31,80;,
 3;93,80,95;,
 3;96,70,97;,
 4;96,98,53,70;,
 3;99,95,100;,
 4;99,100,79,37;,
 3;101,83,102;,
 4;101,102,50,51;,
 3;101,51,82;,
 3;103,32,104;,
 4;103,104,75,89;,
 3;103,89,90;,
 4;105,59,57,106;,
 4;105,106,91,92;,
 4;107,34,108,109;,
 4;107,109,96,97;,
 4;109,108,32,110;,
 4;109,110,98,96;,
 4;111,112,113,114;,
 4;112,115,116,113;,
 4;115,117,118,116;,
 4;117,119,120,118;,
 4;119,121,122,120;,
 4;121,123,124,122;,
 4;123,125,126,124;,
 4;125,127,128,126;,
 4;127,129,130,128;,
 4;129,131,132,130;,
 4;131,111,114,132;,
 3;133,112,111;,
 3;133,115,112;,
 3;133,117,115;,
 3;133,119,117;,
 3;133,121,119;,
 3;133,123,121;,
 3;133,125,123;,
 3;133,127,125;,
 3;133,129,127;,
 3;133,131,129;,
 3;133,111,131;,
 3;134,114,113;,
 3;134,113,116;,
 3;134,116,118;,
 3;134,118,120;,
 3;134,120,122;,
 3;134,122,124;,
 3;134,124,126;,
 3;134,126,128;,
 3;134,128,130;,
 3;134,130,132;,
 3;134,132,114;,
 4;135,136,137,138;,
 4;136,139,140,137;,
 4;139,141,142,140;,
 4;141,143,144,142;,
 4;143,145,146,144;,
 4;145,147,148,146;,
 4;147,149,150,148;,
 4;149,151,152,150;,
 4;151,153,154,152;,
 4;153,155,156,154;,
 4;155,135,138,156;,
 3;157,136,135;,
 3;157,139,136;,
 3;157,141,139;,
 3;157,143,141;,
 3;157,145,143;,
 3;157,147,145;,
 3;157,149,147;,
 3;157,151,149;,
 3;157,153,151;,
 3;157,155,153;,
 3;157,135,155;,
 3;158,138,137;,
 3;158,137,140;,
 3;158,140,142;,
 3;158,142,144;,
 3;158,144,146;,
 3;158,146,148;,
 3;158,148,150;,
 3;158,150,152;,
 3;158,152,154;,
 3;158,154,156;,
 3;158,156,138;,
 4;159,160,161,162;,
 4;160,163,164,161;,
 4;163,165,166,164;,
 4;165,167,168,166;,
 4;167,169,170,168;,
 4;169,171,172,170;,
 4;171,173,174,172;,
 4;173,175,176,174;,
 4;175,177,178,176;,
 4;177,179,180,178;,
 4;179,159,162,180;,
 3;181,160,159;,
 3;181,163,160;,
 3;181,165,163;,
 3;181,167,165;,
 3;181,169,167;,
 3;181,171,169;,
 3;181,173,171;,
 3;181,175,173;,
 3;181,177,175;,
 3;181,179,177;,
 3;181,159,179;,
 3;182,162,161;,
 3;182,161,164;,
 3;182,164,166;,
 3;182,166,168;,
 3;182,168,170;,
 3;182,170,172;,
 3;182,172,174;,
 3;182,174,176;,
 3;182,176,178;,
 3;182,178,180;,
 3;182,180,162;,
 4;183,184,185,186;,
 4;184,187,188,185;,
 4;187,189,190,188;,
 4;189,191,192,190;,
 4;191,193,194,192;,
 4;193,195,196,194;,
 4;195,197,198,196;,
 4;197,199,200,198;,
 4;199,201,202,200;,
 4;201,203,204,202;,
 4;203,183,186,204;,
 3;205,184,183;,
 3;205,187,184;,
 3;205,189,187;,
 3;205,191,189;,
 3;205,193,191;,
 3;205,195,193;,
 3;205,197,195;,
 3;205,199,197;,
 3;205,201,199;,
 3;205,203,201;,
 3;205,183,203;,
 3;206,186,185;,
 3;206,185,188;,
 3;206,188,190;,
 3;206,190,192;,
 3;206,192,194;,
 3;206,194,196;,
 3;206,196,198;,
 3;206,198,200;,
 3;206,200,202;,
 3;206,202,204;,
 3;206,204,186;,
 4;207,208,209,210;,
 4;208,211,212,209;,
 4;211,213,214,212;,
 4;213,215,216,214;,
 4;215,217,218,216;,
 4;217,219,220,218;,
 4;219,221,222,220;,
 4;221,223,224,222;,
 4;223,225,226,224;,
 4;225,227,228,226;,
 4;227,207,210,228;,
 3;229,208,207;,
 3;229,211,208;,
 3;229,213,211;,
 3;229,215,213;,
 3;229,217,215;,
 3;229,219,217;,
 3;229,221,219;,
 3;229,223,221;,
 3;229,225,223;,
 3;229,227,225;,
 3;229,207,227;,
 3;230,210,209;,
 3;230,209,212;,
 3;230,212,214;,
 3;230,214,216;,
 3;230,216,218;,
 3;230,218,220;,
 3;230,220,222;,
 3;230,222,224;,
 3;230,224,226;,
 3;230,226,228;,
 3;230,228,210;,
 4;231,232,233,234;,
 4;232,235,236,233;,
 4;235,237,238,236;,
 4;237,239,240,238;,
 4;239,241,242,240;,
 4;241,243,244,242;,
 4;243,245,246,244;,
 4;245,247,248,246;,
 4;247,249,250,248;,
 4;249,251,252,250;,
 4;251,231,234,252;,
 3;253,232,231;,
 3;253,235,232;,
 3;253,237,235;,
 3;253,239,237;,
 3;253,241,239;,
 3;253,243,241;,
 3;253,245,243;,
 3;253,247,245;,
 3;253,249,247;,
 3;253,251,249;,
 3;253,231,251;,
 3;254,234,233;,
 3;254,233,236;,
 3;254,236,238;,
 3;254,238,240;,
 3;254,240,242;,
 3;254,242,244;,
 3;254,244,246;,
 3;254,246,248;,
 3;254,248,250;,
 3;254,250,252;,
 3;254,252,234;,
 4;255,256,257,258;,
 4;256,259,260,257;,
 4;259,261,262,260;,
 4;261,263,264,262;,
 4;263,265,266,264;,
 4;265,267,268,266;,
 4;267,269,270,268;,
 4;269,271,272,270;,
 4;271,273,274,272;,
 4;273,275,276,274;,
 4;275,255,258,276;,
 3;277,256,255;,
 3;277,259,256;,
 3;277,261,259;,
 3;277,263,261;,
 3;277,265,263;,
 3;277,267,265;,
 3;277,269,267;,
 3;277,271,269;,
 3;277,273,271;,
 3;277,275,273;,
 3;277,255,275;,
 3;278,258,257;,
 3;278,257,260;,
 3;278,260,262;,
 3;278,262,264;,
 3;278,264,266;,
 3;278,266,268;,
 3;278,268,270;,
 3;278,270,272;,
 3;278,272,274;,
 3;278,274,276;,
 3;278,276,258;,
 4;279,280,281,282;,
 4;280,283,284,281;,
 4;283,285,286,284;,
 4;285,287,288,286;,
 4;287,289,290,288;,
 4;289,291,292,290;,
 4;291,293,294,292;,
 4;293,295,296,294;,
 4;295,297,298,296;,
 4;297,299,300,298;,
 4;299,279,282,300;,
 3;301,280,279;,
 3;301,283,280;,
 3;301,285,283;,
 3;301,287,285;,
 3;301,289,287;,
 3;301,291,289;,
 3;301,293,291;,
 3;301,295,293;,
 3;301,297,295;,
 3;301,299,297;,
 3;301,279,299;,
 3;302,282,281;,
 3;302,281,284;,
 3;302,284,286;,
 3;302,286,288;,
 3;302,288,290;,
 3;302,290,292;,
 3;302,292,294;,
 3;302,294,296;,
 3;302,296,298;,
 3;302,298,300;,
 3;302,300,282;,
 4;303,304,305,306;,
 4;304,307,308,305;,
 4;307,309,310,308;,
 4;309,311,312,310;,
 4;311,313,314,312;,
 4;313,315,316,314;,
 4;315,317,318,316;,
 4;317,319,320,318;,
 4;319,321,322,320;,
 4;321,323,324,322;,
 4;323,303,306,324;,
 3;325,304,303;,
 3;325,307,304;,
 3;325,309,307;,
 3;325,311,309;,
 3;325,313,311;,
 3;325,315,313;,
 3;325,317,315;,
 3;325,319,317;,
 3;325,321,319;,
 3;325,323,321;,
 3;325,303,323;,
 3;326,306,305;,
 3;326,305,308;,
 3;326,308,310;,
 3;326,310,312;,
 3;326,312,314;,
 3;326,314,316;,
 3;326,316,318;,
 3;326,318,320;,
 3;326,320,322;,
 3;326,322,324;,
 3;326,324,306;,
 4;327,328,329,330;,
 4;328,331,332,329;,
 4;331,333,334,332;,
 4;333,335,336,334;,
 4;335,337,338,336;,
 4;337,339,340,338;,
 4;339,341,342,340;,
 4;341,343,344,342;,
 4;343,345,346,344;,
 4;345,347,348,346;,
 4;347,327,330,348;,
 3;349,328,327;,
 3;349,331,328;,
 3;349,333,331;,
 3;349,335,333;,
 3;349,337,335;,
 3;349,339,337;,
 3;349,341,339;,
 3;349,343,341;,
 3;349,345,343;,
 3;349,347,345;,
 3;349,327,347;,
 3;350,330,329;,
 3;350,329,332;,
 3;350,332,334;,
 3;350,334,336;,
 3;350,336,338;,
 3;350,338,340;,
 3;350,340,342;,
 3;350,342,344;,
 3;350,344,346;,
 3;350,346,348;,
 3;350,348,330;,
 4;351,352,353,354;,
 4;352,355,356,353;,
 4;355,357,358,356;,
 4;357,359,360,358;,
 4;359,361,362,360;,
 4;361,363,364,362;,
 4;363,365,366,364;,
 4;365,367,368,366;,
 4;367,369,370,368;,
 4;369,371,372,370;,
 4;371,351,354,372;,
 3;373,352,351;,
 3;373,355,352;,
 3;373,357,355;,
 3;373,359,357;,
 3;373,361,359;,
 3;373,363,361;,
 3;373,365,363;,
 3;373,367,365;,
 3;373,369,367;,
 3;373,371,369;,
 3;373,351,371;,
 3;374,354,353;,
 3;374,353,356;,
 3;374,356,358;,
 3;374,358,360;,
 3;374,360,362;,
 3;374,362,364;,
 3;374,364,366;,
 3;374,366,368;,
 3;374,368,370;,
 3;374,370,372;,
 3;374,372,354;,
 4;375,376,377,378;,
 4;376,379,380,377;,
 4;379,381,382,380;,
 4;381,383,384,382;,
 4;383,385,386,384;,
 4;385,387,388,386;,
 4;387,389,390,388;,
 4;389,391,392,390;,
 4;391,393,394,392;,
 4;393,395,396,394;,
 4;395,375,378,396;,
 3;397,376,375;,
 3;397,379,376;,
 3;397,381,379;,
 3;397,383,381;,
 3;397,385,383;,
 3;397,387,385;,
 3;397,389,387;,
 3;397,391,389;,
 3;397,393,391;,
 3;397,395,393;,
 3;397,375,395;,
 3;398,378,377;,
 3;398,377,380;,
 3;398,380,382;,
 3;398,382,384;,
 3;398,384,386;,
 3;398,386,388;,
 3;398,388,390;,
 3;398,390,392;,
 3;398,392,394;,
 3;398,394,396;,
 3;398,396,378;,
 4;399,400,401,402;,
 4;400,403,404,401;,
 4;403,405,406,404;,
 4;405,407,408,406;,
 4;407,409,410,408;,
 4;409,411,412,410;,
 4;411,413,414,412;,
 4;413,415,416,414;,
 4;415,417,418,416;,
 4;417,419,420,418;,
 4;421,422,423,424;,
 4;422,425,426,423;,
 4;425,427,428,426;,
 4;427,429,430,428;,
 4;429,431,432,430;,
 4;431,433,434,432;,
 4;433,435,436,434;,
 4;435,437,438,436;,
 4;437,439,440,438;,
 4;439,441,442,440;,
 4;441,399,402,442;,
 4;441,439,400,399;,
 4;439,437,403,400;,
 4;437,435,405,403;,
 4;435,433,407,405;,
 4;433,431,409,407;,
 4;431,429,411,409;,
 4;429,427,413,411;,
 4;427,425,415,413;,
 4;425,422,417,415;,
 4;422,421,419,417;,
 4;421,443,444,419;,
 4;402,401,440,442;,
 4;401,404,438,440;,
 4;404,406,436,438;,
 4;406,408,434,436;,
 4;408,410,432,434;,
 4;410,412,430,432;,
 4;412,414,428,430;,
 4;414,416,426,428;,
 4;416,418,423,426;,
 4;418,420,424,423;,
 4;420,445,446,424;,
 4;447,445,420,448;,
 4;447,448,419,444;,
 4;449,446,445,447;,
 4;449,447,444,443;,
 4;450,424,446,449;,
 4;450,449,443,421;,
 4;451,452,453,454;,
 4;452,455,456,453;,
 4;455,457,458,456;,
 4;457,459,460,458;,
 4;459,461,462,460;,
 4;461,463,464,462;,
 4;463,465,466,464;,
 4;465,467,468,466;,
 4;467,469,470,468;,
 4;469,471,472,470;,
 4;473,474,475,476;,
 4;474,477,478,475;,
 4;477,479,480,478;,
 4;479,481,482,480;,
 4;481,483,484,482;,
 4;483,485,486,484;,
 4;485,487,488,486;,
 4;487,489,490,488;,
 4;489,491,492,490;,
 4;491,493,494,492;,
 4;493,451,454,494;,
 4;493,491,452,451;,
 4;491,489,455,452;,
 4;489,487,457,455;,
 4;487,485,459,457;,
 4;485,483,461,459;,
 4;483,481,463,461;,
 4;481,479,465,463;,
 4;479,477,467,465;,
 4;477,474,469,467;,
 4;474,473,471,469;,
 4;473,495,496,471;,
 4;454,453,492,494;,
 4;453,456,490,492;,
 4;456,458,488,490;,
 4;458,460,486,488;,
 4;460,462,484,486;,
 4;462,464,482,484;,
 4;464,466,480,482;,
 4;466,468,478,480;,
 4;468,470,475,478;,
 4;470,472,476,475;,
 4;472,497,498,476;,
 4;499,497,472,500;,
 4;499,500,471,496;,
 4;501,498,497,499;,
 4;501,499,496,495;,
 4;502,476,498,501;,
 4;502,501,495,473;,
 4;503,504,505,506;,
 4;504,507,508,505;,
 4;507,509,510,508;,
 4;509,511,512,510;,
 4;511,513,514,512;,
 4;513,515,516,514;,
 4;515,517,518,516;,
 4;517,519,520,518;,
 4;519,521,522,520;,
 4;521,523,524,522;,
 4;525,526,527,528;,
 4;526,529,530,527;,
 4;529,531,532,530;,
 4;531,533,534,532;,
 4;533,535,536,534;,
 4;535,537,538,536;,
 4;537,539,540,538;,
 4;539,541,542,540;,
 4;541,543,544,542;,
 4;543,545,546,544;,
 4;545,503,506,546;,
 4;545,543,504,503;,
 4;543,541,507,504;,
 4;541,539,509,507;,
 4;539,537,511,509;,
 4;537,535,513,511;,
 4;535,533,515,513;,
 4;533,531,517,515;,
 4;531,529,519,517;,
 4;529,526,521,519;,
 4;526,525,523,521;,
 4;525,547,548,523;,
 4;506,505,544,546;,
 4;505,508,542,544;,
 4;508,510,540,542;,
 4;510,512,538,540;,
 4;512,514,536,538;,
 4;514,516,534,536;,
 4;516,518,532,534;,
 4;518,520,530,532;,
 4;520,522,527,530;,
 4;522,524,528,527;,
 4;524,549,550,528;,
 4;551,549,524,552;,
 4;551,552,523,548;,
 4;553,550,549,551;,
 4;553,551,548,547;,
 4;554,528,550,553;,
 4;554,553,547,525;,
 4;555,556,557,558;,
 4;556,559,560,557;,
 4;559,561,562,560;,
 4;561,563,564,562;,
 4;563,565,566,564;,
 4;565,567,568,566;,
 4;567,569,570,568;,
 4;569,571,572,570;,
 4;571,573,574,572;,
 4;573,575,576,574;,
 4;577,578,579,580;,
 4;578,581,582,579;,
 4;581,583,584,582;,
 4;583,585,586,584;,
 4;585,587,588,586;,
 4;587,589,590,588;,
 4;589,591,592,590;,
 4;591,593,594,592;,
 4;593,595,596,594;,
 4;595,597,598,596;,
 4;597,555,558,598;,
 4;597,595,556,555;,
 4;595,593,559,556;,
 4;593,591,561,559;,
 4;591,589,563,561;,
 4;589,587,565,563;,
 4;587,585,567,565;,
 4;585,583,569,567;,
 4;583,581,571,569;,
 4;581,578,573,571;,
 4;578,577,575,573;,
 4;577,599,600,575;,
 4;558,557,596,598;,
 4;557,560,594,596;,
 4;560,562,592,594;,
 4;562,564,590,592;,
 4;564,566,588,590;,
 4;566,568,586,588;,
 4;568,570,584,586;,
 4;570,572,582,584;,
 4;572,574,579,582;,
 4;574,576,580,579;,
 4;576,601,602,580;,
 4;603,601,576,604;,
 4;603,604,575,600;,
 4;605,602,601,603;,
 4;605,603,600,599;,
 4;606,580,602,605;,
 4;606,605,599,577;,
 4;607,608,609,610;,
 4;608,611,612,609;,
 4;611,613,614,612;,
 4;613,615,616,614;,
 4;615,617,618,616;,
 4;617,619,620,618;,
 4;619,621,622,620;,
 4;621,623,624,622;,
 4;623,625,626,624;,
 4;625,627,628,626;,
 4;629,630,631,632;,
 4;630,633,634,631;,
 4;633,635,636,634;,
 4;635,637,638,636;,
 4;637,639,640,638;,
 4;639,641,642,640;,
 4;641,643,644,642;,
 4;643,645,646,644;,
 4;645,647,648,646;,
 4;647,649,650,648;,
 4;649,607,610,650;,
 4;649,647,608,607;,
 4;647,645,611,608;,
 4;645,643,613,611;,
 4;643,641,615,613;,
 4;641,639,617,615;,
 4;639,637,619,617;,
 4;637,635,621,619;,
 4;635,633,623,621;,
 4;633,630,625,623;,
 4;630,629,627,625;,
 4;629,651,652,627;,
 4;610,609,648,650;,
 4;609,612,646,648;,
 4;612,614,644,646;,
 4;614,616,642,644;,
 4;616,618,640,642;,
 4;618,620,638,640;,
 4;620,622,636,638;,
 4;622,624,634,636;,
 4;624,626,631,634;,
 4;626,628,632,631;,
 4;628,653,654,632;,
 4;655,653,628,656;,
 4;655,656,627,652;,
 4;657,654,653,655;,
 4;657,655,652,651;,
 4;658,632,654,657;,
 4;658,657,651,629;,
 4;659,660,661,662;,
 4;660,663,664,661;,
 4;663,665,666,664;,
 4;665,667,668,666;,
 4;667,669,670,668;,
 4;669,671,672,670;,
 4;671,673,674,672;,
 4;673,675,676,674;,
 4;675,677,678,676;,
 4;677,679,680,678;,
 4;681,682,683,684;,
 4;682,685,686,683;,
 4;685,687,688,686;,
 4;687,689,690,688;,
 4;689,691,692,690;,
 4;691,693,694,692;,
 4;693,695,696,694;,
 4;695,697,698,696;,
 4;697,699,700,698;,
 4;699,701,702,700;,
 4;701,659,662,702;,
 4;701,699,660,659;,
 4;699,697,663,660;,
 4;697,695,665,663;,
 4;695,693,667,665;,
 4;693,691,669,667;,
 4;691,689,671,669;,
 4;689,687,673,671;,
 4;687,685,675,673;,
 4;685,682,677,675;,
 4;682,681,679,677;,
 4;681,703,704,679;,
 4;662,661,700,702;,
 4;661,664,698,700;,
 4;664,666,696,698;,
 4;666,668,694,696;,
 4;668,670,692,694;,
 4;670,672,690,692;,
 4;672,674,688,690;,
 4;674,676,686,688;,
 4;676,678,683,686;,
 4;678,680,684,683;,
 4;680,705,706,684;,
 4;707,705,680,708;,
 4;707,708,679,704;,
 4;709,706,705,707;,
 4;709,707,704,703;,
 4;710,684,706,709;,
 4;710,709,703,681;,
 4;711,712,713,714;,
 4;712,715,716,713;,
 4;715,717,718,716;,
 4;717,719,720,718;,
 4;719,721,722,720;,
 4;721,723,724,722;,
 4;723,725,726,724;,
 4;725,727,728,726;,
 4;727,729,730,728;,
 4;729,731,732,730;,
 4;733,734,735,736;,
 4;734,737,738,735;,
 4;737,739,740,738;,
 4;739,741,742,740;,
 4;741,743,744,742;,
 4;743,745,746,744;,
 4;745,747,748,746;,
 4;747,749,750,748;,
 4;749,751,752,750;,
 4;751,753,754,752;,
 4;753,711,714,754;,
 4;753,751,712,711;,
 4;751,749,715,712;,
 4;749,747,717,715;,
 4;747,745,719,717;,
 4;745,743,721,719;,
 4;743,741,723,721;,
 4;741,739,725,723;,
 4;739,737,727,725;,
 4;737,734,729,727;,
 4;734,733,731,729;,
 4;733,755,756,731;,
 4;714,713,752,754;,
 4;713,716,750,752;,
 4;716,718,748,750;,
 4;718,720,746,748;,
 4;720,722,744,746;,
 4;722,724,742,744;,
 4;724,726,740,742;,
 4;726,728,738,740;,
 4;728,730,735,738;,
 4;730,732,736,735;,
 4;732,757,758,736;,
 4;759,757,732,760;,
 4;759,760,731,756;,
 4;761,758,757,759;,
 4;761,759,756,755;,
 4;762,736,758,761;,
 4;762,761,755,733;,
 4;763,764,765,766;,
 4;764,767,768,765;,
 4;767,769,770,768;,
 4;769,771,772,770;,
 4;771,773,774,772;,
 4;773,775,776,774;,
 4;775,777,778,776;,
 4;777,779,780,778;,
 4;779,781,782,780;,
 4;781,783,784,782;,
 4;785,786,787,788;,
 4;786,789,790,787;,
 4;789,791,792,790;,
 4;791,793,794,792;,
 4;793,795,796,794;,
 4;795,797,798,796;,
 4;797,799,800,798;,
 4;799,801,802,800;,
 4;801,803,804,802;,
 4;803,805,806,804;,
 4;805,763,766,806;,
 4;805,803,764,763;,
 4;803,801,767,764;,
 4;801,799,769,767;,
 4;799,797,771,769;,
 4;797,795,773,771;,
 4;795,793,775,773;,
 4;793,791,777,775;,
 4;791,789,779,777;,
 4;789,786,781,779;,
 4;786,785,783,781;,
 4;785,807,808,783;,
 4;766,765,804,806;,
 4;765,768,802,804;,
 4;768,770,800,802;,
 4;770,772,798,800;,
 4;772,774,796,798;,
 4;774,776,794,796;,
 4;776,778,792,794;,
 4;778,780,790,792;,
 4;780,782,787,790;,
 4;782,784,788,787;,
 4;784,809,810,788;,
 4;811,809,784,812;,
 4;811,812,783,808;,
 4;813,810,809,811;,
 4;813,811,808,807;,
 4;814,788,810,813;,
 4;814,813,807,785;;
 
 MeshMaterialList {
  5;
  888;
  3,
  3,
  3,
  3,
  3,
  3,
  3,
  3,
  3,
  3,
  3,
  3,
  3,
  3,
  3,
  3,
  2,
  2,
  2,
  2,
  2,
  2,
  2,
  2,
  2,
  2,
  2,
  2,
  2,
  2,
  2,
  2,
  2,
  2,
  2,
  2,
  2,
  2,
  2,
  2,
  1,
  1,
  1,
  1,
  4,
  4,
  1,
  4,
  1,
  4,
  1,
  1,
  4,
  1,
  4,
  1,
  4,
  1,
  4,
  1,
  1,
  0,
  1,
  0,
  1,
  0,
  0,
  0,
  0,
  0,
  1,
  0,
  0,
  0,
  1,
  1,
  1,
  0,
  1,
  0,
  1,
  1,
  1,
  1,
  0,
  0,
  0,
  0,
  0,
  0,
  0,
  1,
  1,
  1,
  0,
  1,
  1,
  1,
  1,
  1,
  0,
  0,
  0,
  0,
  0,
  0,
  0,
  0,
  0,
  0,
  0,
  0,
  0,
  0,
  0,
  0,
  0,
  0,
  0,
  0,
  0,
  0,
  0,
  0,
  0,
  0,
  0,
  0,
  0,
  0,
  0,
  0,
  0,
  0,
  0,
  0,
  0,
  0,
  0,
  0,
  0,
  0,
  0,
  0,
  0,
  0,
  0,
  0,
  0,
  0,
  0,
  0,
  0,
  0,
  0,
  0,
  0,
  0,
  0,
  0,
  0,
  0,
  0,
  0,
  0,
  0,
  0,
  0,
  0,
  0,
  0,
  0,
  0,
  0,
  0,
  0,
  0,
  0,
  0,
  0,
  0,
  0,
  0,
  0,
  0,
  0,
  0,
  0,
  0,
  0,
  0,
  0,
  0,
  0,
  0,
  0,
  0,
  0,
  0,
  0,
  0,
  0,
  0,
  0,
  0,
  0,
  0,
  0,
  0,
  0,
  0,
  0,
  0,
  0,
  0,
  0,
  0,
  0,
  0,
  0,
  0,
  0,
  0,
  0,
  0,
  0,
  0,
  0,
  0,
  0,
  0,
  0,
  0,
  0,
  0,
  0,
  0,
  0,
  0,
  0,
  0,
  0,
  0,
  0,
  0,
  0,
  0,
  0,
  0,
  0,
  0,
  0,
  0,
  0,
  0,
  0,
  0,
  0,
  0,
  0,
  0,
  0,
  0,
  0,
  0,
  0,
  0,
  0,
  0,
  0,
  0,
  0,
  0,
  0,
  0,
  0,
  0,
  0,
  0,
  0,
  0,
  0,
  0,
  0,
  0,
  0,
  0,
  0,
  0,
  0,
  0,
  0,
  0,
  0,
  0,
  0,
  0,
  0,
  0,
  0,
  0,
  0,
  0,
  0,
  0,
  0,
  0,
  0,
  0,
  0,
  0,
  0,
  0,
  0,
  0,
  0,
  0,
  0,
  0,
  0,
  0,
  0,
  0,
  0,
  0,
  0,
  0,
  0,
  0,
  0,
  0,
  0,
  0,
  0,
  0,
  0,
  0,
  0,
  0,
  0,
  0,
  0,
  0,
  0,
  0,
  0,
  0,
  0,
  0,
  0,
  0,
  0,
  0,
  0,
  0,
  0,
  0,
  0,
  0,
  0,
  0,
  0,
  0,
  0,
  0,
  0,
  0,
  0,
  0,
  0,
  0,
  0,
  0,
  0,
  0,
  0,
  0,
  0,
  0,
  0,
  0,
  0,
  0,
  0,
  0,
  0,
  0,
  0,
  0,
  0,
  0,
  0,
  0,
  0,
  0,
  0,
  0,
  0,
  0,
  0,
  0,
  0,
  0,
  0,
  0,
  0,
  0,
  0,
  0,
  0,
  0,
  0,
  0,
  0,
  0,
  0,
  0,
  0,
  0,
  0,
  0,
  0,
  0,
  0,
  0,
  0,
  0,
  0,
  0,
  0,
  0,
  0,
  0,
  0,
  0,
  0,
  0,
  0,
  0,
  0,
  0,
  0,
  0,
  0,
  0,
  0,
  0,
  0,
  0,
  0,
  0,
  0,
  0,
  0,
  0,
  0,
  0,
  0,
  0,
  0,
  0,
  0,
  0,
  0,
  0,
  0,
  0,
  0,
  0,
  0,
  0,
  0,
  0,
  0,
  0,
  0,
  0,
  0,
  0,
  0,
  0,
  0,
  0,
  0,
  0,
  0,
  0,
  0,
  0,
  0,
  0,
  0,
  0,
  0,
  0,
  0,
  0,
  0,
  0,
  0,
  0,
  0,
  0,
  0,
  0,
  0,
  0,
  0,
  0,
  0,
  0,
  0,
  0,
  0,
  0,
  0,
  0,
  0,
  0,
  0,
  0,
  0,
  0,
  0,
  0,
  0,
  0,
  0,
  0,
  0,
  0,
  0,
  0,
  0,
  0,
  0,
  0,
  0,
  0,
  0,
  0,
  0,
  0,
  0,
  0,
  0,
  0,
  0,
  0,
  0,
  0,
  0,
  0,
  0,
  0,
  0,
  0,
  0,
  0,
  0,
  0,
  0,
  0,
  0,
  0,
  0,
  0,
  0,
  0,
  0,
  0,
  0,
  0,
  0,
  0,
  0,
  0,
  0,
  0,
  0,
  0,
  0,
  0,
  0,
  0,
  0,
  0,
  0,
  0,
  0,
  0,
  0,
  0,
  0,
  0,
  0,
  0,
  0,
  0,
  0,
  0,
  0,
  0,
  0,
  0,
  0,
  0,
  0,
  0,
  0,
  0,
  0,
  0,
  0,
  0,
  0,
  0,
  0,
  0,
  0,
  0,
  0,
  0,
  0,
  0,
  0,
  0,
  0,
  0,
  0,
  0,
  0,
  0,
  0,
  0,
  0,
  0,
  0,
  0,
  0,
  0,
  0,
  0,
  0,
  0,
  0,
  0,
  0,
  0,
  0,
  0,
  0,
  0,
  0,
  0,
  0,
  0,
  0,
  0,
  0,
  0,
  0,
  0,
  0,
  0,
  0,
  0,
  0,
  0,
  0,
  0,
  0,
  0,
  0,
  0,
  0,
  0,
  0,
  0,
  0,
  0,
  0,
  0,
  0,
  0,
  0,
  0,
  0,
  0,
  0,
  0,
  0,
  0,
  0,
  0,
  0,
  0,
  0,
  0,
  0,
  0,
  0,
  0,
  0,
  0,
  0,
  0,
  0,
  0,
  0,
  0,
  0,
  0,
  0,
  0,
  0,
  0,
  0,
  0,
  0,
  0,
  0,
  0,
  0,
  0,
  0,
  0,
  0,
  0,
  0,
  0,
  0,
  0,
  0,
  0,
  0,
  0,
  0,
  0,
  0,
  0,
  0,
  0,
  0,
  0,
  0,
  0,
  0,
  0,
  0,
  0,
  0,
  0,
  0,
  0,
  0,
  0,
  0,
  0,
  0,
  0,
  0,
  0,
  0,
  0,
  0,
  0,
  0,
  0,
  0,
  0,
  0,
  0,
  0,
  0,
  0,
  0,
  0,
  0,
  0,
  0,
  0,
  0,
  0,
  0,
  0,
  0,
  0,
  0,
  0,
  0,
  0,
  0,
  0,
  0,
  0,
  0,
  0,
  0,
  0,
  0,
  0,
  0,
  0,
  0,
  0,
  0,
  0,
  0,
  0,
  0,
  0,
  0,
  0,
  0,
  0,
  0,
  0,
  0,
  0,
  0,
  0,
  0,
  0,
  0,
  0,
  0,
  0,
  0,
  0,
  0,
  0,
  0,
  0,
  0,
  0,
  0,
  0,
  0,
  0,
  0,
  0,
  0,
  0,
  0,
  0,
  0,
  0,
  0,
  0,
  0,
  0,
  0,
  0,
  0,
  0,
  0,
  0,
  0,
  0,
  0,
  0,
  0,
  0,
  0,
  0,
  0,
  0,
  0,
  0,
  0,
  0,
  0,
  0,
  0,
  0,
  0,
  0,
  0,
  0,
  0,
  0,
  0,
  0,
  0,
  0,
  0,
  0;;
  Material {
   0.000000;0.000000;0.000000;1.000000;;
   5.000000;
   0.000000;0.000000;0.000000;;
   0.000000;0.000000;0.000000;;
  }
  Material {
   0.800000;0.712000;0.000000;1.000000;;
   5.000000;
   0.000000;0.000000;0.000000;;
   0.000000;0.000000;0.000000;;
  }
  Material {
   0.718400;0.712000;0.724800;1.000000;;
   5.000000;
   0.000000;0.000000;0.000000;;
   0.000000;0.000000;0.000000;;
  }
  Material {
   0.524000;0.524000;0.524000;1.000000;;
   5.000000;
   0.000000;0.000000;0.000000;;
   0.000000;0.000000;0.000000;;
  }
  Material {
   1.000000;1.000000;1.000000;1.000000;;
   0.000000;
   0.000000;0.000000;0.000000;;
   0.000000;0.000000;0.000000;;
  }
 }
 MeshNormals {
  400;
  -0.000000;0.942676;-0.333708;,
  0.235968;0.942676;-0.235968;,
  0.333708;0.942676;0.000000;,
  0.235968;0.942676;0.235968;,
  -0.000000;0.942676;0.333708;,
  -0.235968;0.942676;0.235968;,
  -0.333708;0.942676;0.000000;,
  -0.235968;0.942676;-0.235968;,
  -0.000000;1.000000;-0.000000;,
  0.000000;-1.000000;-0.000000;,
  0.000000;1.000000;0.000000;,
  0.000000;0.000000;-1.000000;,
  0.707107;0.000000;-0.707107;,
  1.000000;0.000000;0.000000;,
  0.707107;0.000000;0.707107;,
  0.000000;0.000000;1.000000;,
  -0.707107;0.000000;0.707107;,
  -1.000000;0.000000;0.000000;,
  -0.707107;0.000000;-0.707107;,
  0.000000;-1.000000;-0.000000;,
  0.016238;0.000526;0.999868;,
  0.708218;0.705994;0.000000;,
  0.707106;-0.707107;-0.000000;,
  -0.708216;-0.705996;0.000000;,
  0.000000;0.000000;-1.000000;,
  0.644468;-0.649613;0.403316;,
  0.021798;0.000268;0.999762;,
  0.003831;0.004539;0.999982;,
  -0.004840;-0.005446;-0.999973;,
  0.000000;0.000000;1.000000;,
  -0.010875;-0.009895;0.999892;,
  0.005223;0.004549;-0.999976;,
  -0.013100;-0.011041;0.999853;,
  -0.014591;0.014423;0.999790;,
  0.012643;-0.012610;-0.999841;,
  0.009572;-0.009536;-0.999909;,
  -0.000218;0.000649;1.000000;,
  -0.010161;0.009909;0.999899;,
  0.005142;0.008352;0.999952;,
  0.003831;0.006355;0.999972;,
  -0.017378;-0.014554;0.999743;,
  -0.021400;0.021236;0.999545;,
  0.011499;0.009062;-0.999893;,
  0.015616;0.013593;-0.999786;,
  -0.019603;-0.016460;0.999672;,
  -0.020357;0.020112;0.999591;,
  0.014974;0.011864;-0.999817;,
  0.018911;-0.018891;-0.999643;,
  -0.020142;-0.017620;0.999642;,
  -0.022226;0.022027;0.999510;,
  -0.020369;0.019871;0.999595;,
  -0.019340;-0.016536;0.999676;,
  0.018899;-0.019021;-0.999640;,
  0.020827;0.017795;-0.999625;,
  -0.023453;0.023454;0.999450;,
  0.011056;0.013332;0.999850;,
  -0.008243;-0.011098;-0.999905;,
  0.005388;0.008976;0.999945;,
  -0.000280;0.004620;0.999989;,
  -0.023480;0.023482;0.999449;,
  -0.008947;-0.010869;-0.999901;,
  0.018952;-0.019044;-0.999639;,
  0.005086;0.008386;0.999952;,
  0.018896;-0.018949;-0.999642;,
  -0.023490;0.023493;0.999448;,
  -0.000266;0.003557;0.999994;,
  0.010437;0.013215;0.999858;,
  -0.707109;0.707105;0.000000;,
  0.065364;0.000804;0.997861;,
  -0.008821;-0.007239;0.999935;,
  0.000014;0.001661;0.999999;,
  -0.018972;0.002911;0.999816;,
  0.000000;0.000000;1.000000;,
  0.019956;-0.000761;-0.999801;,
  0.005383;-0.015188;-0.999870;,
  0.001633;0.000000;-0.999999;,
  -0.004136;-0.005675;-0.999975;,
  -0.006620;0.018445;0.999808;,
  0.000000;0.000000;-1.000000;,
  0.000000;0.000000;0.000000;,
  0.000000;0.000000;1.000000;,
  0.000000;0.000000;1.000000;,
  0.000000;0.000000;-1.000000;,
  0.000000;0.000000;-1.000000;,
  0.000000;0.000000;0.000000;,
  0.000000;0.000000;1.000000;,
  0.000000;0.000000;-1.000000;,
  -0.006708;0.039613;-0.999193;,
  -0.001215;-0.033046;-0.999453;,
  -0.035992;0.999352;0.000000;,
  0.105676;-0.994401;-0.000000;,
  0.000000;0.000000;1.000000;,
  -0.007938;0.006570;-0.999947;,
  0.351723;0.128811;0.927199;,
  0.838741;-0.544531;-0.000000;,
  -0.186924;-0.982374;0.000000;,
  -0.228947;-0.973439;0.000000;,
  -0.241154;-0.970487;0.000000;,
  -0.288301;-0.957540;0.000000;,
  -0.722216;-0.691667;0.000000;,
  -0.946511;-0.322672;0.000000;,
  -0.726460;0.687209;0.000000;,
  -0.616318;0.787498;0.000000;,
  -0.395293;0.918555;0.000000;,
  -0.241697;0.970352;0.000000;,
  -0.152209;0.988348;0.000000;,
  -0.075523;0.997144;0.000000;,
  0.187001;0.982360;0.000000;,
  0.217051;0.976160;0.000000;,
  0.229242;0.973369;0.000000;,
  0.267669;0.963511;0.000000;,
  0.692644;0.721279;0.000000;,
  0.932571;0.360985;0.000000;,
  0.681625;-0.731702;-0.000000;,
  0.558898;-0.829236;-0.000000;,
  0.395214;-0.918589;-0.000000;,
  0.279663;-0.960098;-0.000000;,
  0.152188;-0.988352;-0.000000;,
  0.110285;-0.993900;-0.000000;,
  -0.002428;-0.066056;-0.997813;,
  -0.013405;0.079162;-0.996772;,
  0.305371;0.241364;0.921136;,
  0.562577;0.444659;0.696983;,
  0.659337;0.241468;0.712017;,
  0.722553;0.025993;0.690827;,
  0.392921;0.014135;0.919464;,
  0.000000;0.000000;-1.000000;,
  -0.022304;0.041286;-0.998898;,
  0.007991;-0.032756;-0.999431;,
  -0.332195;0.943211;0.000000;,
  0.412531;-0.910943;-0.000000;,
  0.000000;0.000000;1.000000;,
  -0.014339;0.008530;-0.999861;,
  0.383486;0.046105;0.922395;,
  0.022304;-0.041289;-0.998898;,
  -0.007990;0.032756;-0.999431;,
  0.332199;-0.943209;-0.000000;,
  -0.412536;0.910941;0.000000;,
  0.014340;-0.008533;-0.999861;,
  -0.383454;-0.046146;0.922407;,
  0.887500;-0.460807;-0.000000;,
  0.000997;-1.000000;-0.000000;,
  -0.075083;-0.997177;0.000000;,
  -0.096741;-0.995310;0.000000;,
  -0.187504;-0.982264;0.000000;,
  -0.328541;-0.944490;0.000000;,
  -0.998665;-0.051657;0.000000;,
  -0.965343;0.260984;0.000000;,
  -0.780765;0.624824;0.000000;,
  -0.653963;0.756527;0.000000;,
  -0.541462;0.840725;0.000000;,
  -0.459852;0.887995;0.000000;,
  -0.377789;0.925892;0.000000;,
  -0.001024;0.999999;0.000000;,
  0.052955;0.998597;0.000000;,
  0.074695;0.997206;0.000000;,
  0.147377;0.989080;0.000000;,
  0.250586;0.968095;0.000000;,
  0.996499;0.083601;0.000000;,
  0.964678;-0.263431;-0.000000;,
  0.749825;-0.661636;-0.000000;,
  0.657606;-0.753362;-0.000000;,
  0.570035;-0.821620;-0.000000;,
  0.459849;-0.887997;-0.000000;,
  0.417507;-0.908674;-0.000000;,
  0.015973;-0.065475;-0.997726;,
  -0.044558;0.082481;-0.995596;,
  0.371578;0.144838;0.917034;,
  0.681500;0.265643;0.681903;,
  0.712420;0.085652;0.696506;,
  0.719427;-0.097215;0.687731;,
  0.391580;-0.052914;0.918621;,
  -0.887522;0.460766;0.000000;,
  -0.000983;1.000000;0.000000;,
  0.075140;0.997173;0.000000;,
  0.096820;0.995302;0.000000;,
  0.187525;0.982260;0.000000;,
  0.328528;0.944494;0.000000;,
  0.998665;0.051649;0.000000;,
  0.965344;-0.260982;-0.000000;,
  0.780764;-0.624826;-0.000000;,
  0.653950;-0.756537;-0.000000;,
  0.541461;-0.840726;-0.000000;,
  0.459856;-0.887994;-0.000000;,
  0.377787;-0.925893;-0.000000;,
  0.000914;-1.000000;-0.000000;,
  -0.053055;-0.998592;0.000000;,
  -0.074737;-0.997203;0.000000;,
  -0.147343;-0.989085;0.000000;,
  -0.250524;-0.968110;0.000000;,
  -0.996499;-0.083602;0.000000;,
  -0.964690;0.263387;0.000000;,
  -0.749838;0.661621;0.000000;,
  -0.657576;0.753389;0.000000;,
  -0.570019;0.821631;0.000000;,
  -0.459846;0.887999;0.000000;,
  -0.417513;0.908671;0.000000;,
  -0.015972;0.065475;-0.997726;,
  0.044559;-0.082487;-0.995596;,
  -0.371514;-0.144983;0.917037;,
  -0.681384;-0.265910;0.681914;,
  -0.712380;-0.085730;0.696538;,
  -0.719411;0.097334;0.687731;,
  -0.391571;0.052978;0.918622;,
  0.000000;0.000000;-1.000000;,
  0.009289;-0.017274;-0.999808;,
  0.000967;0.025817;-0.999666;,
  0.159017;-0.987276;-0.000000;,
  -0.347764;0.937582;0.000000;,
  0.001420;0.000000;0.999999;,
  0.000000;0.000000;1.000000;,
  0.001220;0.000292;0.999999;,
  0.010263;0.008546;-0.999911;,
  -0.372750;-0.096073;0.922945;,
  0.002640;0.000292;0.999997;,
  -0.909275;-0.416195;0.000000;,
  -0.071627;0.997432;0.000000;,
  -0.050882;0.998705;0.000000;,
  0.055501;0.998459;0.000000;,
  0.332769;0.943008;0.000000;,
  0.810072;0.586330;0.000000;,
  0.986014;-0.166662;-0.000000;,
  0.760896;-0.648873;-0.000000;,
  0.508217;-0.861229;-0.000000;,
  0.342657;-0.939461;-0.000000;,
  0.292697;-0.956205;-0.000000;,
  0.202346;-0.979314;-0.000000;,
  0.079249;-0.996855;-0.000000;,
  0.057622;-0.998338;-0.000000;,
  -0.052619;-0.998615;0.000000;,
  -0.305890;-0.952067;0.000000;,
  -0.784312;-0.620366;0.000000;,
  -0.983446;0.181204;0.000000;,
  -0.709332;0.704875;0.000000;,
  -0.509003;0.860765;0.000000;,
  -0.387343;0.921935;0.000000;,
  -0.292707;0.956202;0.000000;,
  -0.296963;0.954889;0.000000;,
  0.001933;0.051617;-0.998665;,
  0.018573;-0.034541;-0.999231;,
  -0.349015;-0.180212;0.919626;,
  -0.643697;-0.331693;0.689662;,
  -0.693704;-0.178403;0.697816;,
  -0.725629;-0.020463;0.687782;,
  -0.393645;-0.011145;0.919195;,
  0.000000;0.000000;1.000000;,
  0.006701;0.039564;0.999195;,
  0.001213;-0.033014;0.999454;,
  0.036025;0.999351;0.000000;,
  -0.105673;-0.994401;0.000000;,
  0.000000;0.000000;-1.000000;,
  0.007929;0.006553;0.999947;,
  -0.351712;0.128824;-0.927202;,
  0.022281;0.041244;0.998901;,
  -0.007982;-0.032722;0.999433;,
  0.332191;0.943212;0.000000;,
  -0.412559;-0.910931;0.000000;,
  0.014324;0.008522;0.999861;,
  -0.383505;0.046076;-0.922389;,
  -0.022281;-0.041246;0.998901;,
  0.007981;0.032720;0.999433;,
  -0.332177;-0.943217;0.000000;,
  0.412531;0.910943;0.000000;,
  -0.014326;-0.008527;0.999861;,
  0.383474;-0.046100;-0.922400;,
  -0.009278;-0.017324;0.999807;,
  -0.000935;0.025884;0.999664;,
  -0.158996;-0.987279;0.000000;,
  0.347863;0.937545;0.000000;,
  -0.001387;0.000000;-0.999999;,
  -0.001193;0.000285;-0.999999;,
  -0.010221;0.008562;0.999911;,
  0.372779;-0.096070;-0.922934;,
  -0.002580;0.000285;-0.999997;,
  -0.838787;-0.544459;0.000000;,
  0.186962;-0.982367;-0.000000;,
  0.228975;-0.973432;-0.000000;,
  0.241147;-0.970489;-0.000000;,
  0.288288;-0.957544;-0.000000;,
  0.722243;-0.691639;-0.000000;,
  0.946534;-0.322603;-0.000000;,
  0.726417;0.687254;0.000000;,
  0.616316;0.787499;0.000000;,
  0.395319;0.918544;0.000000;,
  0.241691;0.970353;0.000000;,
  0.152205;0.988349;0.000000;,
  0.075542;0.997143;0.000000;,
  -0.186972;0.982365;0.000000;,
  -0.217053;0.976160;0.000000;,
  -0.229272;0.973362;0.000000;,
  -0.267663;0.963513;0.000000;,
  -0.692637;0.721287;0.000000;,
  -0.932579;0.360965;0.000000;,
  -0.681553;-0.731769;0.000000;,
  -0.558894;-0.829239;0.000000;,
  -0.395219;-0.918587;0.000000;,
  -0.279622;-0.960110;0.000000;,
  -0.152210;-0.988348;0.000000;,
  -0.110309;-0.993897;0.000000;,
  0.002425;-0.065992;0.997817;,
  0.013390;0.079064;0.996780;,
  -0.305359;0.241326;-0.921150;,
  -0.562563;0.444595;-0.697035;,
  -0.659312;0.241491;-0.712032;,
  -0.722544;0.026110;-0.690832;,
  -0.392915;0.014199;-0.919465;,
  -0.887494;-0.460820;0.000000;,
  -0.000990;-1.000000;0.000000;,
  0.075107;-0.997176;-0.000000;,
  0.096761;-0.995308;-0.000000;,
  0.187504;-0.982264;-0.000000;,
  0.328544;-0.944489;-0.000000;,
  0.998665;-0.051646;-0.000000;,
  0.965350;0.260958;0.000000;,
  0.780767;0.624823;0.000000;,
  0.653942;0.756544;0.000000;,
  0.541476;0.840716;0.000000;,
  0.459861;0.887991;0.000000;,
  0.377783;0.925894;0.000000;,
  0.000955;1.000000;0.000000;,
  -0.052992;0.998595;0.000000;,
  -0.074699;0.997206;0.000000;,
  -0.147380;0.989080;0.000000;,
  -0.250589;0.968093;0.000000;,
  -0.996507;0.083512;0.000000;,
  -0.964677;-0.263434;0.000000;,
  -0.749841;-0.661618;0.000000;,
  -0.657558;-0.753404;0.000000;,
  -0.570007;-0.821640;0.000000;,
  -0.459849;-0.887997;0.000000;,
  -0.417513;-0.908671;0.000000;,
  -0.015955;-0.065408;0.997731;,
  0.044513;0.082398;0.995605;,
  -0.371640;0.144715;-0.917028;,
  -0.681609;0.265415;-0.681883;,
  -0.712440;0.085596;-0.696493;,
  -0.719404;-0.097091;-0.687772;,
  -0.391563;-0.052845;-0.918633;,
  0.887521;0.460767;0.000000;,
  0.001011;0.999999;0.000000;,
  -0.075173;0.997171;0.000000;,
  -0.096848;0.995299;0.000000;,
  -0.187491;0.982266;0.000000;,
  -0.328498;0.944504;0.000000;,
  -0.998665;0.051647;0.000000;,
  -0.965344;-0.260979;0.000000;,
  -0.780769;-0.624819;0.000000;,
  -0.653940;-0.756546;0.000000;,
  -0.541443;-0.840737;0.000000;,
  -0.459870;-0.887986;0.000000;,
  -0.377793;-0.925890;0.000000;,
  -0.000955;-1.000000;0.000000;,
  0.053040;-0.998592;-0.000000;,
  0.074729;-0.997204;-0.000000;,
  0.147369;-0.989082;-0.000000;,
  0.250603;-0.968090;-0.000000;,
  0.996499;-0.083611;-0.000000;,
  0.964691;0.263386;0.000000;,
  0.749847;0.661611;0.000000;,
  0.657574;0.753390;0.000000;,
  0.570014;0.821635;0.000000;,
  0.459843;0.888000;0.000000;,
  0.417495;0.908679;0.000000;,
  0.015952;0.065403;0.997731;,
  -0.044513;-0.082401;0.995605;,
  0.371582;-0.144845;-0.917032;,
  0.681504;-0.265655;-0.681894;,
  0.712403;-0.085643;-0.696525;,
  0.719383;0.097245;-0.687773;,
  0.391551;0.052929;-0.918633;,
  0.909281;-0.416184;-0.000000;,
  0.071616;0.997432;0.000000;,
  0.050884;0.998705;0.000000;,
  -0.055472;0.998460;0.000000;,
  -0.332757;0.943013;0.000000;,
  -0.810099;0.586293;0.000000;,
  -0.986008;-0.166697;0.000000;,
  -0.760892;-0.648879;0.000000;,
  -0.508225;-0.861224;0.000000;,
  -0.342641;-0.939467;0.000000;,
  -0.292678;-0.956211;0.000000;,
  -0.202350;-0.979313;0.000000;,
  -0.079258;-0.996854;0.000000;,
  -0.057623;-0.998338;0.000000;,
  0.052603;-0.998616;-0.000000;,
  0.305875;-0.952072;-0.000000;,
  0.784317;-0.620361;-0.000000;,
  0.983448;0.181192;0.000000;,
  0.709332;0.704874;0.000000;,
  0.508931;0.860808;0.000000;,
  0.387275;0.921964;0.000000;,
  0.292695;0.956206;0.000000;,
  0.297006;0.954876;0.000000;,
  -0.001869;0.051751;0.998658;,
  -0.018552;-0.034642;0.999228;,
  0.349030;-0.180270;-0.919609;,
  0.643672;-0.331789;-0.689639;,
  0.693710;-0.178395;-0.697812;,
  0.725643;-0.020345;-0.687771;,
  0.393683;-0.011080;-0.919180;;
  888;
  3;0,8,1;,
  3;1,8,2;,
  3;2,8,3;,
  3;3,8,4;,
  3;4,8,5;,
  3;5,8,6;,
  3;6,8,7;,
  3;7,8,0;,
  3;9,9,9;,
  3;9,9,9;,
  3;9,9,9;,
  3;9,9,9;,
  3;9,9,9;,
  3;9,9,9;,
  3;9,9,9;,
  3;9,9,9;,
  4;11,12,12,11;,
  4;12,13,13,12;,
  4;13,14,14,13;,
  4;14,15,15,14;,
  4;15,16,16,15;,
  4;16,17,17,16;,
  4;17,18,18,17;,
  4;18,11,11,18;,
  3;10,10,10;,
  3;10,10,10;,
  3;10,10,10;,
  3;10,10,10;,
  3;10,10,10;,
  3;10,10,10;,
  3;10,10,10;,
  3;10,10,10;,
  3;19,19,19;,
  3;19,19,19;,
  3;19,19,19;,
  3;19,19,19;,
  3;19,19,19;,
  3;19,19,19;,
  3;19,19,19;,
  3;19,19,19;,
  4;21,21,21,21;,
  4;22,22,22,22;,
  4;23,23,23,23;,
  4;67,67,67,67;,
  3;24,24,24;,
  3;25,25,25;,
  4;68,68,26,20;,
  3;24,24,24;,
  4;24,24,24,24;,
  3;24,24,24;,
  3;37,20,33;,
  3;35,24,34;,
  3;29,27,29;,
  4;29,29,20,29;,
  3;24,28,24;,
  4;24,24,28,24;,
  3;36,30,36;,
  4;36,36,32,20;,
  3;24,31,24;,
  4;24,24,24,31;,
  4;29,69,70,29;,
  3;39,27,29;,
  4;44,71,69,40;,
  4;42,43,31,31;,
  3;41,71,45;,
  3;29,29,29;,
  4;29,29,29,26;,
  3;29,26,72;,
  3;24,24,24;,
  4;24,24,24,24;,
  4;47,73,74,52;,
  3;48,44,51;,
  4;48,51,40,32;,
  3;48,32,30;,
  3;46,73,53;,
  4;46,53,43,42;,
  3;46,42,75;,
  4;50,37,33,49;,
  4;50,49,41,45;,
  3;49,33,54;,
  4;56,74,76,56;,
  3;24,76,24;,
  4;24,24,75,24;,
  3;24,24,24;,
  3;57,39,58;,
  4;57,55,27,39;,
  3;24,24,24;,
  4;24,24,24,24;,
  3;63,52,61;,
  4;63,61,35,34;,
  3;63,34,47;,
  3;59,77,64;,
  4;59,64,41,49;,
  3;59,49,54;,
  4;60,28,28,60;,
  4;60,60,56,56;,
  4;65,70,38,62;,
  4;65,62,57,58;,
  4;62,38,77,66;,
  4;62,66,55,57;,
  4;79,79,79,79;,
  4;79,79,79,79;,
  4;79,79,79,79;,
  4;79,79,79,79;,
  4;79,79,79,79;,
  4;79,79,79,79;,
  4;79,79,79,79;,
  4;79,79,79,79;,
  4;79,79,79,79;,
  4;79,79,79,79;,
  4;79,79,79,79;,
  3;78,78,78;,
  3;78,78,78;,
  3;78,78,78;,
  3;78,78,78;,
  3;78,78,78;,
  3;78,78,78;,
  3;78,78,78;,
  3;78,78,78;,
  3;78,78,78;,
  3;78,78,78;,
  3;78,78,78;,
  3;80,80,80;,
  3;80,80,80;,
  3;80,80,80;,
  3;80,80,80;,
  3;80,80,80;,
  3;80,80,80;,
  3;80,80,80;,
  3;80,80,80;,
  3;80,80,80;,
  3;80,80,80;,
  3;80,80,80;,
  4;79,79,79,79;,
  4;79,79,79,79;,
  4;79,79,79,79;,
  4;79,79,79,79;,
  4;79,79,79,79;,
  4;79,79,79,79;,
  4;79,79,79,79;,
  4;79,79,79,79;,
  4;79,79,79,79;,
  4;79,79,79,79;,
  4;79,79,79,79;,
  3;78,78,78;,
  3;78,78,78;,
  3;78,78,78;,
  3;78,78,78;,
  3;78,78,78;,
  3;78,78,78;,
  3;78,78,78;,
  3;78,78,78;,
  3;78,78,78;,
  3;78,78,78;,
  3;78,78,78;,
  3;80,80,80;,
  3;80,80,80;,
  3;80,80,80;,
  3;80,80,80;,
  3;80,80,80;,
  3;80,80,80;,
  3;80,80,80;,
  3;80,80,80;,
  3;80,80,80;,
  3;80,80,80;,
  3;80,80,80;,
  4;79,79,79,79;,
  4;79,79,79,79;,
  4;79,79,79,79;,
  4;79,79,79,79;,
  4;79,79,79,79;,
  4;79,79,79,79;,
  4;79,79,79,79;,
  4;79,79,79,79;,
  4;79,79,79,79;,
  4;79,79,79,79;,
  4;79,79,79,79;,
  3;78,78,78;,
  3;78,78,78;,
  3;78,78,78;,
  3;78,78,78;,
  3;78,78,78;,
  3;78,78,78;,
  3;78,78,78;,
  3;78,78,78;,
  3;78,78,78;,
  3;78,78,78;,
  3;78,78,78;,
  3;80,80,80;,
  3;80,80,80;,
  3;80,80,80;,
  3;80,80,80;,
  3;80,80,80;,
  3;80,80,80;,
  3;80,80,80;,
  3;80,80,80;,
  3;80,80,80;,
  3;80,80,80;,
  3;80,80,80;,
  4;79,79,79,79;,
  4;79,79,79,79;,
  4;79,79,79,79;,
  4;79,79,79,79;,
  4;79,79,79,79;,
  4;79,79,79,79;,
  4;79,79,79,79;,
  4;79,79,79,79;,
  4;79,79,79,79;,
  4;79,79,79,79;,
  4;79,79,79,79;,
  3;78,78,78;,
  3;80,80,80;,
  3;78,78,78;,
  3;78,78,78;,
  3;78,78,78;,
  3;78,78,78;,
  3;78,78,78;,
  3;78,78,78;,
  3;78,78,78;,
  3;78,78,78;,
  3;78,78,78;,
  3;80,80,80;,
  3;78,78,78;,
  3;80,80,80;,
  3;80,80,80;,
  3;80,80,80;,
  3;80,80,80;,
  3;80,80,80;,
  3;80,80,80;,
  3;80,80,80;,
  3;80,80,80;,
  3;80,80,80;,
  4;79,79,79,79;,
  4;79,79,79,79;,
  4;79,79,79,79;,
  4;79,79,79,79;,
  4;79,79,79,79;,
  4;79,79,79,79;,
  4;79,79,79,79;,
  4;79,79,79,79;,
  4;79,79,79,79;,
  4;79,79,79,79;,
  4;79,79,79,79;,
  3;78,78,78;,
  3;78,78,78;,
  3;78,78,78;,
  3;78,78,78;,
  3;78,78,78;,
  3;78,78,78;,
  3;78,78,78;,
  3;78,78,78;,
  3;78,78,78;,
  3;78,78,78;,
  3;78,78,78;,
  3;80,80,80;,
  3;80,80,80;,
  3;80,80,80;,
  3;80,80,80;,
  3;80,80,80;,
  3;80,80,80;,
  3;80,80,80;,
  3;80,80,80;,
  3;80,80,80;,
  3;80,80,80;,
  3;80,80,80;,
  4;79,79,79,79;,
  4;79,79,79,79;,
  4;79,79,79,79;,
  4;79,79,79,79;,
  4;78,78,78,78;,
  4;78,78,78,78;,
  4;79,79,79,79;,
  4;80,80,80,80;,
  4;80,80,80,80;,
  4;79,79,79,79;,
  4;79,79,79,79;,
  3;80,81,80;,
  3;78,78,78;,
  3;80,80,80;,
  3;80,80,80;,
  3;80,80,80;,
  3;80,80,80;,
  3;80,80,80;,
  3;80,80,80;,
  3;80,80,80;,
  3;80,80,80;,
  3;80,80,80;,
  3;78,78,82;,
  3;80,80,80;,
  3;78,78,78;,
  3;78,78,78;,
  3;78,78,78;,
  3;78,78,78;,
  3;78,78,78;,
  3;78,78,78;,
  3;78,78,78;,
  3;78,78,78;,
  3;78,78,78;,
  4;84,84,84,84;,
  4;84,84,84,84;,
  4;84,84,84,84;,
  4;84,84,84,84;,
  4;84,84,84,84;,
  4;84,84,84,84;,
  4;84,84,84,84;,
  4;84,84,84,84;,
  4;84,84,84,84;,
  4;84,84,84,84;,
  4;84,84,84,84;,
  3;83,83,83;,
  3;83,83,83;,
  3;83,83,83;,
  3;83,83,83;,
  3;83,83,83;,
  3;83,83,83;,
  3;83,83,83;,
  3;83,83,83;,
  3;83,83,83;,
  3;83,83,83;,
  3;83,83,83;,
  3;85,85,85;,
  3;85,85,85;,
  3;85,85,85;,
  3;85,85,85;,
  3;85,85,85;,
  3;85,85,85;,
  3;85,85,85;,
  3;85,85,85;,
  3;85,85,85;,
  3;85,85,85;,
  3;85,85,85;,
  4;84,84,84,84;,
  4;84,84,84,84;,
  4;84,84,84,84;,
  4;84,84,84,84;,
  4;84,84,84,84;,
  4;84,84,84,84;,
  4;84,84,84,84;,
  4;84,84,84,84;,
  4;84,84,84,84;,
  4;84,84,84,84;,
  4;84,84,84,84;,
  3;83,83,83;,
  3;83,83,83;,
  3;83,83,83;,
  3;83,83,83;,
  3;83,83,83;,
  3;83,83,83;,
  3;83,83,83;,
  3;83,83,83;,
  3;83,83,83;,
  3;83,83,83;,
  3;83,83,83;,
  3;85,85,85;,
  3;85,85,85;,
  3;85,85,85;,
  3;85,85,85;,
  3;85,85,85;,
  3;85,85,85;,
  3;85,85,85;,
  3;85,85,85;,
  3;85,85,85;,
  3;85,85,85;,
  3;85,85,85;,
  4;84,84,84,84;,
  4;84,84,84,84;,
  4;84,84,84,84;,
  4;84,84,84,84;,
  4;84,84,84,84;,
  4;84,84,84,84;,
  4;85,85,85,85;,
  4;83,83,83,83;,
  4;84,84,84,84;,
  4;84,84,84,84;,
  4;84,84,84,84;,
  3;83,83,83;,
  3;83,83,83;,
  3;83,83,83;,
  3;83,83,83;,
  3;83,83,83;,
  3;83,83,83;,
  3;83,83,83;,
  3;83,83,83;,
  3;83,83,83;,
  3;83,83,83;,
  3;83,83,83;,
  3;85,85,85;,
  3;85,85,85;,
  3;85,85,85;,
  3;85,85,85;,
  3;85,85,85;,
  3;85,85,85;,
  3;85,85,85;,
  3;85,85,85;,
  3;85,85,85;,
  3;85,85,85;,
  3;85,85,85;,
  4;84,84,84,84;,
  4;84,84,84,84;,
  4;84,84,84,84;,
  4;84,84,84,84;,
  4;84,84,84,84;,
  4;84,84,84,84;,
  4;84,84,84,84;,
  4;84,84,84,84;,
  4;84,84,84,84;,
  4;84,84,84,84;,
  4;84,84,84,84;,
  3;83,83,83;,
  3;85,85,85;,
  3;83,83,83;,
  3;83,83,83;,
  3;83,83,83;,
  3;83,83,83;,
  3;83,83,83;,
  3;83,83,83;,
  3;83,83,83;,
  3;83,83,83;,
  3;83,83,83;,
  3;85,85,85;,
  3;83,83,83;,
  3;85,85,85;,
  3;85,85,85;,
  3;85,85,85;,
  3;85,85,85;,
  3;85,85,85;,
  3;85,85,85;,
  3;85,85,85;,
  3;85,85,85;,
  3;85,85,85;,
  4;84,84,84,84;,
  4;84,84,84,84;,
  4;84,84,84,84;,
  4;84,84,84,84;,
  4;84,84,84,84;,
  4;84,84,84,84;,
  4;84,84,84,84;,
  4;84,84,84,84;,
  4;84,84,84,84;,
  4;84,84,84,84;,
  4;84,84,84,84;,
  3;83,83,83;,
  3;83,83,83;,
  3;83,83,83;,
  3;83,83,83;,
  3;83,83,83;,
  3;83,83,83;,
  3;83,83,83;,
  3;83,83,83;,
  3;83,83,83;,
  3;83,83,83;,
  3;83,83,83;,
  3;85,85,85;,
  3;85,85,85;,
  3;85,85,85;,
  3;85,85,85;,
  3;85,85,85;,
  3;85,85,85;,
  3;85,85,85;,
  3;85,85,85;,
  3;85,85,85;,
  3;85,85,85;,
  3;85,85,85;,
  4;83,83,83,83;,
  4;84,84,84,84;,
  4;84,84,84,84;,
  4;84,84,84,84;,
  4;83,83,83,83;,
  4;83,83,83,83;,
  4;83,83,83,83;,
  4;84,84,84,84;,
  4;85,85,85,85;,
  4;84,84,84,84;,
  4;83,83,83,83;,
  3;85,85,85;,
  3;83,83,83;,
  3;85,85,85;,
  3;85,85,85;,
  3;85,85,85;,
  3;85,85,85;,
  3;85,85,85;,
  3;85,85,85;,
  3;85,85,85;,
  3;85,85,85;,
  3;85,85,85;,
  3;83,83,83;,
  3;85,85,85;,
  3;83,83,83;,
  3;83,83,83;,
  3;83,83,83;,
  3;83,83,83;,
  3;83,83,83;,
  3;83,83,83;,
  3;83,83,83;,
  3;83,83,83;,
  3;83,83,83;,
  4;86,86,86,86;,
  4;86,86,86,86;,
  4;86,86,86,86;,
  4;86,86,86,86;,
  4;86,86,86,86;,
  4;86,86,86,86;,
  4;86,86,86,86;,
  4;86,86,86,86;,
  4;86,86,86,86;,
  4;86,87,88,86;,
  4;91,91,91,91;,
  4;91,91,91,91;,
  4;91,91,91,91;,
  4;91,91,91,91;,
  4;91,91,91,91;,
  4;91,91,91,91;,
  4;91,91,91,91;,
  4;91,91,91,91;,
  4;91,91,91,91;,
  4;91,91,91,91;,
  4;94,94,94,94;,
  4;95,96,96,95;,
  4;96,97,97,96;,
  4;97,98,98,97;,
  4;98,99,99,98;,
  4;99,100,100,99;,
  4;101,102,102,101;,
  4;102,103,103,102;,
  4;103,104,104,103;,
  4;104,105,105,104;,
  4;105,106,106,105;,
  4;106,89,89,106;,
  4;107,108,108,107;,
  4;108,109,109,108;,
  4;109,110,110,109;,
  4;110,111,111,110;,
  4;111,112,112,111;,
  4;113,114,114,113;,
  4;114,115,115,114;,
  4;115,116,116,115;,
  4;116,117,117,116;,
  4;117,118,118,117;,
  4;118,90,90,118;,
  4;92,119,88,92;,
  4;92,92,87,120;,
  4;93,121,122,123;,
  4;93,123,124,125;,
  4;91,91,121,93;,
  4;91,93,125,91;,
  4;126,126,126,126;,
  4;126,126,126,126;,
  4;126,126,126,126;,
  4;126,126,126,126;,
  4;126,126,126,126;,
  4;126,126,126,126;,
  4;126,126,126,126;,
  4;126,126,126,126;,
  4;126,126,126,126;,
  4;126,127,128,126;,
  4;131,131,131,131;,
  4;131,131,131,131;,
  4;131,131,131,131;,
  4;131,131,131,131;,
  4;131,131,131,131;,
  4;131,131,131,131;,
  4;131,131,131,131;,
  4;131,131,131,131;,
  4;131,131,131,131;,
  4;131,131,131,131;,
  4;140,140,140,140;,
  4;141,142,142,141;,
  4;142,143,143,142;,
  4;143,144,144,143;,
  4;144,145,145,144;,
  4;146,147,147,146;,
  4;147,148,148,147;,
  4;148,149,149,148;,
  4;149,150,150,149;,
  4;150,151,151,150;,
  4;151,152,152,151;,
  4;152,129,129,152;,
  4;153,154,154,153;,
  4;154,155,155,154;,
  4;155,156,156,155;,
  4;156,157,157,156;,
  4;158,159,159,158;,
  4;159,160,160,159;,
  4;160,161,161,160;,
  4;161,162,162,161;,
  4;162,163,163,162;,
  4;163,164,164,163;,
  4;164,130,130,164;,
  4;132,165,128,132;,
  4;132,132,127,166;,
  4;133,167,168,169;,
  4;133,169,170,171;,
  4;131,131,167,133;,
  4;131,133,171,131;,
  4;126,126,126,126;,
  4;126,126,126,126;,
  4;126,126,126,126;,
  4;126,126,126,126;,
  4;126,126,126,126;,
  4;126,126,126,126;,
  4;126,126,126,126;,
  4;126,126,126,126;,
  4;126,126,126,126;,
  4;126,134,135,126;,
  4;131,131,131,131;,
  4;131,131,131,131;,
  4;131,131,131,131;,
  4;131,131,131,131;,
  4;131,131,131,131;,
  4;131,131,131,131;,
  4;131,131,131,131;,
  4;131,131,131,131;,
  4;131,131,131,131;,
  4;131,131,131,131;,
  4;172,172,172,172;,
  4;173,174,174,173;,
  4;174,175,175,174;,
  4;175,176,176,175;,
  4;176,177,177,176;,
  4;178,179,179,178;,
  4;179,180,180,179;,
  4;180,181,181,180;,
  4;181,182,182,181;,
  4;182,183,183,182;,
  4;183,184,184,183;,
  4;184,136,136,184;,
  4;185,186,186,185;,
  4;186,187,187,186;,
  4;187,188,188,187;,
  4;188,189,189,188;,
  4;190,191,191,190;,
  4;191,192,192,191;,
  4;192,193,193,192;,
  4;193,194,194,193;,
  4;194,195,195,194;,
  4;195,196,196,195;,
  4;196,137,137,196;,
  4;138,197,135,138;,
  4;138,138,134,198;,
  4;139,199,200,201;,
  4;139,201,202,203;,
  4;131,131,199,139;,
  4;131,139,203,131;,
  4;204,204,204,204;,
  4;204,204,204,204;,
  4;204,204,204,204;,
  4;204,204,204,204;,
  4;204,204,204,204;,
  4;204,204,204,204;,
  4;204,204,204,204;,
  4;204,204,204,204;,
  4;204,204,204,204;,
  4;204,205,206,204;,
  4;209,210,210,211;,
  4;210,210,210,210;,
  4;210,210,210,210;,
  4;210,210,210,210;,
  4;210,210,210,210;,
  4;210,210,210,210;,
  4;210,210,210,210;,
  4;210,210,210,210;,
  4;210,210,210,210;,
  4;210,210,210,210;,
  4;215,215,215,215;,
  4;216,217,217,216;,
  4;217,218,218,217;,
  4;218,219,219,218;,
  4;219,220,220,219;,
  4;220,221,221,220;,
  4;221,222,222,221;,
  4;222,223,223,222;,
  4;223,224,224,223;,
  4;224,225,225,224;,
  4;225,226,226,225;,
  4;226,207,207,226;,
  4;227,228,228,227;,
  4;228,229,229,228;,
  4;229,230,230,229;,
  4;230,231,231,230;,
  4;231,232,232,231;,
  4;232,233,233,232;,
  4;233,234,234,233;,
  4;234,235,235,234;,
  4;235,236,236,235;,
  4;236,237,237,236;,
  4;237,208,208,237;,
  4;212,238,206,212;,
  4;212,212,205,239;,
  4;213,240,241,242;,
  4;213,242,243,244;,
  4;214,211,240,213;,
  4;214,213,244,209;,
  4;245,245,245,245;,
  4;245,245,245,245;,
  4;245,245,245,245;,
  4;245,245,245,245;,
  4;245,245,245,245;,
  4;245,245,245,245;,
  4;245,245,245,245;,
  4;245,245,245,245;,
  4;245,245,245,245;,
  4;245,246,247,245;,
  4;250,250,250,250;,
  4;250,250,250,250;,
  4;250,250,250,250;,
  4;250,250,250,250;,
  4;250,250,250,250;,
  4;250,250,250,250;,
  4;250,250,250,250;,
  4;250,250,250,250;,
  4;250,250,250,250;,
  4;250,250,250,250;,
  4;274,274,274,274;,
  4;275,276,276,275;,
  4;276,277,277,276;,
  4;277,278,278,277;,
  4;278,279,279,278;,
  4;279,280,280,279;,
  4;281,282,282,281;,
  4;282,283,283,282;,
  4;283,284,284,283;,
  4;284,285,285,284;,
  4;285,286,286,285;,
  4;286,248,248,286;,
  4;287,288,288,287;,
  4;288,289,289,288;,
  4;289,290,290,289;,
  4;290,291,291,290;,
  4;291,292,292,291;,
  4;293,294,294,293;,
  4;294,295,295,294;,
  4;295,296,296,295;,
  4;296,297,297,296;,
  4;297,298,298,297;,
  4;298,249,249,298;,
  4;251,299,247,251;,
  4;251,251,246,300;,
  4;252,301,302,303;,
  4;252,303,304,305;,
  4;250,250,301,252;,
  4;250,252,305,250;,
  4;245,245,245,245;,
  4;245,245,245,245;,
  4;245,245,245,245;,
  4;245,245,245,245;,
  4;245,245,245,245;,
  4;245,245,245,245;,
  4;245,245,245,245;,
  4;245,245,245,245;,
  4;245,245,245,245;,
  4;245,253,254,245;,
  4;250,250,250,250;,
  4;250,250,250,250;,
  4;250,250,250,250;,
  4;250,250,250,250;,
  4;250,250,250,250;,
  4;250,250,250,250;,
  4;250,250,250,250;,
  4;250,250,250,250;,
  4;250,250,250,250;,
  4;250,250,250,250;,
  4;306,306,306,306;,
  4;307,308,308,307;,
  4;308,309,309,308;,
  4;309,310,310,309;,
  4;310,311,311,310;,
  4;312,313,313,312;,
  4;313,314,314,313;,
  4;314,315,315,314;,
  4;315,316,316,315;,
  4;316,317,317,316;,
  4;317,318,318,317;,
  4;318,255,255,318;,
  4;319,320,320,319;,
  4;320,321,321,320;,
  4;321,322,322,321;,
  4;322,323,323,322;,
  4;324,325,325,324;,
  4;325,326,326,325;,
  4;326,327,327,326;,
  4;327,328,328,327;,
  4;328,329,329,328;,
  4;329,330,330,329;,
  4;330,256,256,330;,
  4;257,331,254,257;,
  4;257,257,253,332;,
  4;258,333,334,335;,
  4;258,335,336,337;,
  4;250,250,333,258;,
  4;250,258,337,250;,
  4;245,245,245,245;,
  4;245,245,245,245;,
  4;245,245,245,245;,
  4;245,245,245,245;,
  4;245,245,245,245;,
  4;245,245,245,245;,
  4;245,245,245,245;,
  4;245,245,245,245;,
  4;245,245,245,245;,
  4;245,259,260,245;,
  4;250,250,250,250;,
  4;250,250,250,250;,
  4;250,250,250,250;,
  4;250,250,250,250;,
  4;250,250,250,250;,
  4;250,250,250,250;,
  4;250,250,250,250;,
  4;250,250,250,250;,
  4;250,250,250,250;,
  4;250,250,250,250;,
  4;338,338,338,338;,
  4;339,340,340,339;,
  4;340,341,341,340;,
  4;341,342,342,341;,
  4;342,343,343,342;,
  4;344,345,345,344;,
  4;345,346,346,345;,
  4;346,347,347,346;,
  4;347,348,348,347;,
  4;348,349,349,348;,
  4;349,350,350,349;,
  4;350,261,261,350;,
  4;351,352,352,351;,
  4;352,353,353,352;,
  4;353,354,354,353;,
  4;354,355,355,354;,
  4;356,357,357,356;,
  4;357,358,358,357;,
  4;358,359,359,358;,
  4;359,360,360,359;,
  4;360,361,361,360;,
  4;361,362,362,361;,
  4;362,262,262,362;,
  4;263,363,260,263;,
  4;263,263,259,364;,
  4;264,365,366,367;,
  4;264,367,368,369;,
  4;250,250,365,264;,
  4;250,264,369,250;,
  4;245,245,245,245;,
  4;245,245,245,245;,
  4;245,245,245,245;,
  4;245,245,245,245;,
  4;245,245,245,245;,
  4;245,245,245,245;,
  4;245,245,245,245;,
  4;245,245,245,245;,
  4;245,245,245,245;,
  4;245,265,266,245;,
  4;269,250,250,270;,
  4;250,250,250,250;,
  4;250,250,250,250;,
  4;250,250,250,250;,
  4;250,250,250,250;,
  4;250,250,250,250;,
  4;250,250,250,250;,
  4;250,250,250,250;,
  4;250,250,250,250;,
  4;250,250,250,250;,
  4;370,370,370,370;,
  4;371,372,372,371;,
  4;372,373,373,372;,
  4;373,374,374,373;,
  4;374,375,375,374;,
  4;375,376,376,375;,
  4;376,377,377,376;,
  4;377,378,378,377;,
  4;378,379,379,378;,
  4;379,380,380,379;,
  4;380,381,381,380;,
  4;381,267,267,381;,
  4;382,383,383,382;,
  4;383,384,384,383;,
  4;384,385,385,384;,
  4;385,386,386,385;,
  4;386,387,387,386;,
  4;387,388,388,387;,
  4;388,389,389,388;,
  4;389,390,390,389;,
  4;390,391,391,390;,
  4;391,392,392,391;,
  4;392,268,268,392;,
  4;271,393,266,271;,
  4;271,271,265,394;,
  4;272,395,396,397;,
  4;272,397,398,399;,
  4;273,270,395,272;,
  4;273,272,399,269;;
 }
}
