xof 0302txt 0064
template Header {
 <3D82AB43-62DA-11cf-AB39-0020AF71E433>
 WORD major;
 WORD minor;
 DWORD flags;
}

template Vector {
 <3D82AB5E-62DA-11cf-AB39-0020AF71E433>
 FLOAT x;
 FLOAT y;
 FLOAT z;
}

template Coords2d {
 <F6F23F44-7686-11cf-8F52-0040333594A3>
 FLOAT u;
 FLOAT v;
}

template Matrix4x4 {
 <F6F23F45-7686-11cf-8F52-0040333594A3>
 array FLOAT matrix[16];
}

template ColorRGBA {
 <35FF44E0-6C7C-11cf-8F52-0040333594A3>
 FLOAT red;
 FLOAT green;
 FLOAT blue;
 FLOAT alpha;
}

template ColorRGB {
 <D3E16E81-7835-11cf-8F52-0040333594A3>
 FLOAT red;
 FLOAT green;
 FLOAT blue;
}

template IndexedColor {
 <1630B820-7842-11cf-8F52-0040333594A3>
 DWORD index;
 ColorRGBA indexColor;
}

template Boolean {
 <4885AE61-78E8-11cf-8F52-0040333594A3>
 WORD truefalse;
}

template Boolean2d {
 <4885AE63-78E8-11cf-8F52-0040333594A3>
 Boolean u;
 Boolean v;
}

template MaterialWrap {
 <4885AE60-78E8-11cf-8F52-0040333594A3>
 Boolean u;
 Boolean v;
}

template TextureFilename {
 <A42790E1-7810-11cf-8F52-0040333594A3>
 STRING filename;
}

template Material {
 <3D82AB4D-62DA-11cf-AB39-0020AF71E433>
 ColorRGBA faceColor;
 FLOAT power;
 ColorRGB specularColor;
 ColorRGB emissiveColor;
 [...]
}

template MeshFace {
 <3D82AB5F-62DA-11cf-AB39-0020AF71E433>
 DWORD nFaceVertexIndices;
 array DWORD faceVertexIndices[nFaceVertexIndices];
}

template MeshFaceWraps {
 <4885AE62-78E8-11cf-8F52-0040333594A3>
 DWORD nFaceWrapValues;
 Boolean2d faceWrapValues;
}

template MeshTextureCoords {
 <F6F23F40-7686-11cf-8F52-0040333594A3>
 DWORD nTextureCoords;
 array Coords2d textureCoords[nTextureCoords];
}

template MeshMaterialList {
 <F6F23F42-7686-11cf-8F52-0040333594A3>
 DWORD nMaterials;
 DWORD nFaceIndexes;
 array DWORD faceIndexes[nFaceIndexes];
 [Material]
}

template MeshNormals {
 <F6F23F43-7686-11cf-8F52-0040333594A3>
 DWORD nNormals;
 array Vector normals[nNormals];
 DWORD nFaceNormals;
 array MeshFace faceNormals[nFaceNormals];
}

template MeshVertexColors {
 <1630B821-7842-11cf-8F52-0040333594A3>
 DWORD nVertexColors;
 array IndexedColor vertexColors[nVertexColors];
}

template Mesh {
 <3D82AB44-62DA-11cf-AB39-0020AF71E433>
 DWORD nVertices;
 array Vector vertices[nVertices];
 DWORD nFaces;
 array MeshFace faces[nFaces];
 [...]
}

Header{
1;
0;
1;
}

Mesh {
 180;
 -544.08441;389.11908;-125.77260;,
 -266.22159;676.85553;-125.77260;,
 -221.66800;633.83008;-125.77260;,
 -499.53021;346.09393;-125.77260;,
 -266.22159;676.85553;-125.77260;,
 -266.22159;676.85553;125.77260;,
 -221.66800;633.83008;125.77260;,
 -221.66800;633.83008;-125.77260;,
 -266.22159;676.85553;125.77260;,
 -544.08441;389.11908;125.77260;,
 -499.53021;346.09393;125.77260;,
 -221.66800;633.83008;125.77260;,
 -544.08441;389.11908;125.77260;,
 -544.08441;389.11908;-125.77260;,
 -499.53021;346.09393;-125.77260;,
 -499.53021;346.09393;125.77260;,
 -266.22159;676.85553;-125.77260;,
 -544.08441;389.11908;-125.77260;,
 -499.53021;346.09393;-125.77260;,
 -221.66800;633.83008;-125.77260;,
 -96.07680;600.37469;315.29279;,
 96.07680;600.37469;315.29279;,
 96.07680;200.37469;315.29279;,
 -96.07680;200.37469;315.29279;,
 96.07680;600.37469;315.29279;,
 96.07680;600.37469;379.75119;,
 96.07680;200.37469;379.75119;,
 96.07680;200.37469;315.29279;,
 96.07680;600.37469;379.75119;,
 -96.07680;600.37469;379.75119;,
 -96.07680;200.37469;379.75119;,
 96.07680;200.37469;379.75119;,
 -96.07680;600.37469;379.75119;,
 -96.07680;600.37469;315.29279;,
 -96.07680;200.37469;315.29279;,
 -96.07680;200.37469;379.75119;,
 96.07680;600.37469;315.29279;,
 -96.07680;600.37469;315.29279;,
 -96.07680;200.37469;315.29279;,
 96.07680;200.37469;315.29279;,
 -96.07680;600.37469;-330.32300;,
 96.07680;600.37469;-330.32300;,
 96.07680;200.37469;-330.32300;,
 -96.07680;200.37469;-330.32300;,
 96.07680;600.37469;-330.32300;,
 96.07680;600.37469;-265.86441;,
 96.07680;200.37469;-265.86441;,
 96.07680;200.37469;-330.32300;,
 96.07680;600.37469;-265.86441;,
 -96.07680;600.37469;-265.86441;,
 -96.07680;200.37469;-265.86441;,
 96.07680;200.37469;-265.86441;,
 -96.07680;600.37469;-265.86441;,
 -96.07680;600.37469;-330.32300;,
 -96.07680;200.37469;-330.32300;,
 -96.07680;200.37469;-265.86441;,
 96.07680;600.37469;-330.32300;,
 -96.07680;600.37469;-330.32300;,
 -96.07680;200.37469;-330.32300;,
 96.07680;200.37469;-330.32300;,
 462.05920;342.80109;315.29279;,
 295.64941;246.72351;315.29279;,
 95.64980;593.13409;315.29279;,
 262.05960;689.21149;315.29279;,
 295.64941;246.72351;315.29279;,
 295.64941;246.72351;379.75119;,
 95.64980;593.13409;379.75119;,
 95.64980;593.13409;315.29279;,
 295.64941;246.72351;379.75119;,
 462.05920;342.80109;379.75119;,
 262.05960;689.21149;379.75119;,
 95.64980;593.13409;379.75119;,
 462.05920;342.80109;379.75119;,
 462.05920;342.80109;315.29279;,
 262.05960;689.21149;315.29279;,
 262.05960;689.21149;379.75119;,
 295.64941;246.72351;315.29279;,
 462.05920;342.80109;315.29279;,
 262.05960;689.21149;315.29279;,
 95.64980;593.13409;315.29279;,
 -244.51620;223.65552;315.29279;,
 -422.04340;297.18872;315.29279;,
 -268.96960;666.74072;315.29279;,
 -91.44260;593.20673;315.29279;,
 -422.04340;297.18872;315.29279;,
 -422.04340;297.18872;379.75119;,
 -268.96960;666.74072;379.75119;,
 -268.96960;666.74072;315.29279;,
 -422.04340;297.18872;379.75119;,
 -244.51620;223.65552;379.75119;,
 -91.44260;593.20673;379.75119;,
 -268.96960;666.74072;379.75119;,
 -244.51620;223.65552;379.75119;,
 -244.51620;223.65552;315.29279;,
 -91.44260;593.20673;315.29279;,
 -91.44260;593.20673;379.75119;,
 -422.04340;297.18872;315.29279;,
 -244.51620;223.65552;315.29279;,
 -91.44260;593.20673;315.29279;,
 -268.96960;666.74072;315.29279;,
 -570.53223;356.41388;315.29279;,
 -732.59363;459.65729;315.29279;,
 -517.67322;797.01385;315.29279;,
 -355.61261;693.76996;315.29279;,
 -732.59363;459.65729;315.29279;,
 -732.59363;459.65729;379.75119;,
 -517.67322;797.01385;379.75119;,
 -517.67322;797.01385;315.29279;,
 -732.59363;459.65729;379.75119;,
 -570.53223;356.41388;379.75119;,
 -355.61261;693.76996;379.75119;,
 -517.67322;797.01385;379.75119;,
 -570.53223;356.41388;379.75119;,
 -570.53223;356.41388;315.29279;,
 -355.61261;693.76996;315.29279;,
 -355.61261;693.76996;379.75119;,
 -732.59363;459.65729;315.29279;,
 -570.53223;356.41388;315.29279;,
 -355.61261;693.76996;315.29279;,
 -517.67322;797.01385;315.29279;,
 690.72662;458.54572;315.29279;,
 524.31677;362.46808;315.29279;,
 324.31720;708.87848;315.29279;,
 490.72699;804.95593;315.29279;,
 524.31677;362.46808;315.29279;,
 524.31677;362.46808;379.75119;,
 324.31720;708.87848;379.75119;,
 324.31720;708.87848;315.29279;,
 524.31677;362.46808;379.75119;,
 690.72662;458.54572;379.75119;,
 490.72699;804.95593;379.75119;,
 324.31720;708.87848;379.75119;,
 690.72662;458.54572;379.75119;,
 690.72662;458.54572;315.29279;,
 490.72699;804.95593;315.29279;,
 490.72699;804.95593;379.75119;,
 524.31677;362.46808;315.29279;,
 690.72662;458.54572;315.29279;,
 490.72699;804.95593;315.29279;,
 324.31720;708.87848;315.29279;,
 -96.07680;600.37469;315.29279;,
 96.07680;600.37469;315.29279;,
 96.07680;200.37469;315.29279;,
 -96.07680;200.37469;315.29279;,
 96.07680;600.37469;315.29279;,
 96.07680;600.37469;379.75119;,
 96.07680;200.37469;379.75119;,
 96.07680;200.37469;315.29279;,
 96.07680;600.37469;379.75119;,
 -96.07680;600.37469;379.75119;,
 -96.07680;200.37469;379.75119;,
 96.07680;200.37469;379.75119;,
 -96.07680;600.37469;379.75119;,
 -96.07680;600.37469;315.29279;,
 -96.07680;200.37469;315.29279;,
 -96.07680;200.37469;379.75119;,
 96.07680;600.37469;315.29279;,
 -96.07680;600.37469;315.29279;,
 -96.07680;200.37469;315.29279;,
 96.07680;200.37469;315.29279;,
 273.44760;678.86572;-125.77260;,
 546.24780;386.32428;-125.77260;,
 500.94919;344.08392;-125.77260;,
 228.14960;636.62433;-125.77260;,
 546.24780;386.32428;-125.77260;,
 546.24780;386.32428;125.77260;,
 500.94919;344.08392;125.77260;,
 500.94919;344.08392;-125.77260;,
 546.24780;386.32428;125.77260;,
 273.44760;678.86572;125.77260;,
 228.14960;636.62433;125.77260;,
 500.94919;344.08392;125.77260;,
 273.44760;678.86572;125.77260;,
 273.44760;678.86572;-125.77260;,
 228.14960;636.62433;-125.77260;,
 228.14960;636.62433;125.77260;,
 546.24780;386.32428;-125.77260;,
 273.44760;678.86572;-125.77260;,
 228.14960;636.62433;-125.77260;,
 500.94919;344.08392;-125.77260;;
 
 54;
 4;0,1,2,3;,
 4;4,5,6,7;,
 4;8,9,10,11;,
 4;12,13,14,15;,
 4;12,5,16,17;,
 4;18,19,6,15;,
 4;20,21,22,23;,
 4;24,25,26,27;,
 4;28,29,30,31;,
 4;32,33,34,35;,
 4;32,25,36,37;,
 4;38,39,26,35;,
 4;40,41,42,43;,
 4;44,45,46,47;,
 4;48,49,50,51;,
 4;52,53,54,55;,
 4;52,45,56,57;,
 4;58,59,46,55;,
 4;60,61,62,63;,
 4;64,65,66,67;,
 4;68,69,70,71;,
 4;72,73,74,75;,
 4;72,65,76,77;,
 4;78,79,66,75;,
 4;80,81,82,83;,
 4;84,85,86,87;,
 4;88,89,90,91;,
 4;92,93,94,95;,
 4;92,85,96,97;,
 4;98,99,86,95;,
 4;100,101,102,103;,
 4;104,105,106,107;,
 4;108,109,110,111;,
 4;112,113,114,115;,
 4;112,105,116,117;,
 4;118,119,106,115;,
 4;120,121,122,123;,
 4;124,125,126,127;,
 4;128,129,130,131;,
 4;132,133,134,135;,
 4;132,125,136,137;,
 4;138,139,126,135;,
 4;140,141,142,143;,
 4;144,145,146,147;,
 4;148,149,150,151;,
 4;152,153,154,155;,
 4;152,145,156,157;,
 4;158,159,146,155;,
 4;160,161,162,163;,
 4;164,165,166,167;,
 4;168,169,170,171;,
 4;172,173,174,175;,
 4;172,165,176,177;,
 4;178,179,166,175;;
 
 MeshMaterialList {
  9;
  54;
  5,
  5,
  5,
  5,
  5,
  5,
  5,
  5,
  5,
  5,
  5,
  5,
  5,
  5,
  5,
  5,
  5,
  5,
  5,
  5,
  5,
  5,
  5,
  5,
  5,
  5,
  5,
  5,
  5,
  5,
  5,
  5,
  5,
  5,
  5,
  5,
  5,
  5,
  5,
  5,
  5,
  5,
  5,
  5,
  5,
  5,
  5,
  5,
  5,
  5,
  5,
  5,
  5,
  5;;
  Material {
   0.228800;0.140800;0.050400;1.000000;;
   5.000000;
   0.000000;0.000000;0.000000;;
   0.000000;0.000000;0.000000;;
  }
  Material {
   0.800000;0.238400;0.065600;1.000000;;
   5.000000;
   0.000000;0.000000;0.000000;;
   0.000000;0.000000;0.000000;;
  }
  Material {
   0.800000;0.530400;0.100000;1.000000;;
   5.000000;
   0.000000;0.000000;0.000000;;
   0.000000;0.000000;0.000000;;
  }
  Material {
   0.536800;0.091200;0.060000;1.000000;;
   5.000000;
   0.000000;0.000000;0.000000;;
   0.000000;0.000000;0.000000;;
  }
  Material {
   0.640000;0.392000;0.000000;1.000000;;
   5.000000;
   0.000000;0.000000;0.000000;;
   0.000000;0.000000;0.000000;;
  }
  Material {
   0.241600;0.432800;0.800000;1.000000;;
   5.000000;
   0.000000;0.000000;0.000000;;
   0.000000;0.000000;0.000000;;
  }
  Material {
   0.800000;0.800000;0.800000;1.000000;;
   5.000000;
   0.000000;0.000000;0.000000;;
   0.000000;0.000000;0.000000;;
  }
  Material {
   0.800000;0.800000;0.800000;1.000000;;
   5.000000;
   0.000000;0.000000;0.000000;;
   0.000000;0.000000;0.000000;;
  }
  Material {
   1.000000;1.000000;1.000000;1.000000;;
   0.000000;
   0.000000;0.000000;0.000000;;
   0.000000;0.000000;0.000000;;
  }
 }
 MeshNormals {
  30;
  0.000000;0.000000;-1.000000;,
  0.694663;0.719335;0.000000;,
  0.000000;0.000000;1.000000;,
  1.000000;0.000000;0.000000;,
  -0.866026;-0.499999;0.000000;,
  -0.923879;0.382684;0.000000;,
  -0.843391;0.537301;0.000000;,
  -0.866026;-0.499999;0.000000;,
  0.681987;-0.731364;-0.000000;,
  -0.694655;-0.719343;0.000000;,
  -0.719341;0.694657;0.000000;,
  0.719342;-0.694657;-0.000000;,
  -1.000000;0.000000;0.000000;,
  0.000000;1.000000;0.000000;,
  0.000000;-1.000000;-0.000000;,
  0.866026;0.499999;0.000000;,
  0.500003;-0.866023;-0.000000;,
  -0.500003;0.866024;0.000000;,
  0.923879;-0.382684;-0.000000;,
  -0.382679;-0.923881;0.000000;,
  0.382683;0.923880;0.000000;,
  0.843391;-0.537300;-0.000000;,
  -0.537296;-0.843394;0.000000;,
  0.537299;0.843392;0.000000;,
  0.866026;0.499999;0.000000;,
  0.500003;-0.866024;-0.000000;,
  -0.500003;0.866024;0.000000;,
  -0.682001;0.731351;0.000000;,
  0.731353;0.682000;0.000000;,
  -0.731352;-0.682000;0.000000;;
  54;
  4;0,0,0,0;,
  4;1,1,1,1;,
  4;2,2,2,2;,
  4;9,9,9,9;,
  4;10,10,10,10;,
  4;11,11,11,11;,
  4;0,0,0,0;,
  4;3,3,3,3;,
  4;2,2,2,2;,
  4;12,12,12,12;,
  4;13,13,13,13;,
  4;14,14,14,14;,
  4;0,0,0,0;,
  4;3,3,3,3;,
  4;2,2,2,2;,
  4;12,12,12,12;,
  4;13,13,13,13;,
  4;14,14,14,14;,
  4;0,0,0,0;,
  4;4,4,4,4;,
  4;2,2,2,2;,
  4;15,15,15,15;,
  4;16,16,16,16;,
  4;17,17,17,17;,
  4;0,0,0,0;,
  4;5,5,5,5;,
  4;2,2,2,2;,
  4;18,18,18,18;,
  4;19,19,19,19;,
  4;20,20,20,20;,
  4;0,0,0,0;,
  4;6,6,6,6;,
  4;2,2,2,2;,
  4;21,21,21,21;,
  4;22,22,22,22;,
  4;23,23,23,23;,
  4;0,0,0,0;,
  4;7,7,7,7;,
  4;2,2,2,2;,
  4;24,24,24,24;,
  4;25,25,25,25;,
  4;26,26,26,26;,
  4;0,0,0,0;,
  4;3,3,3,3;,
  4;2,2,2,2;,
  4;12,12,12,12;,
  4;13,13,13,13;,
  4;14,14,14,14;,
  4;0,0,0,0;,
  4;8,8,8,8;,
  4;2,2,2,2;,
  4;27,27,27,27;,
  4;28,28,28,28;,
  4;29,29,29,29;;
 }
 MeshTextureCoords {
  180;
  0.000000;0.000000;,
  1.000000;0.000000;,
  1.000000;1.000000;,
  0.000000;1.000000;,
  0.000000;0.000000;,
  1.000000;0.000000;,
  1.000000;1.000000;,
  0.000000;1.000000;,
  0.000000;0.000000;,
  1.000000;0.000000;,
  1.000000;1.000000;,
  0.000000;1.000000;,
  0.000000;0.000000;,
  1.000000;0.000000;,
  1.000000;1.000000;,
  0.000000;1.000000;,
  1.000000;1.000000;,
  0.000000;1.000000;,
  0.000000;0.000000;,
  1.000000;0.000000;,
  0.000000;0.000000;,
  1.000000;0.000000;,
  1.000000;1.000000;,
  0.000000;1.000000;,
  0.000000;0.000000;,
  1.000000;0.000000;,
  1.000000;1.000000;,
  0.000000;1.000000;,
  0.000000;0.000000;,
  1.000000;0.000000;,
  1.000000;1.000000;,
  0.000000;1.000000;,
  0.000000;0.000000;,
  1.000000;0.000000;,
  1.000000;1.000000;,
  0.000000;1.000000;,
  1.000000;1.000000;,
  0.000000;1.000000;,
  0.000000;0.000000;,
  1.000000;0.000000;,
  0.000000;0.000000;,
  1.000000;0.000000;,
  1.000000;1.000000;,
  0.000000;1.000000;,
  0.000000;0.000000;,
  1.000000;0.000000;,
  1.000000;1.000000;,
  0.000000;1.000000;,
  0.000000;0.000000;,
  1.000000;0.000000;,
  1.000000;1.000000;,
  0.000000;1.000000;,
  0.000000;0.000000;,
  1.000000;0.000000;,
  1.000000;1.000000;,
  0.000000;1.000000;,
  1.000000;1.000000;,
  0.000000;1.000000;,
  0.000000;0.000000;,
  1.000000;0.000000;,
  0.000000;0.000000;,
  1.000000;0.000000;,
  1.000000;1.000000;,
  0.000000;1.000000;,
  0.000000;0.000000;,
  1.000000;0.000000;,
  1.000000;1.000000;,
  0.000000;1.000000;,
  0.000000;0.000000;,
  1.000000;0.000000;,
  1.000000;1.000000;,
  0.000000;1.000000;,
  0.000000;0.000000;,
  1.000000;0.000000;,
  1.000000;1.000000;,
  0.000000;1.000000;,
  1.000000;1.000000;,
  0.000000;1.000000;,
  0.000000;0.000000;,
  1.000000;0.000000;,
  0.000000;0.000000;,
  1.000000;0.000000;,
  1.000000;1.000000;,
  0.000000;1.000000;,
  0.000000;0.000000;,
  1.000000;0.000000;,
  1.000000;1.000000;,
  0.000000;1.000000;,
  0.000000;0.000000;,
  1.000000;0.000000;,
  1.000000;1.000000;,
  0.000000;1.000000;,
  0.000000;0.000000;,
  1.000000;0.000000;,
  1.000000;1.000000;,
  0.000000;1.000000;,
  1.000000;1.000000;,
  0.000000;1.000000;,
  0.000000;0.000000;,
  1.000000;0.000000;,
  0.000000;0.000000;,
  1.000000;0.000000;,
  1.000000;1.000000;,
  0.000000;1.000000;,
  0.000000;0.000000;,
  1.000000;0.000000;,
  1.000000;1.000000;,
  0.000000;1.000000;,
  0.000000;0.000000;,
  1.000000;0.000000;,
  1.000000;1.000000;,
  0.000000;1.000000;,
  0.000000;0.000000;,
  1.000000;0.000000;,
  1.000000;1.000000;,
  0.000000;1.000000;,
  1.000000;1.000000;,
  0.000000;1.000000;,
  0.000000;0.000000;,
  1.000000;0.000000;,
  0.000000;0.000000;,
  1.000000;0.000000;,
  1.000000;1.000000;,
  0.000000;1.000000;,
  0.000000;0.000000;,
  1.000000;0.000000;,
  1.000000;1.000000;,
  0.000000;1.000000;,
  0.000000;0.000000;,
  1.000000;0.000000;,
  1.000000;1.000000;,
  0.000000;1.000000;,
  0.000000;0.000000;,
  1.000000;0.000000;,
  1.000000;1.000000;,
  0.000000;1.000000;,
  1.000000;1.000000;,
  0.000000;1.000000;,
  0.000000;0.000000;,
  1.000000;0.000000;,
  0.000000;0.000000;,
  1.000000;0.000000;,
  1.000000;1.000000;,
  0.000000;1.000000;,
  0.000000;0.000000;,
  1.000000;0.000000;,
  1.000000;1.000000;,
  0.000000;1.000000;,
  0.000000;0.000000;,
  1.000000;0.000000;,
  1.000000;1.000000;,
  0.000000;1.000000;,
  0.000000;0.000000;,
  1.000000;0.000000;,
  1.000000;1.000000;,
  0.000000;1.000000;,
  1.000000;1.000000;,
  0.000000;1.000000;,
  0.000000;0.000000;,
  1.000000;0.000000;,
  0.000000;0.000000;,
  1.000000;0.000000;,
  1.000000;1.000000;,
  0.000000;1.000000;,
  0.000000;0.000000;,
  1.000000;0.000000;,
  1.000000;1.000000;,
  0.000000;1.000000;,
  0.000000;0.000000;,
  1.000000;0.000000;,
  1.000000;1.000000;,
  0.000000;1.000000;,
  0.000000;0.000000;,
  1.000000;0.000000;,
  1.000000;1.000000;,
  0.000000;1.000000;,
  1.000000;1.000000;,
  0.000000;1.000000;,
  0.000000;0.000000;,
  1.000000;0.000000;;
 }
}
