xof 0302txt 0064
template Header {
 <3D82AB43-62DA-11cf-AB39-0020AF71E433>
 WORD major;
 WORD minor;
 DWORD flags;
}

template Vector {
 <3D82AB5E-62DA-11cf-AB39-0020AF71E433>
 FLOAT x;
 FLOAT y;
 FLOAT z;
}

template Coords2d {
 <F6F23F44-7686-11cf-8F52-0040333594A3>
 FLOAT u;
 FLOAT v;
}

template Matrix4x4 {
 <F6F23F45-7686-11cf-8F52-0040333594A3>
 array FLOAT matrix[16];
}

template ColorRGBA {
 <35FF44E0-6C7C-11cf-8F52-0040333594A3>
 FLOAT red;
 FLOAT green;
 FLOAT blue;
 FLOAT alpha;
}

template ColorRGB {
 <D3E16E81-7835-11cf-8F52-0040333594A3>
 FLOAT red;
 FLOAT green;
 FLOAT blue;
}

template IndexedColor {
 <1630B820-7842-11cf-8F52-0040333594A3>
 DWORD index;
 ColorRGBA indexColor;
}

template Boolean {
 <4885AE61-78E8-11cf-8F52-0040333594A3>
 WORD truefalse;
}

template Boolean2d {
 <4885AE63-78E8-11cf-8F52-0040333594A3>
 Boolean u;
 Boolean v;
}

template MaterialWrap {
 <4885AE60-78E8-11cf-8F52-0040333594A3>
 Boolean u;
 Boolean v;
}

template TextureFilename {
 <A42790E1-7810-11cf-8F52-0040333594A3>
 STRING filename;
}

template Material {
 <3D82AB4D-62DA-11cf-AB39-0020AF71E433>
 ColorRGBA faceColor;
 FLOAT power;
 ColorRGB specularColor;
 ColorRGB emissiveColor;
 [...]
}

template MeshFace {
 <3D82AB5F-62DA-11cf-AB39-0020AF71E433>
 DWORD nFaceVertexIndices;
 array DWORD faceVertexIndices[nFaceVertexIndices];
}

template MeshFaceWraps {
 <4885AE62-78E8-11cf-8F52-0040333594A3>
 DWORD nFaceWrapValues;
 Boolean2d faceWrapValues;
}

template MeshTextureCoords {
 <F6F23F40-7686-11cf-8F52-0040333594A3>
 DWORD nTextureCoords;
 array Coords2d textureCoords[nTextureCoords];
}

template MeshMaterialList {
 <F6F23F42-7686-11cf-8F52-0040333594A3>
 DWORD nMaterials;
 DWORD nFaceIndexes;
 array DWORD faceIndexes[nFaceIndexes];
 [Material]
}

template MeshNormals {
 <F6F23F43-7686-11cf-8F52-0040333594A3>
 DWORD nNormals;
 array Vector normals[nNormals];
 DWORD nFaceNormals;
 array MeshFace faceNormals[nFaceNormals];
}

template MeshVertexColors {
 <1630B821-7842-11cf-8F52-0040333594A3>
 DWORD nVertexColors;
 array IndexedColor vertexColors[nVertexColors];
}

template Mesh {
 <3D82AB44-62DA-11cf-AB39-0020AF71E433>
 DWORD nVertices;
 array Vector vertices[nVertices];
 DWORD nFaces;
 array MeshFace faces[nFaces];
 [...]
}

Header{
1;
0;
1;
}

Mesh {
 609;
 37.48220;463.58340;-507.81519;,
 37.04100;533.80322;-597.63922;,
 1.47360;537.90503;-594.25781;,
 1.91460;467.68481;-504.43420;,
 2.55120;366.36539;-374.82761;,
 38.11860;362.26361;-378.20859;,
 -3.29360;345.72241;-599.75220;,
 -2.65700;244.40221;-470.14560;,
 -7.24040;244.93100;-469.70999;,
 -7.87680;346.25101;-599.31677;,
 -9.11880;417.02881;-688.79077;,
 -3.73480;415.94199;-689.57678;,
 38.64760;278.10840;-270.55881;,
 3.08000;282.20999;-267.17761;,
 1.60440;191.01660;-172.07600;,
 37.17180;186.91521;-175.45700;,
 -2.12840;160.24741;-362.49600;,
 13.74200;124.31660;-224.27859;,
 -10.50860;127.11300;-221.97340;,
 -6.71140;160.77620;-362.06039;,
 4.40780;1212.94385;-1662.90686;,
 -4.89080;1201.77002;-1671.59583;,
 -11.81640;1203.03442;-1670.66296;,
 -15.24120;1214.20215;-1661.82605;,
 -14.13340;1216.70898;-1654.71497;,
 -1.74740;1231.37720;-1642.09045;,
 22.60260;457.62839;-657.11737;,
 37.04100;533.80322;-597.63922;,
 37.48220;463.58340;-507.81519;,
 23.04380;387.40860;-567.29358;,
 -3.29360;345.72241;-599.75220;,
 -3.73480;415.94199;-689.57678;,
 38.11860;362.26361;-378.20859;,
 23.68020;286.08881;-437.68701;,
 -2.65700;244.40221;-470.14560;,
 38.64760;278.10840;-270.55881;,
 24.20900;201.93381;-330.03680;,
 -2.12840;160.24741;-362.49600;,
 37.17180;186.91521;-175.45700;,
 28.55060;141.43340;-210.97040;,
 13.74200;124.31660;-224.27859;,
 -12.96480;461.73019;-653.73657;,
 -9.11880;417.02881;-688.79077;,
 -7.87680;346.25101;-599.31677;,
 -12.52400;391.51059;-563.91278;,
 1.91460;467.68481;-504.43420;,
 1.47360;537.90503;-594.25781;,
 28.55060;141.43340;-210.97040;,
 37.17180;186.91521;-175.45700;,
 1.60440;191.01660;-172.07600;,
 -7.01680;145.53500;-207.58940;,
 -10.50860;127.11300;-221.97340;,
 13.74200;124.31660;-224.27859;,
 -7.24040;244.93100;-469.70999;,
 -11.88740;290.19040;-434.30579;,
 2.55120;366.36539;-374.82761;,
 -7.01680;145.53500;-207.58940;,
 1.60440;191.01660;-172.07600;,
 3.08000;282.20999;-267.17761;,
 -11.35860;206.03520;-326.65561;,
 -6.71140;160.77620;-362.06039;,
 -10.50860;127.11300;-221.97340;,
 32.89920;1136.21899;-1371.99915;,
 27.48580;1221.54321;-1417.57935;,
 -8.08180;1225.64417;-1414.19861;,
 -2.66860;1140.32056;-1368.61755;,
 -1.97260;1086.44360;-1295.93945;,
 33.59520;1082.34216;-1299.32043;,
 32.89920;1136.21899;-1371.99915;,
 33.59520;1082.34216;-1299.32043;,
 19.15640;1006.16699;-1358.79834;,
 19.58140;1061.78015;-1430.12634;,
 20.00180;1116.77576;-1500.66235;,
 27.48580;1221.54321;-1417.57935;,
 -2.66860;1140.32056;-1368.61755;,
 -8.08180;1225.64417;-1414.19861;,
 -15.59340;1129.04285;-1490.89941;,
 -16.76100;1065.97156;-1426.67175;,
 -16.41140;1010.26898;-1355.41785;,
 -1.97260;1086.44360;-1295.93945;,
 -7.18100;964.48102;-1391.25818;,
 -6.75580;1020.09460;-1462.58557;,
 -4.82200;1083.07642;-1526.88562;,
 -11.74740;1084.33997;-1525.95276;,
 -12.91520;1021.26978;-1461.72534;,
 -12.56520;965.56720;-1390.47217;,
 -6.75580;1020.09460;-1462.58557;,
 -7.18100;964.48102;-1391.25818;,
 -12.56520;965.56720;-1390.47217;,
 -12.91520;1021.26978;-1461.72534;,
 -11.74740;1084.33997;-1525.95276;,
 -4.82200;1083.07642;-1526.88562;,
 34.40560;1032.40405;-1230.21216;,
 -1.16180;1036.50562;-1226.83057;,
 -1.31960;982.49738;-1162.97314;,
 34.24800;978.39563;-1166.35400;,
 34.40560;1032.40405;-1230.21216;,
 34.24800;978.39563;-1166.35400;,
 19.80940;902.22083;-1225.83337;,
 19.48600;953.69122;-1291.67285;,
 -1.16180;1036.50562;-1226.83057;,
 -16.08140;957.79260;-1288.29163;,
 -15.75820;906.32257;-1222.45178;,
 -1.31960;982.49738;-1162.97314;,
 -6.52800;860.53442;-1258.29175;,
 -6.85120;912.00439;-1324.13123;,
 -12.23560;913.09058;-1323.34485;,
 -11.91200;861.62140;-1257.50562;,
 -6.85120;912.00439;-1324.13123;,
 -6.52800;860.53442;-1258.29175;,
 -11.91200;861.62140;-1257.50562;,
 -12.23560;913.09058;-1323.34485;,
 34.31620;919.76440;-1094.51294;,
 -1.25140;923.86658;-1091.13342;,
 7.56360;866.94043;-1017.13501;,
 34.96820;863.78003;-1019.74017;,
 34.31620;919.76440;-1094.51294;,
 34.96820;863.78003;-1019.74017;,
 20.52940;787.60541;-1079.21838;,
 20.16820;845.12323;-1152.79456;,
 -1.25140;923.86658;-1091.13342;,
 -15.39940;849.22540;-1149.41382;,
 -15.03820;791.70721;-1075.83740;,
 7.56360;866.94043;-1017.13501;,
 -5.80780;745.91937;-1111.67786;,
 -6.16920;803.43701;-1185.25403;,
 -11.55360;804.52380;-1184.46765;,
 -11.19220;747.00580;-1110.89197;,
 -6.16920;803.43701;-1185.25403;,
 -5.80780;745.91937;-1111.67786;,
 -11.19220;747.00580;-1110.89197;,
 -11.55360;804.52380;-1184.46765;,
 35.42220;798.56738;-935.85718;,
 8.01740;801.72742;-933.25177;,
 0.17720;744.24902;-858.21057;,
 35.74480;740.14758;-861.59119;,
 35.42220;798.56738;-935.85718;,
 35.74480;740.14758;-861.59119;,
 21.30620;663.97278;-921.06982;,
 20.94060;722.16718;-995.51141;,
 8.01740;801.72742;-933.25177;,
 -14.62680;726.26880;-992.12982;,
 -14.26140;668.07440;-917.68878;,
 0.17720;744.24902;-858.21057;,
 -5.03100;622.28619;-953.52899;,
 -5.39680;680.48077;-1027.97058;,
 -10.78080;681.56738;-1027.18396;,
 -10.41560;623.37299;-952.74261;,
 -5.39680;680.48077;-1027.97058;,
 -5.03100;622.28619;-953.52899;,
 -10.41560;623.37299;-952.74261;,
 -10.78080;681.56738;-1027.18396;,
 36.08920;685.33398;-791.47498;,
 0.52160;689.43579;-788.09418;,
 0.84480;638.00677;-722.30682;,
 36.41240;633.90521;-725.68799;,
 36.08920;685.33398;-791.47498;,
 36.41240;633.90521;-725.68799;,
 21.97380;557.73041;-785.16638;,
 21.65060;609.15942;-850.95361;,
 0.52160;689.43579;-788.09418;,
 -13.91700;613.26123;-847.57257;,
 -13.59400;561.83197;-781.78497;,
 0.84480;638.00677;-722.30682;,
 -4.36360;516.04401;-817.62561;,
 -4.68660;567.47302;-883.41241;,
 -10.07120;568.55957;-882.62622;,
 -9.74760;517.13080;-816.83960;,
 -4.68660;567.47302;-883.41241;,
 -4.36360;516.04401;-817.62561;,
 -9.74760;517.13080;-816.83960;,
 -10.07120;568.55957;-882.62622;,
 36.70640;587.06860;-665.77557;,
 1.13900;591.17041;-662.39423;,
 36.70640;587.06860;-665.77557;,
 22.26800;510.89420;-725.25421;,
 1.13900;591.17041;-662.39423;,
 -13.29960;514.99561;-721.87280;,
 -4.06940;469.20761;-757.71301;,
 -9.45360;470.29419;-756.92639;,
 -4.06940;469.20761;-757.71301;,
 -9.45360;470.29419;-756.92639;,
 6.45600;1229.42615;-1583.57178;,
 10.04780;1186.04199;-1608.55322;,
 4.40780;1212.94385;-1662.90686;,
 -1.74740;1231.37720;-1642.09045;,
 6.45600;1229.42615;-1583.57178;,
 -14.13340;1216.70898;-1654.71497;,
 -18.46500;1232.29956;-1581.20300;,
 -5.31580;1161.72339;-1627.48938;,
 -4.89080;1201.77002;-1671.59583;,
 -18.46500;1232.29956;-1581.20300;,
 -15.24120;1214.20215;-1661.82605;,
 -15.80020;1184.80286;-1609.39465;,
 -5.31580;1161.72339;-1627.48938;,
 -12.24160;1162.98743;-1626.55615;,
 -11.81640;1203.03442;-1670.66296;,
 -12.24160;1162.98743;-1626.55615;,
 12.87240;139.69220;-164.22861;,
 29.76820;153.74879;-156.71620;,
 33.00020;139.69760;-169.12199;,
 12.87240;139.69220;-164.22861;,
 16.63960;159.56599;-148.71060;,
 12.87240;139.69220;-164.22861;,
 1.30360;153.74120;-149.79660;,
 12.87240;139.69220;-164.22861;,
 -7.25540;139.68640;-159.33521;,
 12.87240;139.69220;-164.22861;,
 -4.02380;125.63540;-171.74181;,
 12.87240;139.69220;-164.22861;,
 9.10560;119.81840;-179.74660;,
 12.87240;139.69220;-164.22861;,
 24.44100;125.64320;-178.66200;,
 12.87240;139.69220;-164.22861;,
 33.00020;139.69760;-169.12199;,
 15.25140;-127.16640;176.96140;,
 35.37920;-127.16020;172.06779;,
 32.14740;-113.10960;184.47400;,
 15.25140;-127.16640;176.96140;,
 19.01820;-107.29240;192.47900;,
 15.25140;-127.16640;176.96140;,
 3.68260;-113.11680;191.39320;,
 15.25140;-127.16640;176.96140;,
 -4.87640;-127.17120;181.85361;,
 15.25140;-127.16640;176.96140;,
 -1.64460;-141.22321;169.44800;,
 15.25140;-127.16640;176.96140;,
 11.48420;-147.03999;161.44321;,
 15.25140;-127.16640;176.96140;,
 26.82020;-141.21539;162.52879;,
 15.25140;-127.16640;176.96140;,
 35.37920;-127.16020;172.06779;,
 24.68300;98.52780;-143.99380;,
 9.34720;92.70320;-145.07899;,
 33.24180;112.58280;-134.45441;,
 -3.78200;98.52060;-137.07420;,
 33.24180;112.58280;-134.45441;,
 30.01020;126.63340;-122.04840;,
 -7.01360;112.57160;-124.66820;,
 16.88120;132.45100;-114.04340;,
 1.54540;126.62640;-115.12900;,
 24.96840;66.49400;-103.03720;,
 9.63240;60.66900;-104.12240;,
 33.52720;80.54900;-93.49780;,
 -3.49640;66.48640;-96.11760;,
 33.52720;80.54900;-93.49780;,
 30.29560;94.60000;-81.09140;,
 -6.72820;80.53780;-83.71140;,
 17.16660;100.41700;-73.08600;,
 1.83080;94.59240;-74.17240;,
 25.26100;33.67640;-61.07820;,
 9.92500;27.85100;-62.16300;,
 33.82000;47.73080;-51.53860;,
 -3.20380;33.66860;-54.15860;,
 33.82000;47.73080;-51.53860;,
 30.58840;61.78160;-39.13260;,
 -6.43560;47.71960;-41.75200;,
 17.45940;67.59920;-31.12740;,
 2.12340;61.77440;-32.21280;,
 25.51260;5.42740;-24.96120;,
 10.17680;-0.39760;-26.04580;,
 34.07160;19.48240;-15.42180;,
 -2.95200;5.42000;-18.04160;,
 34.07160;19.48240;-15.42180;,
 30.84000;33.53320;-3.01500;,
 -6.18380;19.47100;-5.63500;,
 17.71120;39.35040;4.99020;,
 2.37540;33.52540;3.90420;,
 25.71800;-17.59800;4.47800;,
 10.38220;-23.42280;3.39300;,
 34.27700;-3.54280;14.01780;,
 -2.74700;-17.60580;11.39780;,
 34.27700;-3.54280;14.01780;,
 31.04540;10.50800;26.42380;,
 -5.97840;-3.55460;23.80440;,
 17.91640;16.32500;34.42900;,
 2.58040;10.50020;33.34360;,
 25.93100;-41.48280;35.01580;,
 10.59520;-47.30760;33.93060;,
 34.49000;-27.42820;44.55560;,
 -2.53400;-41.49020;41.93600;,
 34.49000;-27.42820;44.55560;,
 31.25840;-13.37660;56.96200;,
 -5.76540;-27.43880;54.34180;,
 18.12920;-7.55980;64.96700;,
 2.79360;-13.38440;63.88180;,
 26.19560;-71.14280;72.93800;,
 10.85960;-76.96820;71.85260;,
 34.75460;-57.08820;82.47740;,
 -2.26960;-71.15100;79.85720;,
 34.75460;-57.08820;82.47740;,
 31.52300;-43.03760;94.88400;,
 -5.50100;-57.09920;92.26380;,
 18.39380;-37.21980;102.88880;,
 3.05800;-43.04480;101.80300;,
 26.41540;-95.82020;104.48840;,
 11.07960;-101.64520;103.40360;,
 34.97460;-81.76560;114.02840;,
 -2.04960;-95.82820;111.40880;,
 34.97460;-81.76560;114.02840;,
 31.74300;-67.71440;126.43420;,
 -5.28120;-81.77660;123.81440;,
 18.61380;-61.89720;134.43919;,
 3.27780;-67.72180;133.35400;,
 26.59320;-115.76040;129.98280;,
 11.25740;-121.58520;128.89760;,
 35.15220;-101.70580;139.52280;,
 -1.87160;-115.76760;136.90260;,
 35.15220;-101.70580;139.52280;,
 31.92040;-87.65420;151.92880;,
 -5.10320;-101.71640;149.30840;,
 18.79140;-81.83740;159.93359;,
 3.45600;-87.66220;158.84880;,
 39.45980;159.59579;-196.08780;,
 35.22240;178.88300;-180.98900;,
 35.52980;129.93280;-118.37280;,
 39.76700;110.64580;-133.47180;,
 18.01880;188.65401;-173.26660;,
 18.32620;139.70380;-110.65020;,
 -2.07360;183.18420;-177.44380;,
 -1.76580;134.23360;-114.82740;,
 -13.28480;165.67841;-191.07381;,
 -12.97720;116.72800;-128.45779;,
 -9.04760;146.39120;-206.17281;,
 -8.73960;97.44100;-143.55659;,
 8.15600;136.62080;-213.89500;,
 8.46340;87.67040;-151.27859;,
 28.24860;142.09019;-209.71820;,
 28.55580;93.14000;-147.10159;,
 39.45980;159.59579;-196.08780;,
 39.76700;110.64580;-133.47180;,
 13.08740;162.63660;-193.58080;,
 13.08740;162.63660;-193.58080;,
 13.08740;162.63660;-193.58080;,
 13.08740;162.63660;-193.58080;,
 13.08740;162.63660;-193.58080;,
 13.08740;162.63660;-193.58080;,
 13.08740;162.63660;-193.58080;,
 13.08740;162.63660;-193.58080;,
 13.39460;113.68700;-130.96460;,
 13.39460;113.68700;-130.96460;,
 13.39460;113.68700;-130.96460;,
 13.39460;113.68700;-130.96460;,
 13.39460;113.68700;-130.96460;,
 13.39460;113.68700;-130.96460;,
 13.39460;113.68700;-130.96460;,
 13.39460;113.68700;-130.96460;,
 28.82500;855.76080;-1059.52795;,
 47.15840;943.42938;-991.04657;,
 16.79920;946.93103;-988.16119;,
 -1.53400;859.26257;-1056.64221;,
 47.15840;943.42938;-991.04657;,
 46.75940;1006.87457;-1072.20386;,
 16.40060;1010.37598;-1069.31824;,
 16.79920;946.93103;-988.16119;,
 46.75940;1006.87457;-1072.20386;,
 28.42660;919.20618;-1140.68506;,
 -1.93220;922.70642;-1137.79797;,
 16.40060;1010.37598;-1069.31824;,
 28.42660;919.20618;-1140.68506;,
 28.82500;855.76080;-1059.52795;,
 -1.53400;859.26257;-1056.64221;,
 -1.93220;922.70642;-1137.79797;,
 47.15840;943.42938;-991.04657;,
 28.82500;855.76080;-1059.52795;,
 -1.53400;859.26257;-1056.64221;,
 16.79920;946.93103;-988.16119;,
 29.36400;770.01001;-949.83600;,
 47.69700;857.67761;-881.35480;,
 17.33800;861.17877;-878.46881;,
 -0.99520;773.51099;-946.94940;,
 47.69700;857.67761;-881.35480;,
 47.29840;921.12201;-962.51178;,
 16.93940;924.62280;-959.62543;,
 17.33800;861.17877;-878.46881;,
 47.29840;921.12201;-962.51178;,
 28.96520;833.45361;-1030.99255;,
 -1.39340;836.95502;-1028.10645;,
 16.93940;924.62280;-959.62543;,
 28.96520;833.45361;-1030.99255;,
 29.36400;770.01001;-949.83600;,
 -0.99520;773.51099;-946.94940;,
 -1.39340;836.95502;-1028.10645;,
 47.69700;857.67761;-881.35480;,
 29.36400;770.01001;-949.83600;,
 -0.99520;773.51099;-946.94940;,
 17.33800;861.17877;-878.46881;,
 29.97180;673.21722;-826.02081;,
 46.68000;761.36462;-757.19397;,
 16.32100;764.86560;-754.30823;,
 -0.38700;676.71838;-823.13458;,
 46.68000;761.36462;-757.19397;,
 46.28140;824.80920;-838.35120;,
 15.92240;828.30981;-835.46521;,
 16.32100;764.86560;-754.30823;,
 46.28140;824.80920;-838.35120;,
 29.57340;736.66199;-907.17761;,
 -0.78560;740.16302;-904.29181;,
 15.92240;828.30981;-835.46521;,
 29.57340;736.66199;-907.17761;,
 29.97180;673.21722;-826.02081;,
 -0.38700;676.71838;-823.13458;,
 -0.78560;740.16302;-904.29181;,
 46.68000;761.36462;-757.19397;,
 29.97180;673.21722;-826.02081;,
 -0.38700;676.71838;-823.13458;,
 16.32100;764.86560;-754.30823;,
 28.29180;940.66937;-1168.14136;,
 48.23720;1027.86304;-1100.00354;,
 17.87820;1031.36475;-1097.11816;,
 -2.06720;944.17102;-1165.25500;,
 48.23720;1027.86304;-1100.00354;,
 47.83880;1091.30823;-1181.16064;,
 17.47980;1094.80896;-1178.27466;,
 17.87820;1031.36475;-1097.11816;,
 47.83880;1091.30823;-1181.16064;,
 27.89300;1004.11481;-1249.29822;,
 -2.46600;1007.61542;-1246.41223;,
 17.47980;1094.80896;-1178.27466;,
 27.89300;1004.11481;-1249.29822;,
 28.29180;940.66937;-1168.14136;,
 -2.06720;944.17102;-1165.25500;,
 -2.46600;1007.61542;-1246.41223;,
 48.23720;1027.86304;-1100.00354;,
 28.29180;940.66937;-1168.14136;,
 -2.06720;944.17102;-1165.25500;,
 17.87820;1031.36475;-1097.11816;,
 27.75600;1025.92639;-1277.19958;,
 47.70180;1113.11963;-1209.06262;,
 17.34280;1116.62097;-1206.17664;,
 -2.60300;1029.42786;-1274.31396;,
 47.70180;1113.11963;-1209.06262;,
 47.30320;1176.56421;-1290.21985;,
 16.94420;1180.06555;-1287.33374;,
 17.34280;1116.62097;-1206.17664;,
 47.30320;1176.56421;-1290.21985;,
 27.35760;1089.37085;-1358.35718;,
 -3.00140;1092.87195;-1355.47095;,
 16.94420;1180.06555;-1287.33374;,
 27.35760;1089.37085;-1358.35718;,
 27.75600;1025.92639;-1277.19958;,
 -2.60300;1029.42786;-1274.31396;,
 -3.00140;1092.87195;-1355.47095;,
 47.70180;1113.11963;-1209.06262;,
 27.75600;1025.92639;-1277.19958;,
 -2.60300;1029.42786;-1274.31396;,
 17.34280;1116.62097;-1206.17664;,
 27.26100;1104.71716;-1377.98755;,
 27.80140;1189.23706;-1312.61438;,
 -2.55800;1192.73804;-1309.72803;,
 -3.09800;1108.21765;-1375.10095;,
 27.80140;1189.23706;-1312.61438;,
 22.36840;1219.55444;-1423.24280;,
 -7.99060;1223.05518;-1420.35681;,
 -2.55800;1192.73804;-1309.72803;,
 22.36840;1219.55444;-1423.24280;,
 28.37640;1176.14746;-1452.90796;,
 -1.98280;1179.64819;-1450.02197;,
 -7.99060;1223.05518;-1420.35681;,
 28.37640;1176.14746;-1452.90796;,
 27.26100;1104.71716;-1377.98755;,
 -3.09800;1108.21765;-1375.10095;,
 -1.98280;1179.64819;-1450.02197;,
 27.80140;1189.23706;-1312.61438;,
 27.26100;1104.71716;-1377.98755;,
 -3.09800;1108.21765;-1375.10095;,
 -2.55800;1192.73804;-1309.72803;,
 40.41200;8.01440;-2.18720;,
 36.17480;27.30180;12.91120;,
 36.48220;-21.64800;75.52680;,
 40.71940;-40.93620;60.42920;,
 18.97100;37.07240;20.63360;,
 19.27840;-11.87760;83.24980;,
 -1.12100;31.60280;16.45620;,
 -0.81360;-17.34680;79.07240;,
 -12.33240;14.09700;2.82700;,
 -12.02500;-34.85360;65.44360;,
 -8.09520;-5.19040;-12.27240;,
 -7.78760;-54.14040;50.34400;,
 9.10840;-14.96100;-19.99460;,
 9.41580;-63.91080;42.62100;,
 29.20080;-9.49120;-15.81780;,
 29.50820;-58.44140;46.79840;,
 40.41200;8.01440;-2.18720;,
 40.71940;-40.93620;60.42920;,
 14.03960;11.05580;0.31980;,
 14.03960;11.05580;0.31980;,
 14.03960;11.05580;0.31980;,
 14.03960;11.05580;0.31980;,
 14.03960;11.05580;0.31980;,
 14.03960;11.05580;0.31980;,
 14.03960;11.05580;0.31980;,
 14.03960;11.05580;0.31980;,
 14.34720;-37.89500;62.93640;,
 14.34720;-37.89500;62.93640;,
 14.34720;-37.89500;62.93640;,
 14.34720;-37.89500;62.93640;,
 14.34720;-37.89500;62.93640;,
 14.34720;-37.89500;62.93640;,
 14.34720;-37.89500;62.93640;,
 14.34720;-37.89500;62.93640;,
 32.56700;260.17319;-297.66141;,
 50.02080;352.25580;-225.76221;,
 19.66180;355.75681;-222.87601;,
 2.20780;263.67441;-294.77521;,
 50.02080;352.25580;-225.76221;,
 49.62240;415.69901;-306.91800;,
 19.26300;419.20001;-304.03201;,
 19.66180;355.75681;-222.87601;,
 49.62240;415.69901;-306.91800;,
 32.16820;323.61740;-378.81741;,
 1.80940;327.11819;-375.93161;,
 19.26300;419.20001;-304.03201;,
 32.16820;323.61740;-378.81741;,
 32.56700;260.17319;-297.66141;,
 2.20780;263.67441;-294.77521;,
 1.80940;327.11819;-375.93161;,
 50.02080;352.25580;-225.76221;,
 32.56700;260.17319;-297.66141;,
 2.20780;263.67441;-294.77521;,
 19.66180;355.75681;-222.87601;,
 40.97360;-81.41840;112.21400;,
 36.73620;-62.13100;127.31200;,
 37.04400;-111.08060;189.92799;,
 41.28120;-130.36861;174.82961;,
 19.53280;-52.36060;135.03481;,
 19.84060;-101.31100;197.65120;,
 -0.55920;-57.83020;130.85719;,
 -0.25160;-106.78040;193.47360;,
 -11.77040;-75.33600;117.22780;,
 -11.46300;-124.28580;179.84360;,
 -7.53340;-94.62320;102.12900;,
 -7.22580;-143.57280;164.74460;,
 9.67040;-104.39320;94.40600;,
 9.97780;-153.34399;157.02240;,
 29.76240;-98.92400;98.58340;,
 30.06980;-147.87360;161.19940;,
 40.97360;-81.41840;112.21400;,
 41.28120;-130.36861;174.82961;,
 14.60160;-78.37680;114.72060;,
 14.60160;-78.37680;114.72060;,
 14.60160;-78.37680;114.72060;,
 14.60160;-78.37680;114.72060;,
 14.60160;-78.37680;114.72060;,
 14.60160;-78.37680;114.72060;,
 14.60160;-78.37680;114.72060;,
 14.60160;-78.37680;114.72060;,
 14.90900;-127.32720;177.33681;,
 14.90900;-127.32720;177.33681;,
 14.90900;-127.32720;177.33681;,
 14.90900;-127.32720;177.33681;,
 14.90900;-127.32720;177.33681;,
 14.90900;-127.32720;177.33681;,
 14.90900;-127.32720;177.33681;,
 14.90900;-127.32720;177.33681;,
 31.80360;381.65479;-453.05859;,
 48.79900;471.31619;-383.04959;,
 18.43980;474.81741;-380.16379;,
 1.44440;385.15579;-450.17239;,
 48.79900;471.31619;-383.04959;,
 47.25100;717.66980;-698.18103;,
 16.89180;721.17041;-695.29480;,
 18.43980;474.81741;-380.16379;,
 47.25100;717.66980;-698.18103;,
 30.25600;628.00861;-768.19043;,
 -0.10300;631.50922;-765.30420;,
 16.89180;721.17041;-695.29480;,
 30.25600;628.00861;-768.19043;,
 31.80360;381.65479;-453.05859;,
 1.44440;385.15579;-450.17239;,
 -0.10300;631.50922;-765.30420;,
 48.79900;471.31619;-383.04959;,
 31.80360;381.65479;-453.05859;,
 1.44440;385.15579;-450.17239;,
 18.43980;474.81741;-380.16379;,
 39.91700;86.77500;-102.93680;,
 35.67980;106.06220;-87.83800;,
 35.98740;57.11220;-25.22160;,
 40.22460;37.82500;-40.32020;,
 18.47620;115.83280;-80.11500;,
 18.78400;66.88240;-17.49920;,
 -1.61600;110.36320;-84.29260;,
 -1.30840;61.41320;-21.67620;,
 -12.82740;92.85740;-97.92300;,
 -12.51960;43.90700;-35.30620;,
 -8.58980;73.57020;-113.02140;,
 -8.28260;24.62000;-50.40460;,
 8.61360;63.79980;-120.74360;,
 8.92100;14.84960;-58.12740;,
 28.70600;69.26940;-116.56640;,
 29.01360;20.31860;-53.95000;,
 39.91700;86.77500;-102.93680;,
 40.22460;37.82500;-40.32020;,
 13.54500;89.81620;-100.42980;,
 13.54500;89.81620;-100.42980;,
 13.54500;89.81620;-100.42980;,
 13.54500;89.81620;-100.42980;,
 13.54500;89.81620;-100.42980;,
 13.54500;89.81620;-100.42980;,
 13.54500;89.81620;-100.42980;,
 13.54500;89.81620;-100.42980;,
 13.85240;40.86600;-37.81300;,
 13.85240;40.86600;-37.81300;,
 13.85240;40.86600;-37.81300;,
 13.85240;40.86600;-37.81300;,
 13.85240;40.86600;-37.81300;,
 13.85240;40.86600;-37.81300;,
 13.85240;40.86600;-37.81300;,
 13.85240;40.86600;-37.81300;;
 
 352;
 4;0,1,2,3;,
 4;0,3,4,5;,
 4;6,7,8,9;,
 4;6,9,10,11;,
 4;12,5,4,13;,
 4;12,13,14,15;,
 4;16,17,18,19;,
 4;16,19,8,7;,
 4;20,21,22,23;,
 4;20,23,24,25;,
 4;26,27,28,29;,
 4;26,29,30,31;,
 4;29,28,32,33;,
 4;29,33,34,30;,
 4;33,32,35,36;,
 4;33,36,37,34;,
 4;36,35,38,39;,
 4;36,39,40,37;,
 4;41,42,43,44;,
 4;41,44,45,46;,
 4;47,48,49,50;,
 4;47,50,51,52;,
 4;44,43,53,54;,
 4;44,54,55,45;,
 4;56,57,58,59;,
 4;56,59,60,61;,
 4;54,53,60,59;,
 4;54,59,58,55;,
 4;62,63,64,65;,
 4;62,65,66,67;,
 4;68,69,70,71;,
 4;68,71,72,73;,
 4;74,75,76,77;,
 4;74,77,78,79;,
 4;71,70,80,81;,
 4;71,81,82,72;,
 4;77,76,83,84;,
 4;77,84,85,78;,
 4;86,87,88,89;,
 4;86,89,90,91;,
 4;92,67,66,93;,
 4;92,93,94,95;,
 4;96,97,98,99;,
 4;96,99,70,69;,
 4;100,79,78,101;,
 4;100,101,102,103;,
 4;99,98,104,105;,
 4;99,105,80,70;,
 4;101,78,85,106;,
 4;101,106,107,102;,
 4;108,109,110,111;,
 4;108,111,88,87;,
 4;112,95,94,113;,
 4;112,113,114,115;,
 4;116,117,118,119;,
 4;116,119,98,97;,
 4;120,103,102,121;,
 4;120,121,122,123;,
 4;119,118,124,125;,
 4;119,125,104,98;,
 4;121,102,107,126;,
 4;121,126,127,122;,
 4;128,129,130,131;,
 4;128,131,110,109;,
 4;132,115,114,133;,
 4;132,133,134,135;,
 4;136,137,138,139;,
 4;136,139,118,117;,
 4;140,123,122,141;,
 4;140,141,142,143;,
 4;139,138,144,145;,
 4;139,145,124,118;,
 4;141,122,127,146;,
 4;141,146,147,142;,
 4;148,149,150,151;,
 4;148,151,130,129;,
 4;152,135,134,153;,
 4;152,153,154,155;,
 4;156,157,158,159;,
 4;156,159,138,137;,
 4;160,143,142,161;,
 4;160,161,162,163;,
 4;159,158,164,165;,
 4;159,165,144,138;,
 4;161,142,147,166;,
 4;161,166,167,162;,
 4;168,169,170,171;,
 4;168,171,150,149;,
 4;172,155,154,173;,
 4;172,173,2,1;,
 4;174,27,26,175;,
 4;174,175,158,157;,
 4;176,163,162,177;,
 4;176,177,41,46;,
 4;175,26,31,178;,
 4;175,178,164,158;,
 4;177,162,167,179;,
 4;177,179,42,41;,
 4;180,11,10,181;,
 4;180,181,170,169;,
 4;182,73,72,183;,
 4;182,183,184,185;,
 4;186,185,187,188;,
 4;186,188,64,63;,
 4;183,72,82,189;,
 4;183,189,190,184;,
 4;191,187,192,193;,
 4;191,193,76,75;,
 4;194,91,90,195;,
 4;194,195,196,190;,
 4;193,192,196,197;,
 4;193,197,83,76;,
 3;198,199,200;,
 3;201,202,199;,
 3;203,204,202;,
 3;205,206,204;,
 3;207,208,206;,
 3;209,210,208;,
 3;211,212,210;,
 3;213,214,212;,
 3;215,216,217;,
 3;218,217,219;,
 3;220,219,221;,
 3;222,221,223;,
 3;224,223,225;,
 3;226,225,227;,
 3;228,227,229;,
 3;230,229,231;,
 4;232,233,210,212;,
 4;232,212,214,234;,
 4;233,235,208,210;,
 4;236,200,199,237;,
 4;235,238,206,208;,
 4;237,199,202,239;,
 4;238,240,204,206;,
 4;239,202,204,240;,
 4;241,242,233,232;,
 4;241,232,234,243;,
 4;242,244,235,233;,
 4;245,236,237,246;,
 4;244,247,238,235;,
 4;246,237,239,248;,
 4;247,249,240,238;,
 4;248,239,240,249;,
 4;250,251,242,241;,
 4;250,241,243,252;,
 4;251,253,244,242;,
 4;254,245,246,255;,
 4;253,256,247,244;,
 4;255,246,248,257;,
 4;256,258,249,247;,
 4;257,248,249,258;,
 4;259,260,251,250;,
 4;259,250,252,261;,
 4;260,262,253,251;,
 4;263,254,255,264;,
 4;262,265,256,253;,
 4;264,255,257,266;,
 4;265,267,258,256;,
 4;266,257,258,267;,
 4;268,269,260,259;,
 4;268,259,261,270;,
 4;269,271,262,260;,
 4;272,263,264,273;,
 4;271,274,265,262;,
 4;273,264,266,275;,
 4;274,276,267,265;,
 4;275,266,267,276;,
 4;277,278,269,268;,
 4;277,268,270,279;,
 4;278,280,271,269;,
 4;281,272,273,282;,
 4;280,283,274,271;,
 4;282,273,275,284;,
 4;283,285,276,274;,
 4;284,275,276,285;,
 4;286,287,278,277;,
 4;286,277,279,288;,
 4;287,289,280,278;,
 4;290,281,282,291;,
 4;289,292,283,280;,
 4;291,282,284,293;,
 4;292,294,285,283;,
 4;293,284,285,294;,
 4;295,296,287,286;,
 4;295,286,288,297;,
 4;296,298,289,287;,
 4;299,290,291,300;,
 4;298,301,292,289;,
 4;300,291,293,302;,
 4;301,303,294,292;,
 4;302,293,294,303;,
 4;304,229,227,305;,
 4;304,305,296,295;,
 4;304,295,297,306;,
 4;304,306,231,229;,
 4;305,227,225,307;,
 4;305,307,298,296;,
 4;308,299,300,309;,
 4;308,309,217,216;,
 4;307,225,223,310;,
 4;307,310,301,298;,
 4;309,300,302,311;,
 4;309,311,219,217;,
 4;310,223,221,312;,
 4;310,312,303,301;,
 4;311,302,303,312;,
 4;311,312,221,219;,
 4;313,314,315,316;,
 4;314,317,318,315;,
 4;317,319,320,318;,
 4;319,321,322,320;,
 4;321,323,324,322;,
 4;323,325,326,324;,
 4;325,327,328,326;,
 4;327,329,330,328;,
 3;331,314,313;,
 3;332,317,314;,
 3;333,319,317;,
 3;334,321,319;,
 3;335,323,321;,
 3;336,325,323;,
 3;337,327,325;,
 3;338,329,327;,
 3;339,316,315;,
 3;340,315,318;,
 3;341,318,320;,
 3;342,320,322;,
 3;343,322,324;,
 3;344,324,326;,
 3;345,326,328;,
 3;346,328,330;,
 4;347,348,349,350;,
 4;351,352,353,354;,
 4;355,356,357,358;,
 4;359,360,361,362;,
 4;359,352,363,364;,
 4;365,366,353,362;,
 4;367,368,369,370;,
 4;371,372,373,374;,
 4;375,376,377,378;,
 4;379,380,381,382;,
 4;379,372,383,384;,
 4;385,386,373,382;,
 4;387,388,389,390;,
 4;391,392,393,394;,
 4;395,396,397,398;,
 4;399,400,401,402;,
 4;399,392,403,404;,
 4;405,406,393,402;,
 4;407,408,409,410;,
 4;411,412,413,414;,
 4;415,416,417,418;,
 4;419,420,421,422;,
 4;419,412,423,424;,
 4;425,426,413,422;,
 4;427,428,429,430;,
 4;431,432,433,434;,
 4;435,436,437,438;,
 4;439,440,441,442;,
 4;439,432,443,444;,
 4;445,446,433,442;,
 4;447,448,449,450;,
 4;451,452,453,454;,
 4;455,456,457,458;,
 4;459,460,461,462;,
 4;459,452,463,464;,
 4;465,466,453,462;,
 4;467,468,469,470;,
 4;468,471,472,469;,
 4;471,473,474,472;,
 4;473,475,476,474;,
 4;475,477,478,476;,
 4;477,479,480,478;,
 4;479,481,482,480;,
 4;481,483,484,482;,
 3;485,468,467;,
 3;486,471,468;,
 3;487,473,471;,
 3;488,475,473;,
 3;489,477,475;,
 3;490,479,477;,
 3;491,481,479;,
 3;492,483,481;,
 3;493,470,469;,
 3;494,469,472;,
 3;495,472,474;,
 3;496,474,476;,
 3;497,476,478;,
 3;498,478,480;,
 3;499,480,482;,
 3;500,482,484;,
 4;501,502,503,504;,
 4;505,506,507,508;,
 4;509,510,511,512;,
 4;513,514,515,516;,
 4;513,506,517,518;,
 4;519,520,507,516;,
 4;521,522,523,524;,
 4;522,525,526,523;,
 4;525,527,528,526;,
 4;527,529,530,528;,
 4;529,531,532,530;,
 4;531,533,534,532;,
 4;533,535,536,534;,
 4;535,537,538,536;,
 3;539,522,521;,
 3;540,525,522;,
 3;541,527,525;,
 3;542,529,527;,
 3;543,531,529;,
 3;544,533,531;,
 3;545,535,533;,
 3;546,537,535;,
 3;547,524,523;,
 3;548,523,526;,
 3;549,526,528;,
 3;550,528,530;,
 3;551,530,532;,
 3;552,532,534;,
 3;553,534,536;,
 3;554,536,538;,
 4;555,556,557,558;,
 4;559,560,561,562;,
 4;563,564,565,566;,
 4;567,568,569,570;,
 4;567,560,571,572;,
 4;573,574,561,570;,
 4;575,576,577,578;,
 4;576,579,580,577;,
 4;579,581,582,580;,
 4;581,583,584,582;,
 4;583,585,586,584;,
 4;585,587,588,586;,
 4;587,589,590,588;,
 4;589,591,592,590;,
 3;593,576,575;,
 3;594,579,576;,
 3;595,581,579;,
 3;596,583,581;,
 3;597,585,583;,
 3;598,587,585;,
 3;599,589,587;,
 3;600,591,589;,
 3;601,578,577;,
 3;602,577,580;,
 3;603,580,582;,
 3;604,582,584;,
 3;605,584,586;,
 3;606,586,588;,
 3;607,588,590;,
 3;608,590,592;;
 
 MeshMaterialList {
  9;
  352;
  8,
  8,
  8,
  8,
  8,
  8,
  8,
  8,
  8,
  8,
  1,
  2,
  1,
  2,
  1,
  2,
  1,
  2,
  2,
  1,
  8,
  8,
  2,
  1,
  1,
  2,
  2,
  1,
  8,
  8,
  1,
  1,
  1,
  1,
  2,
  2,
  2,
  2,
  8,
  8,
  8,
  8,
  1,
  1,
  1,
  1,
  2,
  2,
  2,
  2,
  8,
  8,
  8,
  8,
  1,
  1,
  1,
  1,
  2,
  2,
  2,
  2,
  8,
  8,
  8,
  8,
  1,
  1,
  1,
  1,
  2,
  2,
  2,
  2,
  8,
  8,
  8,
  8,
  1,
  1,
  1,
  1,
  2,
  2,
  2,
  2,
  8,
  8,
  8,
  8,
  1,
  1,
  1,
  1,
  2,
  2,
  2,
  2,
  8,
  8,
  1,
  1,
  8,
  8,
  2,
  2,
  1,
  1,
  8,
  8,
  2,
  2,
  0,
  0,
  0,
  0,
  0,
  0,
  0,
  0,
  0,
  0,
  0,
  0,
  0,
  0,
  0,
  0,
  0,
  0,
  0,
  0,
  0,
  0,
  0,
  0,
  0,
  0,
  0,
  0,
  0,
  0,
  0,
  0,
  0,
  0,
  0,
  0,
  0,
  0,
  0,
  0,
  0,
  0,
  0,
  0,
  0,
  0,
  0,
  0,
  0,
  0,
  0,
  0,
  0,
  0,
  0,
  0,
  0,
  0,
  0,
  0,
  0,
  0,
  0,
  0,
  0,
  0,
  0,
  0,
  0,
  0,
  0,
  0,
  0,
  0,
  0,
  0,
  0,
  0,
  0,
  0,
  0,
  0,
  0,
  0,
  0,
  0,
  0,
  0,
  0,
  0,
  0,
  0,
  0,
  0,
  0,
  0,
  0,
  0,
  0,
  0,
  0,
  0,
  0,
  0,
  0,
  0,
  0,
  0,
  0,
  0,
  0,
  0,
  0,
  0,
  0,
  0,
  0,
  0,
  0,
  0,
  1,
  1,
  1,
  1,
  1,
  1,
  1,
  1,
  1,
  1,
  1,
  1,
  1,
  1,
  1,
  1,
  1,
  1,
  1,
  1,
  1,
  1,
  1,
  1,
  1,
  1,
  1,
  1,
  1,
  1,
  1,
  1,
  1,
  1,
  1,
  1,
  0,
  0,
  0,
  0,
  0,
  0,
  0,
  0,
  0,
  0,
  0,
  0,
  0,
  0,
  0,
  0,
  0,
  0,
  0,
  0,
  0,
  0,
  0,
  0,
  1,
  1,
  1,
  1,
  1,
  1,
  0,
  0,
  0,
  0,
  0,
  0,
  0,
  0,
  0,
  0,
  0,
  0,
  0,
  0,
  0,
  0,
  0,
  0,
  0,
  0,
  0,
  0,
  0,
  0,
  1,
  1,
  1,
  1,
  1,
  1,
  0,
  0,
  0,
  0,
  0,
  0,
  0,
  0,
  0,
  0,
  0,
  0,
  0,
  0,
  0,
  0,
  0,
  0,
  0,
  0,
  0,
  0,
  0,
  0;;
  Material {
   0.228800;0.140800;0.050400;1.000000;;
   5.000000;
   0.000000;0.000000;0.000000;;
   0.000000;0.000000;0.000000;;
  }
  Material {
   0.800000;0.238400;0.065600;1.000000;;
   5.000000;
   0.000000;0.000000;0.000000;;
   0.000000;0.000000;0.000000;;
  }
  Material {
   0.800000;0.530400;0.100000;1.000000;;
   5.000000;
   0.000000;0.000000;0.000000;;
   0.000000;0.000000;0.000000;;
  }
  Material {
   0.536800;0.091200;0.060000;1.000000;;
   5.000000;
   0.000000;0.000000;0.000000;;
   0.000000;0.000000;0.000000;;
  }
  Material {
   0.640000;0.392000;0.000000;1.000000;;
   5.000000;
   0.000000;0.000000;0.000000;;
   0.000000;0.000000;0.000000;;
  }
  Material {
   0.241600;0.432800;0.800000;1.000000;;
   5.000000;
   0.000000;0.000000;0.000000;;
   0.000000;0.000000;0.000000;;
  }
  Material {
   0.800000;0.800000;0.800000;1.000000;;
   5.000000;
   0.000000;0.000000;0.000000;;
   0.000000;0.000000;0.000000;;
  }
  Material {
   0.800000;0.800000;0.800000;1.000000;;
   5.000000;
   0.000000;0.000000;0.000000;;
   0.000000;0.000000;0.000000;;
  }
  Material {
   1.000000;1.000000;1.000000;1.000000;;
   0.000000;
   0.000000;0.000000;0.000000;;
   0.000000;0.000000;0.000000;;
  }
 }
 MeshNormals {
  415;
  -0.133392;-0.962804;-0.234979;,
  0.147381;0.712757;0.685752;,
  -0.185667;0.929022;-0.320070;,
  0.000764;0.615576;-0.788077;,
  -0.147775;-0.779536;-0.608676;,
  0.147757;0.779538;0.608677;,
  0.146426;0.842452;0.518492;,
  0.880118;-0.366195;-0.302147;,
  -0.996580;-0.061821;-0.054837;,
  0.147557;0.798867;0.583128;,
  0.894964;-0.351888;-0.274254;,
  -0.997708;-0.055599;-0.038564;,
  0.147804;0.760663;0.632097;,
  0.894954;-0.349354;-0.277503;,
  -0.997708;-0.055599;-0.038565;,
  0.147699;0.786806;0.599268;,
  0.894956;-0.349353;-0.277501;,
  -0.997708;-0.055599;-0.038563;,
  0.147756;0.778596;0.609882;,
  0.894956;-0.349352;-0.277501;,
  -0.997708;-0.055596;-0.038564;,
  0.147759;0.779538;0.608676;,
  0.894955;-0.349354;-0.277502;,
  -0.997708;-0.055602;-0.038565;,
  0.147763;0.779537;0.608677;,
  -0.218291;-0.768756;-0.601135;,
  0.147757;0.779538;0.608678;,
  -0.171361;-0.775991;-0.607020;,
  0.147762;0.747119;0.648058;,
  -0.143742;-0.890694;-0.431280;,
  0.962502;-0.185092;-0.198322;,
  0.954042;-0.235778;-0.184964;,
  -0.029213;0.745165;-0.666240;,
  0.953727;-0.234591;-0.188076;,
  0.953727;-0.234592;-0.188076;,
  -0.999802;-0.019662;0.003103;,
  0.953727;-0.234591;-0.188075;,
  -0.999179;0.029398;0.027889;,
  0.953727;-0.234591;-0.188075;,
  -0.999179;0.029398;0.027889;,
  0.953727;-0.234591;-0.188075;,
  -0.997311;0.047501;0.055799;,
  0.953727;-0.234591;-0.188075;,
  -0.998686;0.044330;0.025714;,
  0.953727;-0.234591;-0.188075;,
  -0.999179;0.029397;0.027889;,
  0.948379;-0.260823;-0.180413;,
  -0.999240;0.027604;0.027529;,
  0.942251;-0.287034;-0.172555;,
  -0.999361;0.025027;0.025515;,
  0.003868;-0.615884;0.787828;,
  -0.999421;0.024244;0.023862;,
  -0.998038;0.046515;0.041910;,
  0.145833;0.649390;0.746341;,
  0.955327;-0.225138;-0.191475;,
  -0.999536;0.018048;0.024536;,
  0.887681;-0.360231;-0.286803;,
  -0.997682;-0.048028;-0.048215;,
  0.147760;0.779308;0.608971;,
  0.953727;-0.234591;-0.188076;,
  -0.999179;0.029398;0.027890;,
  0.894955;-0.349353;-0.277503;,
  -0.997708;-0.055599;-0.038563;,
  0.147751;0.779490;0.608740;,
  0.953727;-0.234592;-0.188076;,
  -0.998601;0.030957;0.042870;,
  0.894955;-0.349354;-0.277502;,
  -0.997708;-0.055598;-0.038565;,
  0.147755;0.779434;0.608811;,
  0.953727;-0.234591;-0.188076;,
  -0.997397;0.060909;0.038596;,
  0.894956;-0.349352;-0.277502;,
  -0.997708;-0.055598;-0.038564;,
  0.147754;0.779539;0.608677;,
  0.953727;-0.234590;-0.188075;,
  -0.999179;0.029398;0.027890;,
  0.894956;-0.349352;-0.277501;,
  -0.997708;-0.055599;-0.038563;,
  0.147764;0.779538;0.608676;,
  0.953727;-0.234591;-0.188074;,
  -0.999179;0.029397;0.027889;,
  0.894955;-0.349354;-0.277502;,
  -0.997708;-0.055601;-0.038565;,
  0.988000;0.141416;-0.062105;,
  0.973165;-0.122749;-0.194636;,
  -0.094215;0.994997;-0.033241;,
  0.873557;-0.375402;-0.309794;,
  -0.998749;-0.038181;-0.032284;,
  -0.220785;-0.745512;-0.628861;,
  -0.184312;0.626358;-0.757433;,
  -0.184311;0.626362;-0.757430;,
  -0.184322;0.626355;-0.757434;,
  -0.184296;0.626360;-0.757435;,
  -0.184297;0.626340;-0.757451;,
  -0.184326;0.626350;-0.757436;,
  -0.184305;0.626369;-0.757426;,
  -0.184314;0.626358;-0.757433;,
  -0.184324;0.626366;-0.757423;,
  0.184345;-0.626349;0.757432;,
  0.184323;-0.626358;0.757430;,
  0.184279;-0.626345;0.757452;,
  0.184254;-0.626344;0.757458;,
  0.184256;-0.626341;0.757461;,
  0.184277;-0.626353;0.757445;,
  0.184288;-0.626368;0.757430;,
  0.184313;-0.626348;0.757441;,
  0.184292;-0.626351;0.757444;,
  0.656655;-0.591835;-0.467478;,
  -0.147762;-0.779535;-0.608680;,
  0.989009;-0.113037;-0.095306;,
  -0.848408;-0.419809;-0.322436;,
  0.848413;0.419804;0.322430;,
  -0.989008;0.113044;0.095312;,
  0.147762;0.779538;0.608677;,
  -0.656658;0.591834;0.467475;,
  0.656659;-0.591833;-0.467475;,
  -0.147763;-0.779536;-0.608678;,
  0.989009;-0.113038;-0.095308;,
  -0.848410;-0.419806;-0.322434;,
  0.848413;0.419804;0.322429;,
  -0.989008;0.113043;0.095310;,
  0.147759;0.779538;0.608677;,
  -0.656659;0.591833;0.467474;,
  0.656656;-0.591835;-0.467476;,
  -0.147763;-0.779538;-0.608677;,
  0.989008;-0.113041;-0.095310;,
  -0.848409;-0.419809;-0.322433;,
  0.848414;0.419802;0.322428;,
  -0.989008;0.113042;0.095312;,
  0.147760;0.779537;0.608678;,
  -0.656658;0.591832;0.467477;,
  0.656654;-0.591837;-0.467477;,
  -0.147763;-0.779537;-0.608677;,
  0.989009;-0.113041;-0.095309;,
  -0.848408;-0.419809;-0.322435;,
  0.848413;0.419804;0.322428;,
  -0.989008;0.113045;0.095312;,
  0.147758;0.779539;0.608676;,
  -0.656659;0.591834;0.467474;,
  0.656655;-0.591835;-0.467478;,
  -0.147762;-0.779538;-0.608676;,
  0.989009;-0.113037;-0.095310;,
  -0.848410;-0.419808;-0.322431;,
  0.848409;0.419810;0.322431;,
  -0.989008;0.113046;0.095313;,
  0.147755;0.779541;0.608674;,
  -0.656658;0.591836;0.467472;,
  0.656658;-0.591833;-0.467477;,
  -0.147758;-0.779537;-0.608678;,
  0.989008;-0.113040;-0.095312;,
  -0.848413;-0.419803;-0.322430;,
  0.848408;0.419811;0.322432;,
  -0.989007;0.113047;0.095316;,
  0.147755;0.779539;0.608676;,
  -0.656657;0.591834;0.467476;,
  0.656659;-0.591833;-0.467476;,
  -0.147751;-0.779538;-0.608679;,
  0.989008;-0.113042;-0.095313;,
  -0.848411;-0.419805;-0.322433;,
  0.848410;0.419807;0.322433;,
  -0.989007;0.113049;0.095315;,
  0.147756;0.779536;0.608681;,
  -0.656657;0.591834;0.467477;,
  0.656656;-0.591835;-0.467477;,
  -0.147757;-0.779539;-0.608676;,
  0.989008;-0.113043;-0.095309;,
  -0.848410;-0.419811;-0.322429;,
  0.848408;0.419808;0.322437;,
  -0.989008;0.113043;0.095315;,
  0.147760;0.779536;0.608679;,
  -0.656653;0.591836;0.467479;,
  0.656655;-0.591838;-0.467475;,
  -0.147763;-0.779539;-0.608675;,
  0.989009;-0.113040;-0.095306;,
  -0.848410;-0.419809;-0.322430;,
  0.848404;0.419813;0.322440;,
  -0.989008;0.113041;0.095313;,
  0.147758;0.779537;0.608678;,
  -0.656651;0.591837;0.467480;,
  -0.003865;0.615886;-0.787826;,
  0.989016;-0.114054;-0.094014;,
  0.848443;0.419002;0.323390;,
  0.147756;0.779538;0.608679;,
  -0.656704;0.592573;0.466472;,
  -0.989016;0.114049;0.094020;,
  -0.848438;-0.419011;-0.323392;,
  -0.147763;-0.779538;-0.608676;,
  0.656694;-0.592584;-0.466473;,
  0.003868;-0.615886;0.787826;,
  0.003806;-0.616079;0.787675;,
  0.147762;0.779535;0.608680;,
  -0.003845;0.616078;-0.787676;,
  0.003837;-0.616085;0.787670;,
  0.147761;0.779538;0.608677;,
  -0.003835;0.616083;-0.787672;,
  0.003868;-0.615881;0.787830;,
  0.147751;0.779539;0.608678;,
  -0.003870;0.615882;-0.787829;,
  0.003778;-0.616273;0.787524;,
  0.147758;0.779536;0.608680;,
  -0.003801;0.616278;-0.787519;,
  0.003782;-0.616275;0.787522;,
  0.147768;0.779537;0.608677;,
  -0.003795;0.616276;-0.787521;,
  0.004655;-0.611823;0.790981;,
  0.134704;0.957317;0.255733;,
  -0.013652;0.562897;-0.826414;,
  -0.003868;0.615882;-0.787829;,
  0.989016;-0.114054;-0.094017;,
  0.848440;0.419006;0.323393;,
  0.147754;0.779539;0.608676;,
  -0.656696;0.592582;0.466472;,
  -0.989015;0.114058;0.094020;,
  -0.848441;-0.419006;-0.323390;,
  -0.147760;-0.779538;-0.608677;,
  0.656699;-0.592579;-0.466473;,
  0.003872;-0.615881;0.787829;,
  0.003872;-0.615881;0.787829;,
  0.147760;0.779539;0.608675;,
  -0.003868;0.615886;-0.787826;,
  -0.003869;0.615886;-0.787826;,
  0.989016;-0.114054;-0.094020;,
  0.848440;0.419009;0.323389;,
  0.147752;0.779540;0.608677;,
  -0.656700;0.592578;0.466472;,
  -0.989015;0.114059;0.094022;,
  -0.848442;-0.419004;-0.323391;,
  -0.147751;-0.779538;-0.608679;,
  0.656702;-0.592577;-0.466471;,
  0.003870;-0.615889;0.787824;,
  0.003867;-0.615880;0.787830;,
  0.147756;0.779539;0.608677;,
  -0.003882;0.615887;-0.787825;,
  -0.003866;0.615885;-0.787827;,
  0.989016;-0.114050;-0.094017;,
  0.848441;0.419006;0.323390;,
  0.147760;0.779537;0.608678;,
  -0.656699;0.592578;0.466474;,
  -0.989016;0.114050;0.094017;,
  -0.848439;-0.419009;-0.323393;,
  -0.147761;-0.779537;-0.608678;,
  0.656698;-0.592578;-0.466475;,
  0.003870;-0.615880;0.787830;,
  0.989016;-0.114052;-0.094017;,
  0.989016;-0.114051;-0.094017;,
  0.894955;-0.349355;-0.277503;,
  0.894955;-0.349354;-0.277502;,
  0.989016;-0.114052;-0.094017;,
  0.894955;-0.349354;-0.277502;,
  0.989016;-0.114054;-0.094019;,
  0.878538;-0.399804;-0.261396;,
  0.989016;-0.114055;-0.094019;,
  0.859420;-0.449025;-0.244487;,
  -0.997474;-0.059177;-0.039290;,
  -0.996989;-0.064318;-0.043312;,
  -0.989016;0.114053;0.094017;,
  -0.989016;0.114052;0.094017;,
  0.003868;-0.615888;0.787824;,
  0.003869;-0.615879;0.787831;,
  -0.996738;-0.065883;-0.046608;,
  -0.989016;0.114053;0.094019;,
  -0.995846;0.068639;0.059835;,
  -0.989016;0.114055;0.094020;,
  -0.989016;0.114054;0.094020;,
  -0.999713;-0.021478;-0.010594;,
  -0.999411;0.022998;0.025454;,
  0.992492;-0.082815;-0.090005;,
  0.989323;-0.113787;-0.091061;,
  0.996424;0.005664;-0.084306;,
  -0.991728;0.083974;0.097078;,
  -0.997876;0.022642;0.061085;,
  -0.989016;0.114053;0.094018;,
  -0.229930;-0.730757;-0.642749;,
  -0.238624;-0.765514;-0.597533;,
  -0.222611;-0.732217;-0.643663;,
  0.989016;-0.114053;-0.094018;,
  0.989016;-0.114052;-0.094019;,
  -0.989016;0.114052;0.094018;,
  -0.989016;0.114053;0.094018;,
  -0.241534;-0.765084;-0.596916;,
  -0.241587;-0.765073;-0.596908;,
  0.989016;-0.114053;-0.094018;,
  0.989016;-0.114054;-0.094020;,
  -0.985380;0.117114;0.123736;,
  -0.977420;0.149719;0.149114;,
  -0.241578;-0.765074;-0.596910;,
  -0.241554;-0.765079;-0.596914;,
  0.989016;-0.114055;-0.094019;,
  0.989016;-0.114054;-0.094018;,
  -0.977595;0.176279;0.115036;,
  -0.985555;0.143674;0.089658;,
  -0.241581;-0.765074;-0.596910;,
  -0.241584;-0.765074;-0.596908;,
  0.989016;-0.114052;-0.094019;,
  0.989016;-0.114053;-0.094018;,
  -0.989016;0.114054;0.094019;,
  -0.989016;0.114054;0.094019;,
  -0.241561;-0.765078;-0.596912;,
  -0.241575;-0.765076;-0.596910;,
  0.989016;-0.114053;-0.094016;,
  -0.989016;0.114052;0.094018;,
  -0.241592;-0.765072;-0.596907;,
  0.977114;-0.087909;-0.193700;,
  0.974669;0.218590;-0.047308;,
  0.866822;-0.384266;-0.317743;,
  -0.999198;0.034653;0.020069;,
  -0.996802;0.077831;0.018133;,
  -0.998301;-0.030355;-0.049743;,
  -0.220134;-0.721141;-0.656884;,
  -0.983514;-0.138046;-0.116808;,
  -0.990265;-0.110707;-0.084377;,
  -0.147760;-0.779536;-0.608679;,
  0.656651;-0.591837;-0.467481;,
  0.989009;-0.113035;-0.095307;,
  -0.848406;-0.419813;-0.322437;,
  0.848413;0.419802;0.322430;,
  -0.989008;0.113044;0.095315;,
  0.147768;0.779535;0.608679;,
  -0.656657;0.591833;0.467478;,
  0.656656;-0.591838;-0.467472;,
  -0.147762;-0.779540;-0.608674;,
  0.989009;-0.113037;-0.095306;,
  -0.848409;-0.419807;-0.322434;,
  0.848404;0.419814;0.322440;,
  -0.989008;0.113044;0.095309;,
  0.147755;0.779537;0.608680;,
  -0.656653;0.591838;0.467477;,
  -0.003867;0.615879;-0.787831;,
  -0.003877;0.615894;-0.787820;,
  -0.003862;0.615870;-0.787838;,
  -0.003863;0.615874;-0.787835;,
  -0.003855;0.615887;-0.787825;,
  -0.003850;0.615895;-0.787819;,
  -0.003865;0.615894;-0.787819;,
  -0.003880;0.615898;-0.787816;,
  0.003875;-0.615888;0.787824;,
  0.003864;-0.615890;0.787823;,
  0.003871;-0.615884;0.787827;,
  0.003877;-0.615891;0.787822;,
  0.003867;-0.615895;0.787819;,
  0.003857;-0.615885;0.787826;,
  0.003860;-0.615878;0.787832;,
  0.003876;-0.615879;0.787831;,
  -0.147767;-0.779534;-0.608681;,
  0.986684;-0.125754;-0.103157;,
  -0.986684;0.125756;0.103154;,
  -0.147771;-0.779538;-0.608674;,
  0.986683;-0.125755;-0.103156;,
  -0.986684;0.125757;0.103154;,
  -0.147762;-0.779536;-0.608679;,
  0.989016;-0.114054;-0.094019;,
  -0.989016;0.114054;0.094019;,
  -0.147765;-0.779535;-0.608679;,
  0.984134;-0.137403;-0.112250;,
  -0.984134;0.137404;0.112249;,
  -0.147764;-0.779539;-0.608675;,
  0.984134;-0.137406;-0.112249;,
  -0.984134;0.137406;0.112249;,
  -0.147413;-0.714761;-0.683657;,
  0.998392;0.051699;0.023250;,
  -0.998392;-0.051699;-0.023250;,
  -0.003866;0.615875;-0.787834;,
  -0.003864;0.615888;-0.787824;,
  -0.003861;0.615875;-0.787835;,
  -0.003868;0.615869;-0.787840;,
  -0.003876;0.615882;-0.787829;,
  -0.003862;0.615891;-0.787822;,
  -0.003871;0.615884;-0.787827;,
  -0.003877;0.615893;-0.787820;,
  0.003877;-0.615877;0.787833;,
  0.003899;-0.615849;0.787854;,
  0.003874;-0.615857;0.787849;,
  0.003858;-0.615841;0.787861;,
  0.003873;-0.615875;0.787835;,
  0.003864;-0.615918;0.787801;,
  0.003866;-0.615917;0.787802;,
  0.003869;-0.615917;0.787802;,
  -0.147759;-0.779537;-0.608679;,
  0.989016;-0.114054;-0.094020;,
  -0.989016;0.114053;0.094018;,
  -0.003865;0.615879;-0.787831;,
  -0.003849;0.615881;-0.787830;,
  -0.003866;0.615889;-0.787824;,
  -0.003871;0.615879;-0.787831;,
  -0.003886;0.615880;-0.787831;,
  -0.003890;0.615892;-0.787821;,
  -0.003873;0.615894;-0.787820;,
  -0.003849;0.615892;-0.787821;,
  0.003871;-0.615883;0.787828;,
  0.003896;-0.615880;0.787830;,
  0.003883;-0.615894;0.787819;,
  0.003854;-0.615888;0.787824;,
  0.003857;-0.615893;0.787820;,
  0.003843;-0.615890;0.787823;,
  0.003867;-0.615884;0.787828;,
  0.003885;-0.615896;0.787818;,
  -0.147758;-0.779538;-0.608677;,
  0.989016;-0.114055;-0.094020;,
  -0.989016;0.114054;0.094019;,
  -0.003872;0.615892;-0.787821;,
  -0.003870;0.615883;-0.787829;,
  -0.003866;0.615894;-0.787820;,
  -0.003860;0.615891;-0.787822;,
  -0.003864;0.615885;-0.787827;,
  -0.003863;0.615879;-0.787831;,
  -0.003864;0.615878;-0.787832;,
  -0.003869;0.615877;-0.787833;,
  0.003882;-0.615876;0.787834;,
  0.003878;-0.615881;0.787830;,
  0.003869;-0.615878;0.787832;,
  0.003866;-0.615875;0.787834;,
  0.003870;-0.615878;0.787832;,
  0.003873;-0.615887;0.787825;,
  0.003860;-0.615889;0.787824;,
  0.003863;-0.615877;0.787833;;
  352;
  4;26,24,24,26;,
  4;26,26,5,5;,
  4;27,4,4,27;,
  4;27,27,25,25;,
  4;28,5,5,28;,
  4;28,28,1,1;,
  4;29,0,0,29;,
  4;29,29,4,4;,
  4;32,3,3,32;,
  4;32,32,2,2;,
  4;40,243,244,42;,
  4;40,42,245,246;,
  4;42,244,247,44;,
  4;42,44,248,245;,
  4;44,247,249,46;,
  4;44,46,250,248;,
  4;46,249,251,48;,
  4;46,48,252,250;,
  4;47,253,254,49;,
  4;47,49,255,256;,
  4;50,257,257,50;,
  4;50,50,258,258;,
  4;49,254,259,51;,
  4;49,51,260,255;,
  4;261,262,263,52;,
  4;261,52,264,265;,
  4;51,259,264,52;,
  4;51,52,263,260;,
  4;53,6,6,53;,
  4;53,53,9,9;,
  4;266,267,31,54;,
  4;266,54,30,268;,
  4;269,270,35,55;,
  4;269,55,37,271;,
  4;54,31,10,56;,
  4;54,56,7,30;,
  4;55,35,8,57;,
  4;55,57,11,37;,
  4;272,273,273,272;,
  4;272,272,274,274;,
  4;58,9,9,58;,
  4;58,58,12,12;,
  4;275,276,33,59;,
  4;275,59,31,267;,
  4;277,271,37,60;,
  4;277,60,39,278;,
  4;59,33,13,61;,
  4;59,61,10,31;,
  4;60,37,11,62;,
  4;60,62,14,39;,
  4;279,280,280,279;,
  4;279,279,273,273;,
  4;63,12,12,63;,
  4;63,63,15,15;,
  4;281,282,34,64;,
  4;281,64,33,276;,
  4;283,278,39,65;,
  4;283,65,41,284;,
  4;64,34,16,66;,
  4;64,66,13,33;,
  4;65,39,14,67;,
  4;65,67,17,41;,
  4;285,286,286,285;,
  4;285,285,280,280;,
  4;68,15,15,68;,
  4;68,68,18,18;,
  4;287,288,36,69;,
  4;287,69,34,282;,
  4;289,284,41,70;,
  4;289,70,43,290;,
  4;69,36,19,71;,
  4;69,71,16,34;,
  4;70,41,17,72;,
  4;70,72,20,43;,
  4;291,292,292,291;,
  4;291,291,286,286;,
  4;73,18,18,73;,
  4;73,73,21,21;,
  4;293,294,38,74;,
  4;293,74,36,288;,
  4;295,290,43,75;,
  4;295,75,45,296;,
  4;74,38,22,76;,
  4;74,76,19,36;,
  4;75,43,20,77;,
  4;75,77,23,45;,
  4;297,298,298,297;,
  4;297,297,292,292;,
  4;78,21,21,78;,
  4;78,78,24,24;,
  4;299,243,40,79;,
  4;299,79,38,294;,
  4;300,296,45,80;,
  4;300,80,47,256;,
  4;79,40,246,81;,
  4;79,81,22,38;,
  4;80,45,23,82;,
  4;80,82,253,47;,
  4;301,25,25,301;,
  4;301,301,298,298;,
  4;83,268,30,84;,
  4;83,84,302,303;,
  4;85,2,2,85;,
  4;85,85,6,6;,
  4;84,30,7,86;,
  4;84,86,304,302;,
  4;305,306,307,87;,
  4;305,87,35,270;,
  4;88,274,274,88;,
  4;88,88,308,308;,
  4;87,307,309,310;,
  4;87,310,8,35;,
  3;89,91,90;,
  3;89,92,91;,
  3;89,93,92;,
  3;89,94,93;,
  3;89,95,94;,
  3;89,96,95;,
  3;89,97,96;,
  3;89,90,97;,
  3;106,98,99;,
  3;106,99,100;,
  3;106,100,101;,
  3;106,101,102;,
  3;106,102,103;,
  3;106,103,104;,
  3;106,104,105;,
  3;106,105,98;,
  4;107,108,311,312;,
  4;107,312,313,109;,
  4;108,110,314,311;,
  4;109,313,315,111;,
  4;110,112,316,314;,
  4;111,315,317,113;,
  4;112,114,318,316;,
  4;113,317,318,114;,
  4;115,116,108,107;,
  4;115,107,109,117;,
  4;116,118,110,108;,
  4;117,109,111,119;,
  4;118,120,112,110;,
  4;119,111,113,121;,
  4;120,122,114,112;,
  4;121,113,114,122;,
  4;123,124,116,115;,
  4;123,115,117,125;,
  4;124,126,118,116;,
  4;125,117,119,127;,
  4;126,128,120,118;,
  4;127,119,121,129;,
  4;128,130,122,120;,
  4;129,121,122,130;,
  4;131,132,124,123;,
  4;131,123,125,133;,
  4;132,134,126,124;,
  4;133,125,127,135;,
  4;134,136,128,126;,
  4;135,127,129,137;,
  4;136,138,130,128;,
  4;137,129,130,138;,
  4;139,140,132,131;,
  4;139,131,133,141;,
  4;140,142,134,132;,
  4;141,133,135,143;,
  4;142,144,136,134;,
  4;143,135,137,145;,
  4;144,146,138,136;,
  4;145,137,138,146;,
  4;147,148,140,139;,
  4;147,139,141,149;,
  4;148,150,142,140;,
  4;149,141,143,151;,
  4;150,152,144,142;,
  4;151,143,145,153;,
  4;152,154,146,144;,
  4;153,145,146,154;,
  4;155,156,148,147;,
  4;155,147,149,157;,
  4;156,158,150,148;,
  4;157,149,151,159;,
  4;158,160,152,150;,
  4;159,151,153,161;,
  4;160,162,154,152;,
  4;161,153,154,162;,
  4;163,164,156,155;,
  4;163,155,157,165;,
  4;164,166,158,156;,
  4;165,157,159,167;,
  4;166,168,160,158;,
  4;167,159,161,169;,
  4;168,170,162,160;,
  4;169,161,162,170;,
  4;171,319,320,172;,
  4;171,172,164,163;,
  4;171,163,165,173;,
  4;171,173,321,319;,
  4;172,320,322,174;,
  4;172,174,166,164;,
  4;173,165,167,175;,
  4;173,175,323,321;,
  4;174,322,324,176;,
  4;174,176,168,166;,
  4;175,167,169,177;,
  4;175,177,325,323;,
  4;176,324,326,178;,
  4;176,178,170,168;,
  4;177,169,170,178;,
  4;177,178,326,325;,
  4;180,181,181,180;,
  4;181,182,182,181;,
  4;182,183,183,182;,
  4;183,184,184,183;,
  4;184,185,185,184;,
  4;185,186,186,185;,
  4;186,187,187,186;,
  4;187,180,180,187;,
  3;179,327,328;,
  3;179,329,327;,
  3;179,330,329;,
  3;179,331,330;,
  3;179,332,331;,
  3;179,333,332;,
  3;179,334,333;,
  3;179,328,334;,
  3;188,335,336;,
  3;188,336,337;,
  3;188,337,338;,
  3;188,338,339;,
  3;188,339,340;,
  3;188,340,341;,
  3;188,341,342;,
  3;188,342,335;,
  4;189,189,189,189;,
  4;190,190,190,190;,
  4;191,191,191,191;,
  4;343,343,343,343;,
  4;344,344,344,344;,
  4;345,345,345,345;,
  4;192,192,192,192;,
  4;193,193,193,193;,
  4;194,194,194,194;,
  4;346,346,346,346;,
  4;347,347,347,347;,
  4;348,348,348,348;,
  4;195,195,195,195;,
  4;196,196,196,196;,
  4;197,197,197,197;,
  4;349,349,349,349;,
  4;350,350,350,350;,
  4;351,351,351,351;,
  4;198,198,198,198;,
  4;199,199,199,199;,
  4;200,200,200,200;,
  4;352,352,352,352;,
  4;353,353,353,353;,
  4;354,354,354,354;,
  4;201,201,201,201;,
  4;202,202,202,202;,
  4;203,203,203,203;,
  4;355,355,355,355;,
  4;356,356,356,356;,
  4;357,357,357,357;,
  4;204,204,204,204;,
  4;205,205,205,205;,
  4;206,206,206,206;,
  4;358,358,358,358;,
  4;359,359,359,359;,
  4;360,360,360,360;,
  4;208,209,209,208;,
  4;209,210,210,209;,
  4;210,211,211,210;,
  4;211,212,212,211;,
  4;212,213,213,212;,
  4;213,214,214,213;,
  4;214,215,215,214;,
  4;215,208,208,215;,
  3;207,361,362;,
  3;207,363,361;,
  3;207,364,363;,
  3;207,365,364;,
  3;207,366,365;,
  3;207,367,366;,
  3;207,368,367;,
  3;207,362,368;,
  3;216,369,370;,
  3;216,370,371;,
  3;216,371,372;,
  3;216,372,373;,
  3;216,373,374;,
  3;216,374,375;,
  3;216,375,376;,
  3;216,376,369;,
  4;217,217,217,217;,
  4;218,218,218,218;,
  4;219,219,219,219;,
  4;377,377,377,377;,
  4;378,378,378,378;,
  4;379,379,379,379;,
  4;221,222,222,221;,
  4;222,223,223,222;,
  4;223,224,224,223;,
  4;224,225,225,224;,
  4;225,226,226,225;,
  4;226,227,227,226;,
  4;227,228,228,227;,
  4;228,221,221,228;,
  3;220,380,381;,
  3;220,382,380;,
  3;220,383,382;,
  3;220,384,383;,
  3;220,385,384;,
  3;220,386,385;,
  3;220,387,386;,
  3;220,381,387;,
  3;229,388,389;,
  3;229,389,390;,
  3;229,390,391;,
  3;229,391,392;,
  3;229,392,393;,
  3;229,393,394;,
  3;229,394,395;,
  3;229,395,388;,
  4;230,230,230,230;,
  4;231,231,231,231;,
  4;232,232,232,232;,
  4;396,396,396,396;,
  4;397,397,397,397;,
  4;398,398,398,398;,
  4;234,235,235,234;,
  4;235,236,236,235;,
  4;236,237,237,236;,
  4;237,238,238,237;,
  4;238,239,239,238;,
  4;239,240,240,239;,
  4;240,241,241,240;,
  4;241,234,234,241;,
  3;233,399,400;,
  3;233,401,399;,
  3;233,402,401;,
  3;233,403,402;,
  3;233,404,403;,
  3;233,405,404;,
  3;233,406,405;,
  3;233,400,406;,
  3;242,407,408;,
  3;242,408,409;,
  3;242,409,410;,
  3;242,410,411;,
  3;242,411,412;,
  3;242,412,413;,
  3;242,413,414;,
  3;242,414,407;;
 }
 MeshTextureCoords {
  609;
  0.239610;0.000000;,
  0.302820;0.000000;,
  0.302820;1.000000;,
  0.239610;1.000000;,
  0.148410;1.000000;,
  0.148410;0.000000;,
  0.760390;0.000000;,
  0.851590;0.000000;,
  0.851590;1.000000;,
  0.760390;1.000000;,
  0.697180;1.000000;,
  0.697180;0.000000;,
  0.072670;0.000000;,
  0.072670;1.000000;,
  0.000000;1.000000;,
  0.000000;0.000000;,
  0.927330;0.000000;,
  1.000000;0.000000;,
  1.000000;1.000000;,
  0.927330;1.000000;,
  0.750920;0.000000;,
  1.000000;0.000000;,
  1.000000;1.000000;,
  0.750920;1.000000;,
  0.000000;1.000000;,
  0.000000;0.000000;,
  0.249080;0.697180;,
  1.000000;0.697180;,
  1.000000;0.760390;,
  0.249080;0.760390;,
  0.000000;0.760390;,
  0.000000;0.697180;,
  1.000000;0.851590;,
  0.249080;0.851590;,
  0.000000;0.851590;,
  1.000000;0.927330;,
  0.249080;0.927330;,
  0.000000;0.927330;,
  1.000000;1.000000;,
  0.249080;1.000000;,
  0.000000;1.000000;,
  0.249080;0.302820;,
  0.000000;0.302820;,
  0.000000;0.239610;,
  0.249080;0.239610;,
  1.000000;0.239610;,
  1.000000;0.302820;,
  0.249080;0.000000;,
  1.000000;0.000000;,
  1.000000;1.000000;,
  0.249080;1.000000;,
  0.000000;1.000000;,
  0.000000;0.000000;,
  0.000000;0.148410;,
  0.249080;0.148410;,
  1.000000;0.148410;,
  0.249080;0.000000;,
  1.000000;0.000000;,
  1.000000;0.072670;,
  0.249080;0.072670;,
  0.000000;0.072670;,
  0.000000;0.000000;,
  0.846690;0.000000;,
  0.896280;0.000000;,
  0.896280;1.000000;,
  0.846690;1.000000;,
  0.796560;1.000000;,
  0.796560;0.000000;,
  1.000000;0.153310;,
  1.000000;0.203440;,
  0.249080;0.203440;,
  0.249080;0.153310;,
  0.249080;0.103720;,
  1.000000;0.103720;,
  1.000000;0.846690;,
  1.000000;0.896280;,
  0.249080;0.896280;,
  0.249080;0.846690;,
  0.249080;0.796560;,
  1.000000;0.796560;,
  0.000000;0.203440;,
  0.000000;0.153310;,
  0.000000;0.103720;,
  0.000000;0.896280;,
  0.000000;0.846690;,
  0.000000;0.796560;,
  0.153310;0.000000;,
  0.203440;0.000000;,
  0.203440;1.000000;,
  0.153310;1.000000;,
  0.103720;1.000000;,
  0.103720;0.000000;,
  0.749320;0.000000;,
  0.749320;1.000000;,
  0.702990;1.000000;,
  0.702990;0.000000;,
  1.000000;0.250680;,
  1.000000;0.297010;,
  0.249080;0.297010;,
  0.249080;0.250680;,
  1.000000;0.749320;,
  0.249080;0.749320;,
  0.249080;0.702990;,
  1.000000;0.702990;,
  0.000000;0.297010;,
  0.000000;0.250680;,
  0.000000;0.749320;,
  0.000000;0.702990;,
  0.250680;0.000000;,
  0.297010;0.000000;,
  0.297010;1.000000;,
  0.250680;1.000000;,
  0.651600;0.000000;,
  0.651600;1.000000;,
  0.599830;1.000000;,
  0.599830;0.000000;,
  1.000000;0.348400;,
  1.000000;0.400170;,
  0.249080;0.400170;,
  0.249080;0.348400;,
  1.000000;0.651600;,
  0.249080;0.651600;,
  0.249080;0.599830;,
  1.000000;0.599830;,
  0.000000;0.400170;,
  0.000000;0.348400;,
  0.000000;0.651600;,
  0.000000;0.599830;,
  0.348400;0.000000;,
  0.400170;0.000000;,
  0.400170;1.000000;,
  0.348400;1.000000;,
  0.540930;0.000000;,
  0.540930;1.000000;,
  0.488550;1.000000;,
  0.488550;0.000000;,
  1.000000;0.459070;,
  1.000000;0.511450;,
  0.249080;0.511450;,
  0.249080;0.459070;,
  1.000000;0.540930;,
  0.249080;0.540930;,
  0.249080;0.488550;,
  1.000000;0.488550;,
  0.000000;0.511450;,
  0.000000;0.459070;,
  0.000000;0.540930;,
  0.000000;0.488550;,
  0.459070;0.000000;,
  0.511450;0.000000;,
  0.511450;1.000000;,
  0.459070;1.000000;,
  0.439210;0.000000;,
  0.439210;1.000000;,
  0.392920;1.000000;,
  0.392920;0.000000;,
  1.000000;0.560790;,
  1.000000;0.607080;,
  0.249080;0.607080;,
  0.249080;0.560790;,
  1.000000;0.439210;,
  0.249080;0.439210;,
  0.249080;0.392920;,
  1.000000;0.392920;,
  0.000000;0.607080;,
  0.000000;0.560790;,
  0.000000;0.439210;,
  0.000000;0.392920;,
  0.560790;0.000000;,
  0.607080;0.000000;,
  0.607080;1.000000;,
  0.560790;1.000000;,
  0.350760;0.000000;,
  0.350760;1.000000;,
  1.000000;0.649240;,
  0.249080;0.649240;,
  1.000000;0.350760;,
  0.249080;0.350760;,
  0.000000;0.649240;,
  0.000000;0.350760;,
  0.649240;0.000000;,
  0.649240;1.000000;,
  1.000000;0.032930;,
  0.249080;0.032930;,
  0.249080;0.000000;,
  1.000000;0.000000;,
  0.967070;0.000000;,
  1.000000;1.000000;,
  0.967070;1.000000;,
  0.000000;0.032930;,
  0.000000;0.000000;,
  1.000000;0.967070;,
  0.249080;1.000000;,
  0.249080;0.967070;,
  0.032930;0.000000;,
  0.032930;1.000000;,
  0.000000;1.000000;,
  0.000000;0.967070;,
  0.062500;0.000000;,
  0.125000;0.000000;,
  0.000000;0.000000;,
  0.187500;0.000000;,
  0.250000;0.000000;,
  0.312500;0.000000;,
  0.375000;0.000000;,
  0.437500;0.000000;,
  0.500000;0.000000;,
  0.562500;0.000000;,
  0.625000;0.000000;,
  0.687500;0.000000;,
  0.750000;0.000000;,
  0.812500;0.000000;,
  0.875000;0.000000;,
  0.937500;0.000000;,
  1.000000;0.000000;,
  0.062500;1.000000;,
  0.000000;1.000000;,
  0.125000;1.000000;,
  0.187500;1.000000;,
  0.250000;1.000000;,
  0.312500;1.000000;,
  0.375000;1.000000;,
  0.437500;1.000000;,
  0.500000;1.000000;,
  0.562500;1.000000;,
  0.625000;1.000000;,
  0.687500;1.000000;,
  0.750000;1.000000;,
  0.812500;1.000000;,
  0.875000;1.000000;,
  0.937500;1.000000;,
  1.000000;1.000000;,
  0.875000;0.101610;,
  0.750000;0.101610;,
  1.000000;0.101610;,
  0.625000;0.101610;,
  0.000000;0.101610;,
  0.125000;0.101610;,
  0.500000;0.101610;,
  0.250000;0.101610;,
  0.375000;0.101610;,
  0.875000;0.221650;,
  0.750000;0.221650;,
  1.000000;0.221650;,
  0.625000;0.221650;,
  0.000000;0.221650;,
  0.125000;0.221650;,
  0.500000;0.221650;,
  0.250000;0.221650;,
  0.375000;0.221650;,
  0.875000;0.344630;,
  0.750000;0.344630;,
  1.000000;0.344630;,
  0.625000;0.344630;,
  0.000000;0.344630;,
  0.125000;0.344630;,
  0.500000;0.344630;,
  0.250000;0.344630;,
  0.375000;0.344630;,
  0.875000;0.450480;,
  0.750000;0.450480;,
  1.000000;0.450480;,
  0.625000;0.450480;,
  0.000000;0.450480;,
  0.125000;0.450480;,
  0.500000;0.450480;,
  0.250000;0.450480;,
  0.375000;0.450480;,
  0.875000;0.536770;,
  0.750000;0.536770;,
  1.000000;0.536770;,
  0.625000;0.536770;,
  0.000000;0.536770;,
  0.125000;0.536770;,
  0.500000;0.536770;,
  0.250000;0.536770;,
  0.375000;0.536770;,
  0.875000;0.626270;,
  0.750000;0.626270;,
  1.000000;0.626270;,
  0.625000;0.626270;,
  0.000000;0.626270;,
  0.125000;0.626270;,
  0.500000;0.626270;,
  0.250000;0.626270;,
  0.375000;0.626270;,
  0.875000;0.737420;,
  0.750000;0.737420;,
  1.000000;0.737420;,
  0.625000;0.737420;,
  0.000000;0.737420;,
  0.125000;0.737420;,
  0.500000;0.737420;,
  0.250000;0.737420;,
  0.375000;0.737420;,
  0.875000;0.829890;,
  0.750000;0.829890;,
  1.000000;0.829890;,
  0.625000;0.829890;,
  0.000000;0.829890;,
  0.125000;0.829890;,
  0.500000;0.829890;,
  0.250000;0.829890;,
  0.375000;0.829890;,
  0.875000;0.904610;,
  0.750000;0.904610;,
  1.000000;0.904610;,
  0.625000;0.904610;,
  0.000000;0.904610;,
  0.125000;0.904610;,
  0.500000;0.904610;,
  0.250000;0.904610;,
  0.375000;0.904610;,
  0.000000;0.000000;,
  0.125000;0.000000;,
  0.125000;1.000000;,
  0.000000;1.000000;,
  0.250000;0.000000;,
  0.250000;1.000000;,
  0.375000;0.000000;,
  0.375000;1.000000;,
  0.500000;0.000000;,
  0.500000;1.000000;,
  0.625000;0.000000;,
  0.625000;1.000000;,
  0.750000;0.000000;,
  0.750000;1.000000;,
  0.875000;0.000000;,
  0.875000;1.000000;,
  1.000000;0.000000;,
  1.000000;1.000000;,
  0.062500;0.000000;,
  0.187500;0.000000;,
  0.312500;0.000000;,
  0.437500;0.000000;,
  0.562500;0.000000;,
  0.687500;0.000000;,
  0.812500;0.000000;,
  0.937500;0.000000;,
  0.062500;1.000000;,
  0.187500;1.000000;,
  0.312500;1.000000;,
  0.437500;1.000000;,
  0.562500;1.000000;,
  0.687500;1.000000;,
  0.812500;1.000000;,
  0.937500;1.000000;,
  0.000000;0.000000;,
  1.000000;0.000000;,
  1.000000;1.000000;,
  0.000000;1.000000;,
  0.000000;0.000000;,
  1.000000;0.000000;,
  1.000000;1.000000;,
  0.000000;1.000000;,
  0.000000;0.000000;,
  1.000000;0.000000;,
  1.000000;1.000000;,
  0.000000;1.000000;,
  0.000000;0.000000;,
  1.000000;0.000000;,
  1.000000;1.000000;,
  0.000000;1.000000;,
  1.000000;1.000000;,
  0.000000;1.000000;,
  0.000000;0.000000;,
  1.000000;0.000000;,
  0.000000;0.000000;,
  1.000000;0.000000;,
  1.000000;1.000000;,
  0.000000;1.000000;,
  0.000000;0.000000;,
  1.000000;0.000000;,
  1.000000;1.000000;,
  0.000000;1.000000;,
  0.000000;0.000000;,
  1.000000;0.000000;,
  1.000000;1.000000;,
  0.000000;1.000000;,
  0.000000;0.000000;,
  1.000000;0.000000;,
  1.000000;1.000000;,
  0.000000;1.000000;,
  1.000000;1.000000;,
  0.000000;1.000000;,
  0.000000;0.000000;,
  1.000000;0.000000;,
  0.000000;0.000000;,
  1.000000;0.000000;,
  1.000000;1.000000;,
  0.000000;1.000000;,
  0.000000;0.000000;,
  1.000000;0.000000;,
  1.000000;1.000000;,
  0.000000;1.000000;,
  0.000000;0.000000;,
  1.000000;0.000000;,
  1.000000;1.000000;,
  0.000000;1.000000;,
  0.000000;0.000000;,
  1.000000;0.000000;,
  1.000000;1.000000;,
  0.000000;1.000000;,
  1.000000;1.000000;,
  0.000000;1.000000;,
  0.000000;0.000000;,
  1.000000;0.000000;,
  0.000000;0.000000;,
  1.000000;0.000000;,
  1.000000;1.000000;,
  0.000000;1.000000;,
  0.000000;0.000000;,
  1.000000;0.000000;,
  1.000000;1.000000;,
  0.000000;1.000000;,
  0.000000;0.000000;,
  1.000000;0.000000;,
  1.000000;1.000000;,
  0.000000;1.000000;,
  0.000000;0.000000;,
  1.000000;0.000000;,
  1.000000;1.000000;,
  0.000000;1.000000;,
  1.000000;1.000000;,
  0.000000;1.000000;,
  0.000000;0.000000;,
  1.000000;0.000000;,
  0.000000;0.000000;,
  1.000000;0.000000;,
  1.000000;1.000000;,
  0.000000;1.000000;,
  0.000000;0.000000;,
  1.000000;0.000000;,
  1.000000;1.000000;,
  0.000000;1.000000;,
  0.000000;0.000000;,
  1.000000;0.000000;,
  1.000000;1.000000;,
  0.000000;1.000000;,
  0.000000;0.000000;,
  1.000000;0.000000;,
  1.000000;1.000000;,
  0.000000;1.000000;,
  1.000000;1.000000;,
  0.000000;1.000000;,
  0.000000;0.000000;,
  1.000000;0.000000;,
  0.000000;0.000000;,
  1.000000;0.000000;,
  1.000000;1.000000;,
  0.000000;1.000000;,
  0.000000;0.000000;,
  1.000000;0.000000;,
  1.000000;1.000000;,
  0.000000;1.000000;,
  0.000000;0.000000;,
  1.000000;0.000000;,
  1.000000;1.000000;,
  0.000000;1.000000;,
  0.000000;0.000000;,
  1.000000;0.000000;,
  1.000000;1.000000;,
  0.000000;1.000000;,
  1.000000;1.000000;,
  0.000000;1.000000;,
  0.000000;0.000000;,
  1.000000;0.000000;,
  0.000000;0.000000;,
  0.125000;0.000000;,
  0.125000;1.000000;,
  0.000000;1.000000;,
  0.250000;0.000000;,
  0.250000;1.000000;,
  0.375000;0.000000;,
  0.375000;1.000000;,
  0.500000;0.000000;,
  0.500000;1.000000;,
  0.625000;0.000000;,
  0.625000;1.000000;,
  0.750000;0.000000;,
  0.750000;1.000000;,
  0.875000;0.000000;,
  0.875000;1.000000;,
  1.000000;0.000000;,
  1.000000;1.000000;,
  0.062500;0.000000;,
  0.187500;0.000000;,
  0.312500;0.000000;,
  0.437500;0.000000;,
  0.562500;0.000000;,
  0.687500;0.000000;,
  0.812500;0.000000;,
  0.937500;0.000000;,
  0.062500;1.000000;,
  0.187500;1.000000;,
  0.312500;1.000000;,
  0.437500;1.000000;,
  0.562500;1.000000;,
  0.687500;1.000000;,
  0.812500;1.000000;,
  0.937500;1.000000;,
  0.000000;0.000000;,
  1.000000;0.000000;,
  1.000000;1.000000;,
  0.000000;1.000000;,
  0.000000;0.000000;,
  1.000000;0.000000;,
  1.000000;1.000000;,
  0.000000;1.000000;,
  0.000000;0.000000;,
  1.000000;0.000000;,
  1.000000;1.000000;,
  0.000000;1.000000;,
  0.000000;0.000000;,
  1.000000;0.000000;,
  1.000000;1.000000;,
  0.000000;1.000000;,
  1.000000;1.000000;,
  0.000000;1.000000;,
  0.000000;0.000000;,
  1.000000;0.000000;,
  0.000000;0.000000;,
  0.125000;0.000000;,
  0.125000;1.000000;,
  0.000000;1.000000;,
  0.250000;0.000000;,
  0.250000;1.000000;,
  0.375000;0.000000;,
  0.375000;1.000000;,
  0.500000;0.000000;,
  0.500000;1.000000;,
  0.625000;0.000000;,
  0.625000;1.000000;,
  0.750000;0.000000;,
  0.750000;1.000000;,
  0.875000;0.000000;,
  0.875000;1.000000;,
  1.000000;0.000000;,
  1.000000;1.000000;,
  0.062500;0.000000;,
  0.187500;0.000000;,
  0.312500;0.000000;,
  0.437500;0.000000;,
  0.562500;0.000000;,
  0.687500;0.000000;,
  0.812500;0.000000;,
  0.937500;0.000000;,
  0.062500;1.000000;,
  0.187500;1.000000;,
  0.312500;1.000000;,
  0.437500;1.000000;,
  0.562500;1.000000;,
  0.687500;1.000000;,
  0.812500;1.000000;,
  0.937500;1.000000;,
  0.000000;0.000000;,
  1.000000;0.000000;,
  1.000000;1.000000;,
  0.000000;1.000000;,
  0.000000;0.000000;,
  1.000000;0.000000;,
  1.000000;1.000000;,
  0.000000;1.000000;,
  0.000000;0.000000;,
  1.000000;0.000000;,
  1.000000;1.000000;,
  0.000000;1.000000;,
  0.000000;0.000000;,
  1.000000;0.000000;,
  1.000000;1.000000;,
  0.000000;1.000000;,
  1.000000;1.000000;,
  0.000000;1.000000;,
  0.000000;0.000000;,
  1.000000;0.000000;,
  0.000000;0.000000;,
  0.125000;0.000000;,
  0.125000;1.000000;,
  0.000000;1.000000;,
  0.250000;0.000000;,
  0.250000;1.000000;,
  0.375000;0.000000;,
  0.375000;1.000000;,
  0.500000;0.000000;,
  0.500000;1.000000;,
  0.625000;0.000000;,
  0.625000;1.000000;,
  0.750000;0.000000;,
  0.750000;1.000000;,
  0.875000;0.000000;,
  0.875000;1.000000;,
  1.000000;0.000000;,
  1.000000;1.000000;,
  0.062500;0.000000;,
  0.187500;0.000000;,
  0.312500;0.000000;,
  0.437500;0.000000;,
  0.562500;0.000000;,
  0.687500;0.000000;,
  0.812500;0.000000;,
  0.937500;0.000000;,
  0.062500;1.000000;,
  0.187500;1.000000;,
  0.312500;1.000000;,
  0.437500;1.000000;,
  0.562500;1.000000;,
  0.687500;1.000000;,
  0.812500;1.000000;,
  0.937500;1.000000;;
 }
}
